<?xml version="1.0" encoding="UTF-8" standalone="no"?> <!-- Created with Vectornator Pro for iOS (http://vectornator.io/) --><!DOCTYPE svg PUBLIC "-//W3C//DTD SVG 1.1//EN" "http://www.w3.org/Graphics/SVG/1.1/DTD/svg11.dtd">
<svg style="fill-rule:evenodd;clip-rule:evenodd;stroke-linecap:round;stroke-linejoin:round;" xmlns:vectornator="http://vectornator.io" xmlns:xlink="http://www.w3.org/1999/xlink" xmlns="http://www.w3.org/2000/svg" xml:space="preserve" version="1.1" viewBox="0 0 1500 1500">
<metadata>
<vectornator:setting key="DisplayWhiteBackground" value="1"/>
<vectornator:setting key="RulersVisible" value="1"/>
<vectornator:setting key="SnapToEdges" value="0"/>
<vectornator:setting key="Units" value="Pixels"/>
<vectornator:setting key="DynamicGuides" value="1"/>
<vectornator:setting key="SnapToPoints" value="0"/>
<vectornator:setting key="CMYKEnabledKey" value="0"/>
<vectornator:setting key="SnapToGrid" value="0"/>
<vectornator:setting key="ShowGrid" value="0"/>
<vectornator:setting key="GridSpacing" value="50"/>
</metadata>
<defs/>
<g id="Calque 3" vectornator:layerName="Calque 3">
<path d="M846.607+307.181C846.606+307.179+846.606+307.179+846.604+307.175C846.6+307.167+858.119+330.368+846.58+307.127C835.042+283.886+800.66+213.962+800.451+214.21C527.084+539.007+313.544+1280.55+799.028+1285.77C1063.61+1288.62+1127.76+927.406+968.187+567.421C968.059+567.133+967.593+566.665+967.803+566.557" opacity="1" fill="#272eff"/>
</g>
<g id="Calque 1" vectornator:layerName="Calque 1">
<path stroke="#ffffff" stroke-width="50.17" d="M855.427+321.836C855.389+321.863+855.372+321.724+855.345+321.669C822.168+253.818+800.619+214.01+800.451+214.21C527.084+539.007+281.744+1285.79+799.028+1285.77C1097.41+1285.76+1129.82+927.127+969.371+566.636C969.347+566.583+969.262+566.499+969.3+566.477" fill="none" stroke-linecap="round" opacity="1" stroke-linejoin="round"/>
</g>
</svg>
