<?xml version="1.0" encoding="UTF-8" standalone="no"?> <!-- Created with Vectornator Pro for iOS (http://vectornator.io/) --><!DOCTYPE svg PUBLIC "-//W3C//DTD SVG 1.1//EN" "http://www.w3.org/Graphics/SVG/1.1/DTD/svg11.dtd">
<svg height="100%" style="fill-rule:evenodd;clip-rule:evenodd;stroke-linecap:round;stroke-linejoin:round;" xmlns:xlink="http://www.w3.org/1999/xlink" xmlns="http://www.w3.org/2000/svg" xml:space="preserve" width="100%" xmlns:vectornator="http://vectornator.io" version="1.1" viewBox="0 0 1500 1500">
<metadata>
<vectornator:setting key="DisplayWhiteBackground" value="1"/>
<vectornator:setting key="RulersVisible" value="1"/>
<vectornator:setting key="SnapToEdges" value="0"/>
<vectornator:setting key="Units" value="Pixels"/>
<vectornator:setting key="DynamicGuides" value="1"/>
<vectornator:setting key="SnapToPoints" value="0"/>
<vectornator:setting key="SnapToGrid" value="0"/>
<vectornator:setting key="ShowGrid" value="0"/>
<vectornator:setting key="GridSpacing" value="50"/>
</metadata>
<defs/>
<g id="Calque 1" vectornator:layerName="Calque 1">
<path stroke="#ffffff" stroke-width="23.17" d="M393.425+148.98C321.068+150.652+192.257+205.376+86.0947+311.538C-20.0682+417.7+15.3169+400.904+147.692+559.906C199.833+622.535+306.942+416.055+341.05+514.613C367.643+591.453+311.624+1283.49+369.543+1304.68C440.204+1330.53+559.73+1369.73+750+1369.73C940.269+1369.73+1059.96+1330.53+1130.62+1304.68C1188.54+1283.49+1137.36+591.454+1163.95+514.613C1198.06+416.055+1300.17+622.535+1352.31+559.906C1484.68+400.904+1520.07+417.7+1413.9+311.538C1307.74+205.376+1178.92+151.023+1106.57+148.98C1056.51+147.566+931.43+148.216+931.43+148.216C931.43+148.216+891.078+289.985+750+288.48C610.594+286.994+568.862+148.972+568.862+148.972C568.862+148.972+447.952+147.719+393.425+148.98Z" fill="#000000" stroke-linecap="round" opacity="1" stroke-linejoin="round"/>
</g>
</svg>
