<?xml version="1.0" encoding="UTF-8" standalone="no"?> <!-- Created with Vectornator Pro for iOS (http://vectornator.io/) --><!DOCTYPE svg PUBLIC "-//W3C//DTD SVG 1.1//EN" "http://www.w3.org/Graphics/SVG/1.1/DTD/svg11.dtd">
<svg style="fill-rule:evenodd;clip-rule:evenodd;stroke-linecap:round;stroke-linejoin:round;" xmlns:vectornator="http://vectornator.io" xmlns:xlink="http://www.w3.org/1999/xlink" xmlns="http://www.w3.org/2000/svg" xml:space="preserve" version="1.1" viewBox="0 0 1190.7 1417.5">
<metadata>
<vectornator:setting key="DisplayWhiteBackground" value="1"/>
<vectornator:setting key="RulersVisible" value="1"/>
<vectornator:setting key="SnapToEdges" value="0"/>
<vectornator:setting key="Units" value="Millimeters"/>
<vectornator:setting key="DynamicGuides" value="1"/>
<vectornator:setting key="SnapToPoints" value="0"/>
<vectornator:setting key="CMYKEnabledKey" value="0"/>
<vectornator:setting key="SnapToGrid" value="0"/>
<vectornator:setting key="IsolateActiveLayer" value="0"/>
<vectornator:setting key="ShowGrid" value="0"/>
<vectornator:setting key="GridSpacing" value="50"/>
</metadata>
<defs/>
<g id="Tee shirt base" vectornator:layerName="Tee shirt base">
<path stroke="#313131" stroke-width="5.04" d="M771.343+46.5588C769.115+46.5639+765.314+47.4062+764.424+49.3597C744.728+92.5848+714.079+167.313+609.494+171.628C533.035+174.782+461.878+116.974+441.898+60.5968C440.597+56.9257+434.843+58.4852+431.39+59.2076C316.128+83.3166+253.904+131.917+227.306+147.818C150.85+193.524+26.9685+413.319+24.0166+420.756C-3.64916+490.455+159.704+614.292+202.262+629.563C207.307+631.373+234.917+576.531+258.94+487.997C260.617+481.817+258.383+437.583+244.295+393.277C242.513+387.674+247.799+399.571+249.713+407.771C264.99+473.217+268.264+542.847+268.265+542.847L261.039+687.439L237.46+1354.13L605.553+1351.64L962.419+1352.42L938.839+685.731C938.839+685.731+933.865+614.354+935.616+542.124C936.927+488.052+943.625+434.081+950.165+406.063C952.079+397.863+957.415+385.966+955.633+391.569C941.544+435.876+939.162+480.137+940.938+486.289C966.294+574.122+992.62+629.665+997.666+627.855C1040.22+612.584+1194.78+477.673+1167.12+407.974C1164.17+400.537+1067.34+229.438+1001.47+165.492C986.918+151.359+879.674+46.3124+771.343+46.5588Z" fill="none" stroke-linecap="round" opacity="1" stroke-linejoin="round"/>
<path stroke="#dcdcdc" stroke-width="9.52" d="M431.407+70.5645C431.407+70.5645+481.915+189.506+607.599+185.16C746.658+180.351+774.324+58.2216+774.324+58.2216" fill="none" stroke-linecap="round" opacity="1" stroke-linejoin="round"/>
<path stroke="#161616" stroke-width="2.93" d="M417.299+69.4439C417.299+69.4439+463.956+204.228+613.929+196.857C764.149+189.473+788.492+54.3667+788.492+54.3667" fill="none" stroke-linecap="round" opacity="1" stroke-linejoin="round"/>
</g>
<g id="Calque 1" vectornator:layerName="Calque 1" visibility="hidden">
<g opacity="1">
<path stroke="#000000" stroke-width="6.98" d="M458.394+690.517L409.842+662.486L409.842+606.422L458.394+578.391L506.946+606.422L506.946+662.486L458.394+690.517Z" fill="#ffffff" stroke-linecap="round" opacity="1" stroke-linejoin="round"/>
<path stroke="#000000" stroke-width="6.98" d="M506.946+773.475L458.394+745.443L458.394+689.38L506.946+661.349L555.499+689.38L555.499+745.443L506.946+773.475Z" fill="#ffffff" stroke-linecap="round" opacity="1" stroke-linejoin="round"/>
<path stroke="#000000" stroke-width="6.98" d="M604.639+661.349L604.639+607.362" fill="#ffffff" stroke-linecap="round" opacity="1" stroke-linejoin="round"/>
<path stroke="#000000" stroke-width="6.98" d="M604.639+773.475L556.087+745.443L556.087+689.38L604.639+661.349L653.191+689.38L653.191+745.443L604.639+773.475Z" fill="#ffffff" stroke-linecap="round" opacity="1" stroke-linejoin="round"/>
<path stroke="#000000" stroke-width="6.98" d="M458.394+578.391L458.394+524.405" fill="#ffffff" stroke-linecap="round" opacity="1" stroke-linejoin="round"/>
<path stroke="#000000" stroke-width="6.98" d="M700.358+771.674L653.191+745.41" fill="#ffffff" stroke-linecap="round" opacity="1" stroke-linejoin="round"/>
<path stroke="#000000" stroke-width="6.98" d="M432.81+792.949L458.394+745.41" fill="#ffffff" stroke-linecap="round" opacity="1" stroke-linejoin="round"/>
<path stroke="#000000" stroke-width="6.98" d="M405.053+756.627L457.861+745.41" fill="#ffffff" stroke-linecap="round" opacity="1" stroke-linejoin="round"/>
<path stroke="#000000" stroke-width="6.98" d="M794.692+771.674L747.525+745.41" fill="#ffffff" stroke-linecap="round" opacity="1" stroke-linejoin="round"/>
<path stroke="#000000" stroke-width="6.98" d="M700.358+771.674L747.525+745.41" fill="#ffffff" stroke-linecap="round" opacity="1" stroke-linejoin="round"/>
<path stroke="#000000" stroke-width="6.98" d="M794.692+771.674L841.859+745.41" fill="#ffffff" stroke-linecap="round" opacity="1" stroke-linejoin="round"/>
</g>
<text x="0" font-family="SnellRoundhand" y="0" text-anchor="middle" vectornator:text="Naturopathie" fill="#000000" font-size="70" vectornator:width="477.926" opacity="1" transform="matrix(1.14359 0 0 1.38988 329.62 399.315)">
<tspan x="238.963" y="66" textLength="338.1">
Naturopathie</tspan>
</text>
<text x="0" font-family="Bungee" y="0" text-anchor="middle" vectornator:text="Passionné&#x20;de" fill="#2b2b2b" font-size="70" vectornator:width="559.613" opacity="1" transform="matrix(1 0 0 1 315.544 336.815)">
<tspan x="279.806" y="60" textLength="547.68">
Passionné de</tspan>
</text>
<text x="0" font-family="Bungee" y="0" text-anchor="middle" vectornator:text="Texte" fill="#000000" font-size="70" vectornator:width="20" opacity="1" transform="matrix(1 0 0 1 1390.13 988.244)">
<tspan x="22.96" y="60" textLength="45.92">
T</tspan>
<tspan x="22.89" y="144" textLength="45.78">
e</tspan>
<tspan x="25.27" y="228" textLength="50.54">
x</tspan>
<tspan x="22.96" y="312" textLength="45.92">
t</tspan>
<tspan x="22.89" y="396" textLength="45.78">
e</tspan>
</text>
</g>
<g id="Calque 2" vectornator:layerName="Calque 2">
<g opacity="1">
<path stroke="#000000" stroke-width="6.98" d="M458.394+690.517L409.842+662.486L409.842+606.422L458.394+578.391L506.946+606.422L506.946+662.486L458.394+690.517Z" fill="#ffffff" stroke-linecap="round" opacity="1" stroke-linejoin="round"/>
<path stroke="#000000" stroke-width="6.98" d="M506.946+773.475L458.394+745.443L458.394+689.38L506.946+661.349L555.499+689.38L555.499+745.443L506.946+773.475Z" fill="#ffffff" stroke-linecap="round" opacity="1" stroke-linejoin="round"/>
<path stroke="#000000" stroke-width="6.98" d="M604.639+661.349L604.639+607.362" fill="#ffffff" stroke-linecap="round" opacity="1" stroke-linejoin="round"/>
<path stroke="#000000" stroke-width="6.98" d="M604.639+773.475L556.087+745.443L556.087+689.38L604.639+661.349L653.191+689.38L653.191+745.443L604.639+773.475Z" fill="#ffffff" stroke-linecap="round" opacity="1" stroke-linejoin="round"/>
<path stroke="#000000" stroke-width="6.98" d="M458.394+578.391L458.394+524.405" fill="#ffffff" stroke-linecap="round" opacity="1" stroke-linejoin="round"/>
<path stroke="#000000" stroke-width="6.98" d="M700.358+771.674L653.191+745.41" fill="#ffffff" stroke-linecap="round" opacity="1" stroke-linejoin="round"/>
<path stroke="#000000" stroke-width="6.98" d="M432.81+792.949L458.394+745.41" fill="#ffffff" stroke-linecap="round" opacity="1" stroke-linejoin="round"/>
<path stroke="#000000" stroke-width="6.98" d="M405.053+756.627L457.861+745.41" fill="#ffffff" stroke-linecap="round" opacity="1" stroke-linejoin="round"/>
<path stroke="#000000" stroke-width="6.98" d="M794.692+771.674L747.525+745.41" fill="#ffffff" stroke-linecap="round" opacity="1" stroke-linejoin="round"/>
<path stroke="#000000" stroke-width="6.98" d="M700.358+771.674L747.525+745.41" fill="#ffffff" stroke-linecap="round" opacity="1" stroke-linejoin="round"/>
<path stroke="#000000" stroke-width="6.98" d="M794.692+771.674L841.859+745.41" fill="#ffffff" stroke-linecap="round" opacity="1" stroke-linejoin="round"/>
</g>
<text x="0" font-family="ArialRoundedMTBold" y="0" text-anchor="middle" vectornator:text="Natural&#x20;Painkiller" fill="#000000" font-size="70" vectornator:width="615.982" opacity="1" transform="matrix(0.991321 0 0 1.3457 297.577 340.744)">
<tspan x="307.991" y="66" textLength="581.499">
Natural Painkiller</tspan>
</text>
</g>
</svg>
