<?xml version="1.0" encoding="UTF-8" standalone="no"?> <!-- Created with Vectornator for iOS (http://vectornator.io/) --><!DOCTYPE svg PUBLIC "-//W3C//DTD SVG 1.1//EN" "http://www.w3.org/Graphics/SVG/1.1/DTD/svg11.dtd">
<svg style="fill-rule:evenodd;clip-rule:evenodd;stroke-linecap:round;stroke-linejoin:round;" xmlns:vectornator="http://vectornator.io" xmlns:xlink="http://www.w3.org/1999/xlink" xmlns="http://www.w3.org/2000/svg" xml:space="preserve" version="1.1" viewBox="0 0 1190.7 1417.5">
<metadata>
<vectornator:setting key="DisplayWhiteBackground" value="1"/>
<vectornator:setting key="RulersVisible" value="1"/>
<vectornator:setting key="SnapToEdges" value="0"/>
<vectornator:setting key="Units" value="Millimeters"/>
<vectornator:setting key="DynamicGuides" value="1"/>
<vectornator:setting key="SnapToPoints" value="0"/>
<vectornator:setting key="CMYKEnabledKey" value="0"/>
<vectornator:setting key="SnapToGrid" value="0"/>
<vectornator:setting key="IsolateActiveLayer" value="0"/>
<vectornator:setting key="ShowGrid" value="1"/>
<vectornator:setting key="GridSpacing" value="50"/>
</metadata>
<defs/>
<g id="Tee shirt base" vectornator:layerName="Tee shirt base">
<path stroke="#313131" stroke-width="5.04" d="M771.343+46.5588C769.115+46.5639+765.314+47.4062+764.424+49.3597C744.728+92.5848+714.079+167.313+609.494+171.628C533.035+174.782+461.878+116.974+441.898+60.5968C440.597+56.9257+434.843+58.4852+431.39+59.2076C316.128+83.3166+253.904+131.917+227.306+147.818C150.85+193.524+26.9685+413.319+24.0166+420.756C-3.64916+490.455+159.704+614.292+202.262+629.563C207.307+631.373+234.917+576.531+258.94+487.997C260.617+481.817+258.383+437.583+244.295+393.277C242.513+387.674+247.799+399.571+249.713+407.771C264.99+473.217+268.264+542.847+268.265+542.847L261.039+687.439L237.46+1354.13L605.553+1351.64L962.419+1352.42L938.839+685.731C938.839+685.731+933.865+614.354+935.616+542.124C936.927+488.052+943.625+434.081+950.165+406.063C952.079+397.863+957.415+385.966+955.633+391.569C941.544+435.876+939.162+480.137+940.938+486.289C966.294+574.122+992.62+629.665+997.666+627.855C1040.22+612.584+1194.78+477.673+1167.12+407.974C1164.17+400.537+1067.34+229.438+1001.47+165.492C986.918+151.359+879.674+46.3124+771.343+46.5588Z" fill="none" stroke-linecap="round" opacity="1" stroke-linejoin="round"/>
<path stroke="#dcdcdc" stroke-width="9.52" d="M431.407+70.5645C431.407+70.5645+481.915+189.506+607.599+185.16C746.658+180.351+774.324+58.2216+774.324+58.2216" fill="none" stroke-linecap="round" opacity="1" stroke-linejoin="round"/>
<path stroke="#161616" stroke-width="2.93" d="M417.299+69.4439C417.299+69.4439+463.956+204.228+613.929+196.857C764.149+189.473+788.492+54.3667+788.492+54.3667" fill="none" stroke-linecap="round" opacity="1" stroke-linejoin="round"/>
</g>
<g id="Calque 1" vectornator:layerName="Calque 1">
<g opacity="1">
<path d="M389.345+432.39C388.412+436.123+387.062+439.29+385.295+441.89L387.145+442.84C389.012+443.807+390.579+444.532+391.845+445.015C393.112+445.498+394.395+445.74+395.695+445.74C397.495+445.74+399.195+445.49+400.795+444.99C402.395+444.49+404.095+443.673+405.895+442.54C404.295+444.207+402.67+445.415+401.02+446.165C399.37+446.915+397.479+447.29+395.345+447.29C393.912+447.29+392.445+447.007+390.945+446.44C389.445+445.873+387.629+445.057+385.495+443.99C385.362+443.89+384.945+443.673+384.245+443.34C383.079+444.773+381.829+445.873+380.495+446.64C379.162+447.407+377.812+447.79+376.445+447.79C375.012+447.79+373.904+447.523+373.12+446.99C372.337+446.457+371.945+445.707+371.945+444.74C371.945+443.273+372.587+442.098+373.87+441.215C375.154+440.332+376.679+439.89+378.445+439.89C380.079+439.89+381.879+440.34+383.845+441.24C385.345+438.84+386.545+435.89+387.445+432.39L389.245+425.24C389.412+424.607+389.529+424.19+389.595+423.99C387.862+422.557+386.429+420.59+385.295+418.09C386.695+420.057+388.245+421.623+389.945+422.79C391.179+419.257+392.904+416.54+395.12+414.64C397.337+412.74+399.879+411.79+402.745+411.79C404.412+411.79+405.87+412.098+407.12+412.715C408.37+413.332+409.262+414.173+409.795+415.24C409.862+415.64+409.895+416.023+409.895+416.39C409.895+418.423+409.412+420.248+408.445+421.865C407.479+423.482+406.145+424.748+404.445+425.665C402.745+426.582+400.845+427.04+398.745+427.04C395.812+427.04+393.295+426.407+391.195+425.14L391.145+425.24L389.345+432.39ZM402.345+413.34C399.945+413.34+397.804+414.24+395.92+416.04C394.037+417.84+392.579+420.407+391.545+423.74C393.779+424.907+396.295+425.49+399.095+425.49C401.895+425.49+404.079+424.565+405.645+422.715C407.212+420.865+408.045+418.373+408.145+415.24C407.745+414.673+407.029+414.215+405.995+413.865C404.962+413.515+403.745+413.34+402.345+413.34ZM376.795+446.34C377.829+446.34+378.854+446.023+379.87+445.39C380.887+444.757+381.862+443.857+382.795+442.69C380.895+441.79+379.312+441.34+378.045+441.34C376.845+441.34+375.845+441.632+375.045+442.215C374.245+442.798+373.845+443.54+373.845+444.44C373.845+445.04+374.104+445.507+374.62+445.84C375.137+446.173+375.862+446.34+376.795+446.34Z" opacity="1" fill="#000000"/>
<path d="M426.195+444.84C426.162+444.94+426.145+445.073+426.145+445.24C426.145+445.507+426.295+445.64+426.595+445.64C426.962+445.64+427.47+445.482+428.12+445.165C428.77+444.848+429.662+444.323+430.795+443.59C429.695+444.79+428.604+445.757+427.52+446.49C426.437+447.223+425.529+447.59+424.795+447.59C424.529+447.59+424.337+447.532+424.22+447.415C424.104+447.298+424.045+447.107+424.045+446.84C424.045+446.54+424.095+446.123+424.195+445.59L425.195+441.54C424.062+443.373+422.612+444.873+420.845+446.04C419.079+447.207+417.445+447.79+415.945+447.79C414.779+447.79+413.787+447.457+412.97+446.79C412.154+446.123+411.412+445.173+410.745+443.94C410.412+442.707+410.245+441.49+410.245+440.29C410.245+437.39+410.854+434.632+412.07+432.015C413.287+429.398+414.987+427.29+417.17+425.69C419.354+424.09+421.795+423.29+424.495+423.29C427.462+423.29+430.095+424.623+432.395+427.29C429.595+425.623+426.879+424.79+424.245+424.79C421.912+424.79+419.812+425.565+417.945+427.115C416.079+428.665+414.62+430.673+413.57+433.14C412.52+435.607+411.995+438.173+411.995+440.84C411.995+442.007+412.079+443.173+412.245+444.34C412.845+445.007+413.42+445.498+413.97+445.815C414.52+446.132+415.162+446.29+415.895+446.29C417.562+446.29+419.362+445.507+421.295+443.94C423.229+442.373+424.845+440.307+426.145+437.74L428.445+428.59C428.512+428.323+428.645+428.115+428.845+427.965C429.045+427.815+429.279+427.74+429.545+427.74C429.812+427.74+430.012+427.815+430.145+427.965C430.279+428.115+430.312+428.323+430.245+428.59L426.195+444.84Z" opacity="1" fill="#000000"/>
<path d="M462.845+417.94C464.345+417.573+465.579+416.898+466.545+415.915C467.512+414.932+467.995+413.857+467.995+412.69C467.995+411.99+467.754+411.448+467.27+411.065C466.787+410.682+466.079+410.49+465.145+410.49C463.612+410.49+462.312+410.957+461.245+411.89C460.179+412.823+459.429+414.173+458.995+415.94L457.045+423.79L465.445+423.79L465.045+425.24L456.645+425.24L449.895+452.24C452.129+452.673+454.045+453.407+455.645+454.44C453.945+453.873+451.929+453.49+449.595+453.29C448.529+457.09+447.045+460.023+445.145+462.09C443.245+464.157+441.162+465.19+438.895+465.19C436.229+465.19+434.362+464.34+433.295+462.64C432.995+462.04+432.845+461.357+432.845+460.59C432.845+458.79+433.47+457.232+434.72+455.915C435.97+454.598+437.604+453.59+439.62+452.89C441.637+452.19+443.745+451.84+445.945+451.84C446.479+451.84+447.212+451.873+448.145+451.94L454.845+425.24L449.045+425.24L449.445+423.79L455.245+423.79L457.195+415.94C457.762+413.707+458.754+411.99+460.17+410.79C461.587+409.59+463.362+408.99+465.495+408.99C466.862+408.99+467.912+409.265+468.645+409.815C469.379+410.365+469.745+411.173+469.745+412.24C469.745+413.94+469.104+415.315+467.82+416.365C466.537+417.415+464.879+417.94+462.845+417.94ZM438.445+463.74C440.512+463.74+442.362+462.832+443.995+461.015C445.629+459.198+446.912+456.59+447.845+453.19L446.745+453.19C443.079+453.19+440.129+453.848+437.895+455.165C435.662+456.482+434.545+458.473+434.545+461.14C434.545+461.94+434.645+462.507+434.845+462.84C435.445+463.44+436.645+463.74+438.445+463.74Z" opacity="1" fill="#000000"/>
<path d="M472.995+447.79C471.295+447.79+469.887+447.382+468.77+446.565C467.654+445.748+466.795+444.707+466.195+443.44C465.862+442.44+465.695+441.24+465.695+439.84C465.695+437.207+466.254+434.607+467.37+432.04C468.487+429.473+470.029+427.373+471.995+425.74C473.962+424.107+476.145+423.29+478.545+423.29C481.512+423.29+483.795+424.623+485.395+427.29C485.795+428.49+485.995+429.657+485.995+430.79C485.995+432.957+485.187+434.723+483.57+436.09C481.954+437.457+479.945+438.14+477.545+438.14C474.545+438.14+472.295+437.14+470.795+435.14C471.529+435.64+472.462+436.032+473.595+436.315C474.729+436.598+475.879+436.74+477.045+436.74C479.245+436.74+481.004+436.182+482.32+435.065C483.637+433.948+484.295+432.39+484.295+430.39C484.295+429.457+484.162+428.29+483.895+426.89C482.529+425.49+480.762+424.79+478.595+424.79C476.462+424.79+474.545+425.557+472.845+427.09C471.145+428.623+469.82+430.607+468.87+433.04C467.92+435.473+467.445+437.973+467.445+440.54C467.445+441.64+467.529+442.74+467.695+443.84C468.895+445.473+470.595+446.29+472.795+446.29C474.495+446.29+476.279+445.79+478.145+444.79C480.012+443.79+481.812+442.273+483.545+440.24C481.912+442.84+480.229+444.748+478.495+445.965C476.762+447.182+474.929+447.79+472.995+447.79Z" opacity="1" fill="#000000"/>
<path d="M489.745+447.59C489.479+447.59+489.287+447.515+489.17+447.365C489.054+447.215+489.029+447.007+489.095+446.74L494.145+426.34C494.179+426.273+494.195+426.173+494.195+426.04C494.195+425.907+494.154+425.79+494.07+425.69C493.987+425.59+493.879+425.54+493.745+425.54C493.379+425.54+492.87+425.698+492.22+426.015C491.57+426.332+490.679+426.857+489.545+427.59C490.645+426.39+491.737+425.423+492.82+424.69C493.904+423.957+494.812+423.59+495.545+423.59C496.079+423.59+496.345+423.84+496.345+424.34C496.345+424.673+496.279+425.09+496.145+425.59L495.045+430.09C496.112+428.99+497.387+427.907+498.87+426.84C500.354+425.773+501.779+424.915+503.145+424.265C504.512+423.615+505.562+423.29+506.295+423.29C506.962+423.29+507.579+423.573+508.145+424.14C508.712+424.707+508.945+425.223+508.845+425.69L507.745+430.09C508.812+428.99+510.087+427.907+511.57+426.84C513.054+425.773+514.479+424.915+515.845+424.265C517.212+423.615+518.262+423.29+518.995+423.29C519.662+423.29+520.279+423.573+520.845+424.14C521.412+424.707+521.645+425.223+521.545+425.69L516.745+444.84C516.712+444.94+516.695+445.073+516.695+445.24C516.695+445.507+516.845+445.64+517.145+445.64C517.912+445.64+519.312+444.957+521.345+443.59C520.279+444.757+519.195+445.715+518.095+446.465C516.995+447.215+516.079+447.59+515.345+447.59C514.812+447.59+514.545+447.34+514.545+446.84C514.545+446.507+514.612+446.09+514.745+445.59L519.945+424.89C517.945+425.123+515.845+425.89+513.645+427.19C511.445+428.49+509.295+430.157+507.195+432.19L504.045+444.84C504.012+444.94+503.995+445.073+503.995+445.24C503.995+445.507+504.145+445.64+504.445+445.64C505.179+445.64+506.579+444.957+508.645+443.59C507.579+444.757+506.495+445.715+505.395+446.465C504.295+447.215+503.379+447.59+502.645+447.59C502.112+447.59+501.845+447.34+501.845+446.84C501.845+446.507+501.912+446.09+502.045+445.59L507.245+424.89C505.245+425.123+503.145+425.89+500.945+427.19C498.745+428.49+496.595+430.157+494.495+432.19L490.895+446.74C490.829+447.007+490.687+447.215+490.47+447.365C490.254+447.515+490.012+447.59+489.745+447.59Z" opacity="1" fill="#000000"/>
<path d="M526.045+447.59C525.779+447.59+525.587+447.515+525.47+447.365C525.354+447.215+525.329+447.007+525.395+446.74L530.445+426.34C530.479+426.273+530.495+426.173+530.495+426.04C530.495+425.907+530.454+425.79+530.37+425.69C530.287+425.59+530.179+425.54+530.045+425.54C529.679+425.54+529.17+425.698+528.52+426.015C527.87+426.332+526.979+426.857+525.845+427.59C526.945+426.39+528.037+425.423+529.12+424.69C530.204+423.957+531.112+423.59+531.845+423.59C532.379+423.59+532.645+423.84+532.645+424.34C532.645+424.673+532.579+425.09+532.445+425.59L531.345+430.09C532.412+428.99+533.687+427.907+535.17+426.84C536.654+425.773+538.079+424.915+539.445+424.265C540.812+423.615+541.862+423.29+542.595+423.29C543.262+423.29+543.879+423.573+544.445+424.14C545.012+424.707+545.245+425.223+545.145+425.69L544.045+430.09C545.112+428.99+546.387+427.907+547.87+426.84C549.354+425.773+550.779+424.915+552.145+424.265C553.512+423.615+554.562+423.29+555.295+423.29C555.962+423.29+556.579+423.573+557.145+424.14C557.712+424.707+557.945+425.223+557.845+425.69L553.045+444.84C553.012+444.94+552.995+445.073+552.995+445.24C552.995+445.507+553.145+445.64+553.445+445.64C554.212+445.64+555.612+444.957+557.645+443.59C556.579+444.757+555.495+445.715+554.395+446.465C553.295+447.215+552.379+447.59+551.645+447.59C551.112+447.59+550.845+447.34+550.845+446.84C550.845+446.507+550.912+446.09+551.045+445.59L556.245+424.89C554.245+425.123+552.145+425.89+549.945+427.19C547.745+428.49+545.595+430.157+543.495+432.19L540.345+444.84C540.312+444.94+540.295+445.073+540.295+445.24C540.295+445.507+540.445+445.64+540.745+445.64C541.479+445.64+542.879+444.957+544.945+443.59C543.879+444.757+542.795+445.715+541.695+446.465C540.595+447.215+539.679+447.59+538.945+447.59C538.412+447.59+538.145+447.34+538.145+446.84C538.145+446.507+538.212+446.09+538.345+445.59L543.545+424.89C541.545+425.123+539.445+425.89+537.245+427.19C535.045+428.49+532.895+430.157+530.795+432.19L527.195+446.74C527.129+447.007+526.987+447.215+526.77+447.365C526.554+447.515+526.312+447.59+526.045+447.59Z" opacity="1" fill="#000000"/>
<path d="M569.145+447.79C567.445+447.79+566.037+447.382+564.92+446.565C563.804+445.748+562.945+444.707+562.345+443.44C562.012+442.44+561.845+441.24+561.845+439.84C561.845+437.207+562.404+434.607+563.52+432.04C564.637+429.473+566.179+427.373+568.145+425.74C570.112+424.107+572.295+423.29+574.695+423.29C577.662+423.29+579.945+424.623+581.545+427.29C581.945+428.49+582.145+429.657+582.145+430.79C582.145+432.957+581.337+434.723+579.72+436.09C578.104+437.457+576.095+438.14+573.695+438.14C570.695+438.14+568.445+437.14+566.945+435.14C567.679+435.64+568.612+436.032+569.745+436.315C570.879+436.598+572.029+436.74+573.195+436.74C575.395+436.74+577.154+436.182+578.47+435.065C579.787+433.948+580.445+432.39+580.445+430.39C580.445+429.457+580.312+428.29+580.045+426.89C578.679+425.49+576.912+424.79+574.745+424.79C572.612+424.79+570.695+425.557+568.995+427.09C567.295+428.623+565.97+430.607+565.02+433.04C564.07+435.473+563.595+437.973+563.595+440.54C563.595+441.64+563.679+442.74+563.845+443.84C565.045+445.473+566.745+446.29+568.945+446.29C570.645+446.29+572.429+445.79+574.295+444.79C576.162+443.79+577.962+442.273+579.695+440.24C578.062+442.84+576.379+444.748+574.645+445.965C572.912+447.182+571.079+447.79+569.145+447.79Z" opacity="1" fill="#000000"/>
<path d="M619.295+427.49C619.429+428.69+619.495+429.59+619.495+430.19C619.495+433.357+618.82+436.282+617.47+438.965C616.12+441.648+614.237+443.79+611.82+445.39C609.404+446.99+606.695+447.79+603.695+447.79C602.395+447.79+601.112+447.657+599.845+447.39L595.645+464.14C595.579+464.407+595.445+464.615+595.245+464.765C595.045+464.915+594.812+464.99+594.545+464.99C594.279+464.99+594.079+464.915+593.945+464.765C593.812+464.615+593.779+464.407+593.845+464.14L598.145+446.89C596.345+446.323+595.112+445.54+594.445+444.54C595.812+445.007+597.145+445.373+598.445+445.64L603.295+426.24C603.329+426.14+603.345+426.007+603.345+425.84C603.345+425.573+603.195+425.44+602.895+425.44C602.529+425.44+602.02+425.598+601.37+425.915C600.72+426.232+599.829+426.757+598.695+427.49C599.762+426.323+600.845+425.365+601.945+424.615C603.045+423.865+603.912+423.49+604.545+423.49C604.912+423.49+605.162+423.54+605.295+423.64C605.429+423.74+605.495+423.94+605.495+424.24C605.495+424.573+605.429+424.99+605.295+425.49L604.295+429.59C605.429+427.757+606.912+426.248+608.745+425.065C610.579+423.882+612.245+423.29+613.745+423.29C615.845+423.29+617.695+424.69+619.295+427.49ZM603.695+446.29C606.529+446.29+609.02+445.498+611.17+443.915C613.32+442.332+614.97+440.223+616.12+437.59C617.27+434.957+617.845+432.09+617.845+428.99C617.845+428.59+617.812+427.957+617.745+427.09C617.312+426.423+616.687+425.873+615.87+425.44C615.054+425.007+614.262+424.79+613.495+424.79C612.529+424.79+611.412+425.148+610.145+425.865C608.879+426.582+607.637+427.59+606.42+428.89C605.204+430.19+604.179+431.673+603.345+433.34L600.195+445.99C601.395+446.19+602.562+446.29+603.695+446.29Z" opacity="1" fill="#000000"/>
<path d="M639.345+444.84C639.312+444.94+639.295+445.073+639.295+445.24C639.295+445.507+639.445+445.64+639.745+445.64C640.112+445.64+640.62+445.482+641.27+445.165C641.92+444.848+642.812+444.323+643.945+443.59C642.845+444.79+641.754+445.757+640.67+446.49C639.587+447.223+638.679+447.59+637.945+447.59C637.679+447.59+637.487+447.532+637.37+447.415C637.254+447.298+637.195+447.107+637.195+446.84C637.195+446.54+637.245+446.123+637.345+445.59L638.345+441.54C637.212+443.373+635.762+444.873+633.995+446.04C632.229+447.207+630.595+447.79+629.095+447.79C627.929+447.79+626.937+447.457+626.12+446.79C625.304+446.123+624.562+445.173+623.895+443.94C623.562+442.707+623.395+441.49+623.395+440.29C623.395+437.39+624.004+434.632+625.22+432.015C626.437+429.398+628.137+427.29+630.32+425.69C632.504+424.09+634.945+423.29+637.645+423.29C640.612+423.29+643.245+424.623+645.545+427.29C642.745+425.623+640.029+424.79+637.395+424.79C635.062+424.79+632.962+425.565+631.095+427.115C629.229+428.665+627.77+430.673+626.72+433.14C625.67+435.607+625.145+438.173+625.145+440.84C625.145+442.007+625.229+443.173+625.395+444.34C625.995+445.007+626.57+445.498+627.12+445.815C627.67+446.132+628.312+446.29+629.045+446.29C630.712+446.29+632.512+445.507+634.445+443.94C636.379+442.373+637.995+440.307+639.295+437.74L641.595+428.59C641.662+428.323+641.795+428.115+641.995+427.965C642.195+427.815+642.429+427.74+642.695+427.74C642.962+427.74+643.162+427.815+643.295+427.965C643.429+428.115+643.462+428.323+643.395+428.59L639.345+444.84Z" opacity="1" fill="#000000"/>
<path d="M648.845+447.59C648.579+447.59+648.387+447.515+648.27+447.365C648.154+447.215+648.129+447.007+648.195+446.74L653.245+426.34C653.279+426.24+653.295+426.107+653.295+425.94C653.295+425.673+653.145+425.54+652.845+425.54C652.479+425.54+651.97+425.698+651.32+426.015C650.67+426.332+649.779+426.857+648.645+427.59C649.745+426.39+650.837+425.423+651.92+424.69C653.004+423.957+653.912+423.59+654.645+423.59C655.179+423.59+655.445+423.84+655.445+424.34C655.445+424.673+655.379+425.09+655.245+425.59L654.295+429.49C657.262+425.357+660.229+423.29+663.195+423.29C664.195+423.29+664.97+423.49+665.52+423.89C666.07+424.29+666.345+424.89+666.345+425.69C666.345+426.49+666.129+427.223+665.695+427.89C665.262+428.557+664.712+428.89+664.045+428.89C663.479+428.89+663.129+428.623+662.995+428.09C663.395+428.057+663.729+427.882+663.995+427.565C664.262+427.248+664.395+426.823+664.395+426.29C664.395+425.357+663.795+424.89+662.595+424.89C661.262+424.89+659.812+425.565+658.245+426.915C656.679+428.265+655.079+430.257+653.445+432.89L649.995+446.74C649.929+447.007+649.787+447.215+649.57+447.365C649.354+447.515+649.112+447.59+648.845+447.59Z" opacity="1" fill="#000000"/>
<path d="M681.445+417.94C682.945+417.573+684.179+416.898+685.145+415.915C686.112+414.932+686.595+413.857+686.595+412.69C686.595+411.99+686.354+411.448+685.87+411.065C685.387+410.682+684.679+410.49+683.745+410.49C682.212+410.49+680.912+410.957+679.845+411.89C678.779+412.823+678.029+414.173+677.595+415.94L675.645+423.79L684.045+423.79L683.645+425.24L675.245+425.24L668.495+452.24C670.729+452.673+672.645+453.407+674.245+454.44C672.545+453.873+670.529+453.49+668.195+453.29C667.129+457.09+665.645+460.023+663.745+462.09C661.845+464.157+659.762+465.19+657.495+465.19C654.829+465.19+652.962+464.34+651.895+462.64C651.595+462.04+651.445+461.357+651.445+460.59C651.445+458.79+652.07+457.232+653.32+455.915C654.57+454.598+656.204+453.59+658.22+452.89C660.237+452.19+662.345+451.84+664.545+451.84C665.079+451.84+665.812+451.873+666.745+451.94L673.445+425.24L667.645+425.24L668.045+423.79L673.845+423.79L675.795+415.94C676.362+413.707+677.354+411.99+678.77+410.79C680.187+409.59+681.962+408.99+684.095+408.99C685.462+408.99+686.512+409.265+687.245+409.815C687.979+410.365+688.345+411.173+688.345+412.24C688.345+413.94+687.704+415.315+686.42+416.365C685.137+417.415+683.479+417.94+681.445+417.94ZM657.045+463.74C659.112+463.74+660.962+462.832+662.595+461.015C664.229+459.198+665.512+456.59+666.445+453.19L665.345+453.19C661.679+453.19+658.729+453.848+656.495+455.165C654.262+456.482+653.145+458.473+653.145+461.14C653.145+461.94+653.245+462.507+653.445+462.84C654.045+463.44+655.245+463.74+657.045+463.74Z" opacity="1" fill="#000000"/>
<path d="M700.145+444.84C700.112+444.94+700.095+445.073+700.095+445.24C700.095+445.507+700.245+445.64+700.545+445.64C700.912+445.64+701.42+445.482+702.07+445.165C702.72+444.848+703.612+444.323+704.745+443.59C703.645+444.79+702.554+445.757+701.47+446.49C700.387+447.223+699.479+447.59+698.745+447.59C698.479+447.59+698.287+447.532+698.17+447.415C698.054+447.298+697.995+447.107+697.995+446.84C697.995+446.54+698.045+446.123+698.145+445.59L699.145+441.54C698.012+443.373+696.562+444.873+694.795+446.04C693.029+447.207+691.395+447.79+689.895+447.79C688.729+447.79+687.737+447.457+686.92+446.79C686.104+446.123+685.362+445.173+684.695+443.94C684.362+442.707+684.195+441.49+684.195+440.29C684.195+437.39+684.804+434.632+686.02+432.015C687.237+429.398+688.937+427.29+691.12+425.69C693.304+424.09+695.745+423.29+698.445+423.29C701.412+423.29+704.045+424.623+706.345+427.29C703.545+425.623+700.829+424.79+698.195+424.79C695.862+424.79+693.762+425.565+691.895+427.115C690.029+428.665+688.57+430.673+687.52+433.14C686.47+435.607+685.945+438.173+685.945+440.84C685.945+442.007+686.029+443.173+686.195+444.34C686.795+445.007+687.37+445.498+687.92+445.815C688.47+446.132+689.112+446.29+689.845+446.29C691.512+446.29+693.312+445.507+695.245+443.94C697.179+442.373+698.795+440.307+700.095+437.74L702.395+428.59C702.462+428.323+702.595+428.115+702.795+427.965C702.995+427.815+703.229+427.74+703.495+427.74C703.762+427.74+703.962+427.815+704.095+427.965C704.229+428.115+704.262+428.323+704.195+428.59L700.145+444.84Z" opacity="1" fill="#000000"/>
<path d="M717.045+417.54C716.512+417.54+716.079+417.382+715.745+417.065C715.412+416.748+715.245+416.34+715.245+415.84C715.245+415.107+715.545+414.473+716.145+413.94C716.745+413.407+717.412+413.14+718.145+413.14C718.679+413.14+719.112+413.298+719.445+413.615C719.779+413.932+719.945+414.34+719.945+414.84C719.945+415.573+719.645+416.207+719.045+416.74C718.445+417.273+717.779+417.54+717.045+417.54ZM709.945+447.59C709.412+447.59+709.145+447.34+709.145+446.84C709.145+446.507+709.212+446.09+709.345+445.59L714.195+426.24C714.229+426.14+714.245+426.007+714.245+425.84C714.245+425.573+714.095+425.44+713.795+425.44C713.062+425.44+711.645+426.123+709.545+427.49C710.645+426.29+711.737+425.323+712.82+424.59C713.904+423.857+714.812+423.49+715.545+423.49C715.845+423.49+716.062+423.54+716.195+423.64C716.329+423.74+716.395+423.907+716.395+424.14C716.395+424.373+716.312+424.823+716.145+425.49L711.345+444.84C711.312+444.94+711.295+445.073+711.295+445.24C711.295+445.507+711.445+445.64+711.745+445.64C712.479+445.64+713.879+444.957+715.945+443.59C714.879+444.757+713.795+445.715+712.695+446.465C711.595+447.215+710.679+447.59+709.945+447.59Z" opacity="1" fill="#000000"/>
<path d="M722.695+444.54C722.662+444.607+722.645+444.69+722.645+444.79C722.645+445.123+722.879+445.29+723.345+445.29C723.979+445.29+724.804+445.14+725.82+444.84C726.837+444.54+727.995+444.057+729.295+443.39C727.962+444.557+726.604+445.498+725.22+446.215C723.837+446.932+722.662+447.29+721.695+447.29C721.295+447.29+721.004+447.232+720.82+447.115C720.637+446.998+720.545+446.79+720.545+446.49C720.545+446.123+720.612+445.723+720.745+445.29L725.745+425.24L721.945+425.24L722.295+423.79L726.095+423.79L727.245+419.14C727.412+418.573+727.779+418.29+728.345+418.29C728.612+418.29+728.812+418.373+728.945+418.54C729.079+418.707+729.112+418.907+729.045+419.14L727.895+423.79L733.595+423.79L733.245+425.24L727.545+425.24L722.695+444.54Z" opacity="1" fill="#000000"/>
<path d="M741.645+447.79C739.945+447.79+738.537+447.382+737.42+446.565C736.304+445.748+735.445+444.707+734.845+443.44C734.512+442.44+734.345+441.24+734.345+439.84C734.345+437.207+734.904+434.607+736.02+432.04C737.137+429.473+738.679+427.373+740.645+425.74C742.612+424.107+744.795+423.29+747.195+423.29C750.162+423.29+752.445+424.623+754.045+427.29C754.445+428.49+754.645+429.657+754.645+430.79C754.645+432.957+753.837+434.723+752.22+436.09C750.604+437.457+748.595+438.14+746.195+438.14C743.195+438.14+740.945+437.14+739.445+435.14C740.179+435.64+741.112+436.032+742.245+436.315C743.379+436.598+744.529+436.74+745.695+436.74C747.895+436.74+749.654+436.182+750.97+435.065C752.287+433.948+752.945+432.39+752.945+430.39C752.945+429.457+752.812+428.29+752.545+426.89C751.179+425.49+749.412+424.79+747.245+424.79C745.112+424.79+743.195+425.557+741.495+427.09C739.795+428.623+738.47+430.607+737.52+433.04C736.57+435.473+736.095+437.973+736.095+440.54C736.095+441.64+736.179+442.74+736.345+443.84C737.545+445.473+739.245+446.29+741.445+446.29C743.145+446.29+744.929+445.79+746.795+444.79C748.662+443.79+750.462+442.273+752.195+440.24C750.562+442.84+748.879+444.748+747.145+445.965C745.412+447.182+743.579+447.79+741.645+447.79Z" opacity="1" fill="#000000"/>
<path d="M778.095+447.79C776.395+447.79+774.987+447.382+773.87+446.565C772.754+445.748+771.895+444.707+771.295+443.44C770.962+442.44+770.795+441.24+770.795+439.84C770.795+437.207+771.354+434.607+772.47+432.04C773.587+429.473+775.129+427.373+777.095+425.74C779.062+424.107+781.245+423.29+783.645+423.29C786.612+423.29+788.895+424.623+790.495+427.29C790.895+428.49+791.095+429.657+791.095+430.79C791.095+432.957+790.287+434.723+788.67+436.09C787.054+437.457+785.045+438.14+782.645+438.14C779.645+438.14+777.395+437.14+775.895+435.14C776.629+435.64+777.562+436.032+778.695+436.315C779.829+436.598+780.979+436.74+782.145+436.74C784.345+436.74+786.104+436.182+787.42+435.065C788.737+433.948+789.395+432.39+789.395+430.39C789.395+429.457+789.262+428.29+788.995+426.89C787.629+425.49+785.862+424.79+783.695+424.79C781.562+424.79+779.645+425.557+777.945+427.09C776.245+428.623+774.92+430.607+773.97+433.04C773.02+435.473+772.545+437.973+772.545+440.54C772.545+441.64+772.629+442.74+772.795+443.84C773.995+445.473+775.695+446.29+777.895+446.29C779.595+446.29+781.379+445.79+783.245+444.79C785.112+443.79+786.912+442.273+788.645+440.24C787.012+442.84+785.329+444.748+783.595+445.965C781.862+447.182+780.029+447.79+778.095+447.79Z" opacity="1" fill="#000000"/>
<path d="M803.145+436.79C801.212+436.79+799.662+436.307+798.495+435.34C797.329+434.373+796.745+433.073+796.745+431.44C796.745+429.873+797.162+428.465+797.995+427.215C798.829+425.965+799.929+424.998+801.295+424.315C802.662+423.632+804.129+423.29+805.695+423.29C807.429+423.29+808.887+423.698+810.07+424.515C811.254+425.332+812.095+426.457+812.595+427.89C810.995+425.823+808.812+424.79+806.045+424.79C803.779+424.79+801.962+425.39+800.595+426.59C799.229+427.79+798.545+429.39+798.545+431.39C798.545+432.89+799.17+434.057+800.42+434.89C801.67+435.723+803.512+436.223+805.945+436.39C804.979+436.657+804.045+436.79+803.145+436.79ZM800.195+447.79C797.995+447.79+796.22+447.415+794.87+446.665C793.52+445.915+792.845+444.873+792.845+443.54C792.845+442.307+793.329+441.223+794.295+440.29C795.262+439.357+796.412+438.89+797.745+438.89C798.679+438.89+799.412+439.123+799.945+439.59C800.479+440.057+800.745+440.673+800.745+441.44C800.745+441.94+800.629+442.473+800.395+443.04C799.995+441.24+799.062+440.34+797.595+440.34C796.729+440.34+796.029+440.632+795.495+441.215C794.962+441.798+794.695+442.473+794.695+443.24C794.695+444.207+795.229+444.957+796.295+445.49C797.362+446.023+798.762+446.29+800.495+446.29C803.095+446.29+805.154+445.615+806.67+444.265C808.187+442.915+808.945+441.107+808.945+438.84C808.945+435.807+806.495+434.14+801.595+433.84C802.595+433.573+803.529+433.44+804.395+433.44C806.295+433.44+807.829+433.915+808.995+434.865C810.162+435.815+810.745+437.14+810.745+438.84C810.745+440.64+810.287+442.215+809.37+443.565C808.454+444.915+807.204+445.957+805.62+446.69C804.037+447.423+802.229+447.79+800.195+447.79Z" opacity="1" fill="#000000"/>
<path d="M818.745+444.54C818.712+444.607+818.695+444.69+818.695+444.79C818.695+445.123+818.929+445.29+819.395+445.29C820.029+445.29+820.854+445.14+821.87+444.84C822.887+444.54+824.045+444.057+825.345+443.39C824.012+444.557+822.654+445.498+821.27+446.215C819.887+446.932+818.712+447.29+817.745+447.29C817.345+447.29+817.054+447.232+816.87+447.115C816.687+446.998+816.595+446.79+816.595+446.49C816.595+446.123+816.662+445.723+816.795+445.29L821.795+425.24L817.995+425.24L818.345+423.79L822.145+423.79L823.295+419.14C823.462+418.573+823.829+418.29+824.395+418.29C824.662+418.29+824.862+418.373+824.995+418.54C825.129+418.707+825.162+418.907+825.095+419.14L823.945+423.79L829.645+423.79L829.295+425.24L823.595+425.24L818.745+444.54Z" opacity="1" fill="#000000"/>
</g>
<g opacity="1">
<path stroke="#000000" stroke-width="2" d="M602.874+617.566L594.95+601.51L577.231+598.935L590.053+586.438L587.026+568.79L602.874+577.122L618.722+568.79L615.696+586.438L628.517+598.936L610.798+601.51L602.874+617.566Z" fill="none" stroke-linecap="round" opacity="1" stroke-linejoin="round"/>
<path stroke="#000000" stroke-width="2" d="M658.725+596.63L654.202+587.466L644.089+585.996L651.407+578.863L649.679+568.79L658.725+573.546L667.771+568.79L666.043+578.863L673.361+585.996L663.248+587.466L658.725+596.63Z" fill="none" stroke-linecap="round" opacity="1" stroke-linejoin="round"/>
<path stroke="#000000" stroke-width="2" d="M547.066+596.63L542.543+587.466L532.429+585.996L539.748+578.863L538.02+568.79L547.066+573.546L556.112+568.79L554.384+578.863L561.702+585.996L551.589+587.466L547.066+596.63Z" fill="none" stroke-linecap="round" opacity="1" stroke-linejoin="round"/>
</g>
<g opacity="1">
<path d="M451.335+491.878C451.335+495.958+450.279+499.702+448.167+503.11C446.055+506.518+442.983+509.302+438.951+511.462C434.919+513.622+430.119+514.894+424.551+515.278L421.455+532.63C420.255+539.302+416.991+542.638+411.663+542.638C408.735+542.638+406.035+541.774+403.563+540.046C401.091+538.318+399.111+535.678+397.623+532.126C396.135+528.574+395.391+524.206+395.391+519.022C395.391+509.278+396.963+501.01+400.107+494.218C403.251+487.426+407.475+482.338+412.779+478.954C418.083+475.57+423.927+473.878+430.311+473.878C434.823+473.878+438.651+474.67+441.795+476.254C444.939+477.838+447.315+479.986+448.923+482.698C450.531+485.41+451.335+488.47+451.335+491.878ZM425.847+507.862C435.687+506.614+440.607+501.502+440.607+492.526C440.607+489.358+439.563+486.778+437.475+484.786C435.387+482.794+432.159+481.798+427.791+481.798C422.847+481.798+418.539+483.358+414.867+486.478C411.195+489.598+408.363+493.93+406.371+499.474C404.379+505.018+403.383+511.342+403.383+518.446C403.383+521.422+403.683+524.062+404.283+526.366C404.883+528.67+405.651+530.458+406.587+531.73C407.523+533.002+408.423+533.638+409.287+533.638C410.487+533.638+411.399+531.982+412.023+528.67L414.399+515.062C412.527+514.774+411.711+514.654+411.951+514.702C410.511+514.462+409.575+514.018+409.143+513.37C408.711+512.722+408.495+511.894+408.495+510.886C408.495+509.83+408.795+508.99+409.395+508.366C409.995+507.742+410.823+507.43+411.879+507.43C412.359+507.43+412.719+507.454+412.959+507.502C414.111+507.694+414.999+507.814+415.623+507.862C416.247+504.118+417.135+499.102+418.287+492.814C418.575+491.182+419.235+490.018+420.267+489.322C421.299+488.626+422.511+488.278+423.903+488.278C425.487+488.278+426.627+488.578+427.323+489.178C428.019+489.778+428.367+490.726+428.367+492.022C428.367+492.79+428.319+493.414+428.223+493.894L425.847+507.862Z" opacity="1" fill="#000000"/>
<path d="M493.455+518.734C494.079+518.734+494.571+519.022+494.931+519.598C495.291+520.174+495.471+520.966+495.471+521.974C495.471+523.894+495.015+525.382+494.103+526.438C491.895+528.982+489.627+531.07+487.299+532.702C484.971+534.334+482.319+535.15+479.343+535.15C476.895+535.15+475.047+534.442+473.799+533.026C472.551+531.61+471.927+529.558+471.927+526.87C471.927+525.526+472.263+523.126+472.935+519.67C473.559+516.646+473.871+514.558+473.871+513.406C473.871+512.638+473.607+512.254+473.079+512.254C472.455+512.254+471.567+513.058+470.415+514.666C469.263+516.274+468.111+518.398+466.959+521.038C465.807+523.678+464.871+526.462+464.151+529.39C463.239+533.23+460.983+535.15+457.383+535.15C455.943+535.15+454.995+534.634+454.539+533.602C454.083+532.57+453.855+530.71+453.855+528.022C453.855+526.486+453.879+525.262+453.927+524.35L453.999+518.59C453.999+511.198+454.755+503.494+456.267+495.478C457.779+487.462+460.011+480.73+462.963+475.282C465.915+469.834+469.455+467.11+473.583+467.11C475.791+467.11+477.579+468.058+478.947+469.954C480.315+471.85+480.999+474.31+480.999+477.334C480.999+482.182+479.583+487.21+476.751+492.418C473.919+497.626+469.311+503.71+462.927+510.67C462.783+513.166+462.711+515.734+462.711+518.374C464.295+514.294+466.059+510.97+468.003+508.402C469.947+505.834+471.867+503.998+473.763+502.894C475.659+501.79+477.399+501.238+478.983+501.238C482.103+501.238+483.663+502.798+483.663+505.918C483.663+507.79+483.135+511.174+482.079+516.07C481.167+520.246+480.711+523.006+480.711+524.35C480.711+526.27+481.407+527.23+482.799+527.23C483.759+527.23+484.899+526.642+486.219+525.466C487.539+524.29+489.303+522.382+491.511+519.742C492.087+519.07+492.735+518.734+493.455+518.734ZM472.071+474.238C471.207+474.238+470.247+475.474+469.191+477.946C468.135+480.418+467.115+483.754+466.131+487.954C465.147+492.154+464.343+496.726+463.719+501.67C466.695+498.166+469.155+494.35+471.099+490.222C473.043+486.094+474.015+482.35+474.015+478.99C474.015+477.454+473.847+476.278+473.511+475.462C473.175+474.646+472.695+474.238+472.071+474.238Z" opacity="1" fill="#000000"/>
<path d="M498.495+535.15C495.519+535.15+493.143+534.07+491.367+531.91C489.591+529.75+488.703+526.918+488.703+523.414C488.703+519.574+489.591+515.938+491.367+512.506C493.143+509.074+495.507+506.314+498.459+504.226C501.411+502.138+504.543+501.094+507.855+501.094C508.911+501.094+509.619+501.298+509.979+501.706C510.339+502.114+510.639+502.846+510.879+503.902C511.887+503.71+512.943+503.614+514.047+503.614C516.399+503.614+517.575+504.454+517.575+506.134C517.575+507.142+517.215+509.542+516.495+513.334C515.391+518.854+514.839+522.694+514.839+524.854C514.839+525.574+515.019+526.15+515.379+526.582C515.739+527.014+516.207+527.23+516.783+527.23C517.695+527.23+518.799+526.642+520.095+525.466C521.391+524.29+523.143+522.382+525.351+519.742C525.927+519.07+526.575+518.734+527.295+518.734C527.919+518.734+528.411+519.022+528.771+519.598C529.131+520.174+529.311+520.966+529.311+521.974C529.311+523.894+528.855+525.382+527.943+526.438C525.975+528.886+523.887+530.95+521.679+532.63C519.471+534.31+517.335+535.15+515.271+535.15C513.687+535.15+512.235+534.61+510.915+533.53C509.595+532.45+508.599+530.974+507.927+529.102C505.431+533.134+502.287+535.15+498.495+535.15ZM501.087+527.878C502.143+527.878+503.151+527.254+504.111+526.006C505.071+524.758+505.767+523.102+506.199+521.038L508.863+507.79C506.847+507.838+504.987+508.594+503.283+510.058C501.579+511.522+500.223+513.454+499.215+515.854C498.207+518.254+497.703+520.798+497.703+523.486C497.703+524.974+498.003+526.078+498.603+526.798C499.203+527.518+500.031+527.878+501.087+527.878Z" opacity="1" fill="#000000"/>
<path d="M528.591+535.15C526.767+535.15+525.483+534.19+524.739+532.27C523.995+530.35+523.623+527.278+523.623+523.054C523.623+516.814+524.511+510.886+526.287+505.27C526.719+503.878+527.427+502.858+528.411+502.21C529.395+501.562+530.775+501.238+532.551+501.238C533.511+501.238+534.183+501.358+534.567+501.598C534.951+501.838+535.143+502.294+535.143+502.966C535.143+503.734+534.783+505.462+534.063+508.15C533.583+510.07+533.199+511.75+532.911+513.19C532.623+514.63+532.383+516.406+532.191+518.518C533.775+514.39+535.551+511.03+537.519+508.438C539.487+505.846+541.419+503.998+543.315+502.894C545.211+501.79+546.951+501.238+548.535+501.238C551.655+501.238+553.215+502.798+553.215+505.918C553.215+506.542+552.999+508.054+552.567+510.454C552.183+512.374+551.991+513.574+551.991+514.054C551.991+515.734+552.591+516.574+553.791+516.574C555.135+516.574+556.863+515.518+558.975+513.406C559.599+512.782+560.247+512.47+560.919+512.47C561.543+512.47+562.035+512.746+562.395+513.298C562.755+513.85+562.935+514.582+562.935+515.494C562.935+517.27+562.455+518.662+561.495+519.67C560.151+521.062+558.579+522.25+556.779+523.234C554.979+524.218+553.071+524.71+551.055+524.71C548.511+524.71+546.579+524.062+545.259+522.766C543.939+521.47+543.279+519.718+543.279+517.51C543.279+516.79+543.351+516.07+543.495+515.35C543.591+514.39+543.639+513.742+543.639+513.406C543.639+512.638+543.375+512.254+542.847+512.254C542.127+512.254+541.179+513.058+540.003+514.666C538.827+516.274+537.663+518.398+536.511+521.038C535.359+523.678+534.423+526.462+533.703+529.39C533.175+531.646+532.563+533.17+531.867+533.962C531.171+534.754+530.079+535.15+528.591+535.15Z" opacity="1" fill="#000000"/>
<path d="M561.351+535.15C559.527+535.15+558.243+534.19+557.499+532.27C556.755+530.35+556.383+527.278+556.383+523.054C556.383+516.814+557.271+510.886+559.047+505.27C559.479+503.878+560.187+502.858+561.171+502.21C562.155+501.562+563.535+501.238+565.311+501.238C566.271+501.238+566.943+501.358+567.327+501.598C567.711+501.838+567.903+502.294+567.903+502.966C567.903+503.734+567.543+505.462+566.823+508.15C566.343+510.07+565.959+511.738+565.671+513.154C565.383+514.57+565.143+516.334+564.951+518.446C566.247+514.702+567.795+511.534+569.595+508.942C571.395+506.35+573.243+504.418+575.139+503.146C577.035+501.874+578.823+501.238+580.503+501.238C582.183+501.238+583.371+501.622+584.067+502.39C584.763+503.158+585.111+504.334+585.111+505.918C585.111+507.454+584.655+510.238+583.743+514.27C583.359+515.998+583.095+517.294+582.951+518.158C585.351+512.254+588.015+507.958+590.943+505.27C593.871+502.582+596.607+501.238+599.151+501.238C602.271+501.238+603.831+502.798+603.831+505.918C603.831+507.79+603.303+511.174+602.247+516.07C601.335+520.246+600.879+523.006+600.879+524.35C600.879+526.27+601.575+527.23+602.967+527.23C603.927+527.23+605.067+526.642+606.387+525.466C607.707+524.29+609.471+522.382+611.679+519.742C612.255+519.07+612.903+518.734+613.623+518.734C614.247+518.734+614.739+519.022+615.099+519.598C615.459+520.174+615.639+520.966+615.639+521.974C615.639+523.894+615.183+525.382+614.271+526.438C612.207+528.982+609.987+531.07+607.611+532.702C605.235+534.334+602.535+535.15+599.511+535.15C597.063+535.15+595.215+534.442+593.967+533.026C592.719+531.61+592.095+529.558+592.095+526.87C592.095+525.526+592.431+523.126+593.103+519.67C593.727+516.646+594.039+514.558+594.039+513.406C594.039+512.638+593.775+512.254+593.247+512.254C592.623+512.254+591.735+513.058+590.583+514.666C589.431+516.274+588.279+518.398+587.127+521.038C585.975+523.678+585.039+526.462+584.319+529.39C583.791+531.694+583.179+533.23+582.483+533.998C581.787+534.766+580.671+535.15+579.135+535.15C577.551+535.15+576.363+534.394+575.571+532.882C574.779+531.37+574.383+529.534+574.383+527.374C574.383+525.55+574.623+522.91+575.103+519.454C575.487+516.382+575.679+514.366+575.679+513.406C575.679+512.638+575.415+512.254+574.887+512.254C574.167+512.254+573.255+513.118+572.151+514.846C571.047+516.574+569.979+518.782+568.947+521.47C567.915+524.158+567.087+526.798+566.463+529.39C565.935+531.646+565.323+533.17+564.627+533.962C563.931+534.754+562.839+535.15+561.351+535.15Z" opacity="1" fill="#000000"/>
<path d="M618.663+535.15C615.687+535.15+613.311+534.07+611.535+531.91C609.759+529.75+608.871+526.918+608.871+523.414C608.871+519.574+609.759+515.938+611.535+512.506C613.311+509.074+615.675+506.314+618.627+504.226C621.579+502.138+624.711+501.094+628.023+501.094C629.079+501.094+629.787+501.298+630.147+501.706C630.507+502.114+630.807+502.846+631.047+503.902C632.055+503.71+633.111+503.614+634.215+503.614C636.567+503.614+637.743+504.454+637.743+506.134C637.743+507.142+637.383+509.542+636.663+513.334C635.559+518.854+635.007+522.694+635.007+524.854C635.007+525.574+635.187+526.15+635.547+526.582C635.907+527.014+636.375+527.23+636.951+527.23C637.863+527.23+638.967+526.642+640.263+525.466C641.559+524.29+643.311+522.382+645.519+519.742C646.095+519.07+646.743+518.734+647.463+518.734C648.087+518.734+648.579+519.022+648.939+519.598C649.299+520.174+649.479+520.966+649.479+521.974C649.479+523.894+649.023+525.382+648.111+526.438C646.143+528.886+644.055+530.95+641.847+532.63C639.639+534.31+637.503+535.15+635.439+535.15C633.855+535.15+632.403+534.61+631.083+533.53C629.763+532.45+628.767+530.974+628.095+529.102C625.599+533.134+622.455+535.15+618.663+535.15ZM621.255+527.878C622.311+527.878+623.319+527.254+624.279+526.006C625.239+524.758+625.935+523.102+626.367+521.038L629.031+507.79C627.015+507.838+625.155+508.594+623.451+510.058C621.747+511.522+620.391+513.454+619.383+515.854C618.375+518.254+617.871+520.798+617.871+523.486C617.871+524.974+618.171+526.078+618.771+526.798C619.371+527.518+620.199+527.878+621.255+527.878Z" opacity="1" fill="#000000"/>
<path d="M657.399+535.15C652.695+535.15+649.035+533.818+646.419+531.154C643.803+528.49+642.495+524.974+642.495+520.606C642.495+516.718+643.263+513.31+644.799+510.382C646.335+507.454+648.327+505.198+650.775+503.614C653.223+502.03+655.791+501.238+658.479+501.238C661.119+501.238+663.171+502.018+664.635+503.578C666.099+505.138+666.831+507.142+666.831+509.59C666.831+511.606+666.387+513.31+665.499+514.702C664.611+516.094+663.447+516.79+662.007+516.79C661.095+516.79+660.363+516.574+659.811+516.142C659.259+515.71+658.983+515.11+658.983+514.342C658.983+514.006+659.031+513.622+659.127+513.19C659.223+512.758+659.295+512.446+659.343+512.254C659.583+511.534+659.703+510.862+659.703+510.238C659.703+509.614+659.547+509.134+659.235+508.798C658.923+508.462+658.479+508.294+657.903+508.294C656.799+508.294+655.767+508.786+654.807+509.77C653.847+510.754+653.079+512.086+652.503+513.766C651.927+515.446+651.639+517.294+651.639+519.31C651.639+524.878+654.063+527.662+658.911+527.662C660.879+527.662+663.003+527.002+665.283+525.682C667.563+524.362+669.807+522.382+672.015+519.742C672.591+519.07+673.239+518.734+673.959+518.734C674.583+518.734+675.075+519.022+675.435+519.598C675.795+520.174+675.975+520.966+675.975+521.974C675.975+523.798+675.519+525.286+674.607+526.438C672.351+529.222+669.651+531.37+666.507+532.882C663.363+534.394+660.327+535.15+657.399+535.15Z" opacity="1" fill="#000000"/>
<path d="M679.575+496.486C677.559+496.486+676.047+496.018+675.039+495.082C674.031+494.146+673.527+492.838+673.527+491.158C673.527+489.478+674.187+488.074+675.507+486.946C676.827+485.818+678.471+485.254+680.439+485.254C682.215+485.254+683.655+485.686+684.759+486.55C685.863+487.414+686.415+488.638+686.415+490.222C686.415+492.142+685.791+493.666+684.543+494.794C683.295+495.922+681.639+496.486+679.575+496.486ZM678.999+535.15C675.879+535.15+673.611+534.046+672.195+531.838C670.779+529.63+670.071+526.702+670.071+523.054C670.071+520.894+670.347+518.122+670.899+514.738C671.451+511.354+672.159+508.198+673.023+505.27C673.455+503.734+674.031+502.678+674.751+502.102C675.471+501.526+676.623+501.238+678.207+501.238C680.655+501.238+681.879+502.054+681.879+503.686C681.879+504.886+681.423+507.67+680.511+512.038C679.359+517.318+678.783+520.894+678.783+522.766C678.783+524.206+678.975+525.31+679.359+526.078C679.743+526.846+680.391+527.23+681.303+527.23C682.167+527.23+683.247+526.63+684.543+525.43C685.839+524.23+687.567+522.334+689.727+519.742C690.303+519.07+690.951+518.734+691.671+518.734C692.295+518.734+692.787+519.022+693.147+519.598C693.507+520.174+693.687+520.966+693.687+521.974C693.687+523.894+693.231+525.382+692.319+526.438C687.567+532.246+683.127+535.15+678.999+535.15Z" opacity="1" fill="#000000"/>
<path d="M719.967+518.734C720.591+518.734+721.083+519.022+721.443+519.598C721.803+520.174+721.983+520.966+721.983+521.974C721.983+523.894+721.527+525.382+720.615+526.438C718.839+528.598+716.331+530.59+713.091+532.414C709.851+534.238+706.383+535.15+702.687+535.15C697.647+535.15+693.735+533.782+690.951+531.046C688.167+528.31+686.775+524.566+686.775+519.814C686.775+516.502+687.471+513.418+688.863+510.562C690.255+507.706+692.187+505.438+694.659+503.758C697.131+502.078+699.927+501.238+703.047+501.238C705.831+501.238+708.063+502.066+709.743+503.722C711.423+505.378+712.263+507.622+712.263+510.454C712.263+513.766+711.075+516.61+708.699+518.986C706.323+521.362+702.303+523.246+696.639+524.638C697.839+526.846+700.119+527.95+703.479+527.95C705.639+527.95+708.099+527.194+710.859+525.682C713.619+524.17+716.007+522.19+718.023+519.742C718.599+519.07+719.247+518.734+719.967+518.734ZM701.823+508.294C700.047+508.294+698.547+509.326+697.323+511.39C696.099+513.454+695.487+515.95+695.487+518.878L695.487+519.022C698.319+518.35+700.551+517.342+702.183+515.998C703.815+514.654+704.631+513.094+704.631+511.318C704.631+510.406+704.379+509.674+703.875+509.122C703.371+508.57+702.687+508.294+701.823+508.294Z" opacity="1" fill="#000000"/>
<path d="M721.263+535.15C719.439+535.15+718.155+534.19+717.411+532.27C716.667+530.35+716.295+527.278+716.295+523.054C716.295+516.814+717.183+510.886+718.959+505.27C719.391+503.878+720.099+502.858+721.083+502.21C722.067+501.562+723.447+501.238+725.223+501.238C726.183+501.238+726.855+501.358+727.239+501.598C727.623+501.838+727.815+502.294+727.815+502.966C727.815+503.734+727.455+505.462+726.735+508.15C726.255+510.07+725.871+511.75+725.583+513.19C725.295+514.63+725.055+516.406+724.863+518.518C726.447+514.39+728.223+511.03+730.191+508.438C732.159+505.846+734.091+503.998+735.987+502.894C737.883+501.79+739.623+501.238+741.207+501.238C744.327+501.238+745.887+502.798+745.887+505.918C745.887+507.79+745.359+511.174+744.303+516.07C743.391+520.246+742.935+523.006+742.935+524.35C742.935+526.27+743.631+527.23+745.023+527.23C745.983+527.23+747.123+526.642+748.443+525.466C749.763+524.29+751.527+522.382+753.735+519.742C754.311+519.07+754.959+518.734+755.679+518.734C756.303+518.734+756.795+519.022+757.155+519.598C757.515+520.174+757.695+520.966+757.695+521.974C757.695+523.894+757.239+525.382+756.327+526.438C754.263+528.982+752.043+531.07+749.667+532.702C747.291+534.334+744.591+535.15+741.567+535.15C739.119+535.15+737.271+534.442+736.023+533.026C734.775+531.61+734.151+529.558+734.151+526.87C734.151+525.526+734.487+523.126+735.159+519.67C735.783+516.646+736.095+514.558+736.095+513.406C736.095+512.638+735.831+512.254+735.303+512.254C734.679+512.254+733.803+513.058+732.675+514.666C731.547+516.274+730.395+518.398+729.219+521.038C728.043+523.678+727.095+526.462+726.375+529.39C725.847+531.646+725.235+533.17+724.539+533.962C723.843+534.754+722.751+535.15+721.263+535.15Z" opacity="1" fill="#000000"/>
<path d="M756.975+535.15C755.151+535.15+753.867+534.19+753.123+532.27C752.379+530.35+752.007+527.278+752.007+523.054C752.007+516.814+752.895+510.886+754.671+505.27C755.103+503.878+755.811+502.858+756.795+502.21C757.779+501.562+759.159+501.238+760.935+501.238C761.895+501.238+762.567+501.358+762.951+501.598C763.335+501.838+763.527+502.294+763.527+502.966C763.527+503.734+763.167+505.462+762.447+508.15C761.967+510.07+761.583+511.75+761.295+513.19C761.007+514.63+760.767+516.406+760.575+518.518C762.159+514.39+763.935+511.03+765.903+508.438C767.871+505.846+769.803+503.998+771.699+502.894C773.595+501.79+775.335+501.238+776.919+501.238C780.039+501.238+781.599+502.798+781.599+505.918C781.599+507.79+781.071+511.174+780.015+516.07C779.103+520.246+778.647+523.006+778.647+524.35C778.647+526.27+779.343+527.23+780.735+527.23C781.695+527.23+782.835+526.642+784.155+525.466C785.475+524.29+787.239+522.382+789.447+519.742C790.023+519.07+790.671+518.734+791.391+518.734C792.015+518.734+792.507+519.022+792.867+519.598C793.227+520.174+793.407+520.966+793.407+521.974C793.407+523.894+792.951+525.382+792.039+526.438C789.975+528.982+787.755+531.07+785.379+532.702C783.003+534.334+780.303+535.15+777.279+535.15C774.831+535.15+772.983+534.442+771.735+533.026C770.487+531.61+769.863+529.558+769.863+526.87C769.863+525.526+770.199+523.126+770.871+519.67C771.495+516.646+771.807+514.558+771.807+513.406C771.807+512.638+771.543+512.254+771.015+512.254C770.391+512.254+769.515+513.058+768.387+514.666C767.259+516.274+766.107+518.398+764.931+521.038C763.755+523.678+762.807+526.462+762.087+529.39C761.559+531.646+760.947+533.17+760.251+533.962C759.555+534.754+758.463+535.15+756.975+535.15Z" opacity="1" fill="#000000"/>
<path d="M813.351+520.894C813.975+520.894+814.467+521.182+814.827+521.758C815.187+522.334+815.367+523.126+815.367+524.134C815.367+525.862+814.959+527.35+814.143+528.598C812.799+530.662+811.035+532.27+808.851+533.422C806.667+534.574+804.063+535.15+801.039+535.15C796.431+535.15+792.855+533.77+790.311+531.01C787.767+528.25+786.495+524.518+786.495+519.814C786.495+516.502+787.191+513.418+788.583+510.562C789.975+507.706+791.907+505.438+794.379+503.758C796.851+502.078+799.647+501.238+802.767+501.238C805.551+501.238+807.783+502.066+809.463+503.722C811.143+505.378+811.983+507.622+811.983+510.454C811.983+513.766+810.795+516.61+808.419+518.986C806.043+521.362+801.999+523.246+796.287+524.638C797.439+526.846+799.383+527.95+802.119+527.95C804.087+527.95+805.707+527.494+806.979+526.582C808.251+525.67+809.727+524.134+811.407+521.974C811.983+521.254+812.631+520.894+813.351+520.894ZM801.543+508.294C799.767+508.294+798.267+509.326+797.043+511.39C795.819+513.454+795.207+515.95+795.207+518.878L795.207+519.022C798.039+518.35+800.271+517.342+801.903+515.998C803.535+514.654+804.351+513.094+804.351+511.318C804.351+510.406+804.099+509.674+803.595+509.122C803.091+508.57+802.407+508.294+801.543+508.294Z" opacity="1" fill="#000000"/>
</g>
<g opacity="1">
<path stroke="#000000" stroke-width="2" d="M602.874+323.136L594.95+339.193L577.231+341.767L590.053+354.265L587.026+371.913L602.874+363.581L618.722+371.913L615.696+354.265L628.517+341.767L610.798+339.193L602.874+323.136Z" fill="none" stroke-linecap="round" opacity="1" stroke-linejoin="round"/>
<path stroke="#000000" stroke-width="2" d="M658.725+344.072L654.202+353.237L644.089+354.706L651.407+361.84L649.679+371.913L658.725+367.157L667.771+371.913L666.043+361.84L673.361+354.706L663.248+353.237L658.725+344.072Z" fill="none" stroke-linecap="round" opacity="1" stroke-linejoin="round"/>
<path stroke="#000000" stroke-width="2" d="M547.066+344.072L542.543+353.237L532.429+354.706L539.748+361.84L538.02+371.913L547.066+367.157L556.112+371.913L554.384+361.84L561.702+354.706L551.589+353.237L547.066+344.072Z" fill="none" stroke-linecap="round" opacity="1" stroke-linejoin="round"/>
</g>
<path stroke="#000000" stroke-width="4" d="M827.008+477.84L884.087+477.84" fill="#000000" stroke-linecap="round" opacity="1" stroke-linejoin="round"/>
<path stroke="#000000" stroke-width="4" d="M317.704+477.84L374.783+477.84" fill="#000000" stroke-linecap="round" opacity="1" stroke-linejoin="round"/>
</g>
</svg>
