<?xml version="1.0" encoding="UTF-8" standalone="no"?> <!-- Created with Vectornator Pro for iOS (http://vectornator.io/) --><!DOCTYPE svg PUBLIC "-//W3C//DTD SVG 1.1//EN" "http://www.w3.org/Graphics/SVG/1.1/DTD/svg11.dtd">
<svg style="fill-rule:evenodd;clip-rule:evenodd;stroke-linecap:round;stroke-linejoin:round;" xmlns:vectornator="http://vectornator.io" xmlns:xlink="http://www.w3.org/1999/xlink" xmlns="http://www.w3.org/2000/svg" xml:space="preserve" version="1.1" viewBox="0 0 1190.7 1417.5">
<metadata>
<vectornator:setting key="DisplayWhiteBackground" value="1"/>
<vectornator:setting key="RulersVisible" value="1"/>
<vectornator:setting key="GridSpacing" value="50"/>
<vectornator:setting key="Units" value="Millimeters"/>
<vectornator:setting key="DynamicGuides" value="1"/>
<vectornator:setting key="SnapToPoints" value="0"/>
<vectornator:setting key="CMYKEnabledKey" value="0"/>
<vectornator:setting key="SnapToGrid" value="0"/>
<vectornator:setting key="IsolateActiveLayer" value="0"/>
<vectornator:setting key="ShowGrid" value="0"/>
<vectornator:setting key="SnapToEdges" value="0"/>
</metadata>
<defs/>
<g id="Tee shirt base" vectornator:layerName="Tee shirt base">
<path stroke="#313131" stroke-width="5.04" d="M771.343+46.5588C769.115+46.5639+765.314+47.4062+764.424+49.3597C744.728+92.5848+714.079+167.313+609.494+171.628C533.035+174.782+461.878+116.974+441.898+60.5968C440.597+56.9257+434.843+58.4852+431.39+59.2076C316.128+83.3166+253.904+131.917+227.306+147.818C150.85+193.524+26.9685+413.319+24.0166+420.756C-3.64916+490.455+159.704+614.292+202.262+629.563C207.307+631.373+234.917+576.531+258.94+487.997C260.617+481.817+258.383+437.583+244.295+393.277C242.513+387.674+247.799+399.571+249.713+407.771C264.99+473.217+268.264+542.847+268.265+542.847L261.039+687.439L237.46+1354.13L605.553+1351.64L962.419+1352.42L938.839+685.731C938.839+685.731+933.865+614.354+935.616+542.124C936.927+488.052+943.625+434.081+950.165+406.063C952.079+397.863+957.415+385.966+955.633+391.569C941.544+435.876+939.162+480.137+940.938+486.289C966.294+574.122+992.62+629.665+997.666+627.855C1040.22+612.584+1194.78+477.673+1167.12+407.974C1164.17+400.537+1067.34+229.438+1001.47+165.492C986.918+151.359+879.674+46.3124+771.343+46.5588Z" fill="#000000" stroke-linecap="round" opacity="1" stroke-linejoin="round"/>
<path stroke="#dcdcdc" stroke-width="9.52" d="M431.407+70.5645C431.407+70.5645+481.915+189.506+607.599+185.16C746.658+180.351+774.324+58.2216+774.324+58.2216" fill="none" stroke-linecap="round" opacity="1" stroke-linejoin="round"/>
<path stroke="#161616" stroke-width="2.93" d="M417.299+69.4439C417.299+69.4439+463.956+204.228+613.929+196.857C764.149+189.473+788.492+54.3667+788.492+54.3667" fill="none" stroke-linecap="round" opacity="1" stroke-linejoin="round"/>
</g>
<g id="Calque 1" vectornator:layerName="Calque 1">
<path d="M615.188+404.185L903.484+404.185C910.273+404.185+915.777+408.158+915.777+413.057L915.777+510.314C915.777+515.213+910.273+519.185+903.484+519.185L615.188+519.185C608.399+519.185+602.895+515.213+602.895+510.314L602.895+413.057C602.895+408.158+608.399+404.185+615.188+404.185Z" opacity="1" fill="#ffa23a"/>
<g opacity="1">
<path d="M644.552+429.383C650.613+429.383+655.538+431.138+659.326+434.648C663.115+438.158+665.009+442.681+665.009+448.216C665.009+453.814+663.091+458.344+659.257+461.808C655.422+465.271+650.366+467.003+644.088+467.003L632.028+467.003L632.028+494.185L619.503+494.185L619.503+429.383L644.552+429.383ZM641.444+457.215C644.784+457.215+647.39+456.45+649.26+454.919C651.131+453.388+652.067+451.123+652.067+448.123C652.067+442.155+648.232+439.171+640.563+439.171L632.028+439.171L632.028+457.215L641.444+457.215Z" opacity="1" fill="#000000"/>
<path d="M698.314+450.025C699.83+450.025+701.322+450.365+702.791+451.046C704.26+451.726+705.968+452.87+707.916+454.478L703.834+464.452C700.525+461.978+697.866+460.741+695.856+460.741C694.093+460.741+692.354+461.398+690.637+462.712C688.921+464.026+687.545+465.766+686.509+467.931C685.473+470.095+684.955+472.26+684.955+474.425L684.955+494.185L673.544+494.185L673.544+450.86L684.955+450.86L684.955+461.9L685.141+461.9C687.213+457.725+689.3+454.703+691.403+452.832C693.506+450.961+695.81+450.025+698.314+450.025Z" opacity="1" fill="#000000"/>
<path d="M719.328+430.821C721.09+430.821+722.606+431.455+723.873+432.723C725.141+433.991+725.775+435.506+725.775+437.269C725.775+438.97+725.149+440.477+723.897+441.792C722.644+443.106+721.121+443.763+719.328+443.763C717.596+443.763+716.088+443.106+714.805+441.792C713.522+440.477+712.88+438.97+712.88+437.269C712.88+435.475+713.529+433.952+714.828+432.7C716.127+431.447+717.627+430.821+719.328+430.821ZM725.033+450.86L725.033+494.185L713.622+494.185L713.622+450.86L725.033+450.86Z" opacity="1" fill="#000000"/>
<path d="M761.911+450.025C766.549+450.025+770.252+451.548+773.02+454.594C775.788+457.64+777.172+461.653+777.172+466.632L777.172+494.185L765.807+494.185L765.807+467.791C765.807+464.977+765.134+462.751+763.789+461.112C762.444+459.473+760.612+458.653+758.292+458.653C756.53+458.653+754.875+459.171+753.329+460.207C751.783+461.243+750.082+462.967+748.227+465.379L748.227+494.185L736.815+494.185L736.815+450.86L748.227+450.86L748.227+456.937C750.329+454.463+752.486+452.693+754.697+451.626C756.909+450.559+759.313+450.025+761.911+450.025Z" opacity="1" fill="#000000"/>
<path d="M800.087+439.356L801.015+439.356L801.015+450.86L815.858+450.86L815.858+459.488L801.015+459.488L801.015+479.481C801.015+481.429+801.602+483.006+802.777+484.212C803.952+485.418+805.56+486.021+807.602+486.021C810.261+486.021+813.323+485.063+816.786+483.145L816.786+492.284C812.673+494.108+808.808+495.02+805.189+495.02C800.303+495.02+796.492+493.691+793.755+491.031C791.018+488.372+789.65+484.769+789.65+480.223L789.65+459.488L782.877+459.488L782.877+457.633L800.087+439.356Z" opacity="1" fill="#000000"/>
<path d="M842.67+450.025C849.04+450.025+854.081+452.066+857.792+456.148C861.503+460.23+863.358+465.874+863.358+473.08L863.358+474.796L832.697+474.796C833.161+478.661+834.606+481.638+837.034+483.725C839.461+485.813+842.794+486.856+847.03+486.856C849.752+486.856+852.372+486.385+854.893+485.442C857.413+484.498+860.018+483.068+862.709+481.151L862.709+489.64C857.637+493.227+851.483+495.02+844.247+495.02C837.413+495.02+831.831+492.964+827.501+488.851C823.172+484.738+821.007+479.264+821.007+472.43C821.007+465.843+823.01+460.462+827.014+456.288C831.019+452.113+836.238+450.025+842.67+450.025ZM852.643+467.884C852.334+464.73+851.375+462.264+849.767+460.486C848.159+458.707+845.948+457.818+843.134+457.818C840.258+457.818+837.946+458.669+836.199+460.37C834.452+462.07+833.346+464.575+832.882+467.884L852.643+467.884Z" opacity="1" fill="#000000"/>
<path d="M897.081+450.025C898.597+450.025+900.089+450.365+901.558+451.046C903.027+451.726+904.735+452.87+906.684+454.478L902.602+464.452C899.293+461.978+896.633+460.741+894.623+460.741C892.86+460.741+891.121+461.398+889.404+462.712C887.688+464.026+886.312+465.766+885.276+467.931C884.24+470.095+883.722+472.26+883.722+474.425L883.722+494.185L872.311+494.185L872.311+450.86L883.722+450.86L883.722+461.9L883.908+461.9C885.98+457.725+888.067+454.703+890.17+452.832C892.273+450.961+894.577+450.025+897.081+450.025Z" opacity="1" fill="#000000"/>
</g>
<g opacity="1">
<path d="M310.439+414.202L331.731+445.221L353.022+414.202L364.202+414.202L364.202+492.846L351.677+492.846L351.677+437.621L351.306+437.621L332.566+465.318L330.803+465.318L312.063+437.621L311.692+437.621L311.692+492.846L299.167+492.846L299.167+414.202L310.439+414.202Z" opacity="1" fill="#ffffff"/>
<path d="M398.528+439.253C403.043+439.253+407.14+440.398+410.82+442.687C414.5+444.977+417.345+448.185+419.355+452.314C421.365+456.442+422.37+461.114+422.37+466.331C422.37+471.773+421.404+476.539+419.471+480.63C417.539+484.721+414.693+487.948+410.936+490.312C407.179+492.677+403.043+493.859+398.528+493.859C393.982+493.859+389.853+492.677+386.142+490.312C382.432+487.948+379.61+484.721+377.677+480.63C375.744+476.539+374.778+471.773+374.778+466.331C374.778+461.039+375.798+456.339+377.839+452.229C379.88+448.12+382.725+444.93+386.374+442.659C390.023+440.389+394.075+439.253+398.528+439.253ZM386.745+466.331C386.745+471.585+387.805+475.779+389.923+478.913C392.041+482.047+394.879+483.613+398.435+483.613C402.146+483.613+405.068+482.112+407.202+479.11C409.336+476.107+410.403+471.81+410.403+466.218C410.403+460.889+409.328+456.77+407.179+453.862C405.03+450.953+402.115+449.499+398.435+449.499C394.971+449.499+392.157+451.038+389.993+454.115C387.828+457.192+386.745+461.264+386.745+466.331Z" opacity="1" fill="#ffffff"/>
<path d="M443.384+426.306L444.311+426.306L444.311+440.267L459.155+440.267L459.155+450.737L444.311+450.737L444.311+475C444.311+477.365+444.899+479.279+446.074+480.742C447.249+482.206+448.857+482.938+450.898+482.938C453.558+482.938+456.619+481.774+460.083+479.448L460.083+490.538C455.97+492.752+452.104+493.859+448.486+493.859C443.6+493.859+439.789+492.245+437.052+489.018C434.315+485.79+432.947+481.418+432.947+475.901L432.947+450.737L426.174+450.737L426.174+448.486L443.384+426.306Z" opacity="1" fill="#ffffff"/>
<path d="M477.988+414.202L477.988+447.641L478.266+447.641C481.946+442.049+486.384+439.253+491.579+439.253C496.187+439.253+499.898+441.092+502.712+444.77C505.526+448.448+506.933+453.252+506.933+459.182L506.933+492.846L495.569+492.846L495.569+461.827C495.569+458.3+494.881+455.494+493.505+453.411C492.128+451.328+490.25+450.287+487.869+450.287C486.137+450.287+484.505+450.887+482.975+452.088C481.444+453.289+479.782+455.278+477.988+458.056L477.988+492.846L466.577+492.846L466.577+414.202L477.988+414.202Z" opacity="1" fill="#ffffff"/>
<path d="M537.363+439.253C543.734+439.253+548.774+441.73+552.485+446.684C556.196+451.638+558.052+458.487+558.052+467.232L558.052+469.315L527.39+469.315C527.854+474.006+529.3+477.618+531.727+480.151C534.155+482.685+537.487+483.951+541.724+483.951C544.445+483.951+547.066+483.379+549.586+482.234C552.106+481.09+554.712+479.354+557.402+477.027L557.402+487.329C552.331+491.682+546.177+493.859+538.94+493.859C532.106+493.859+526.524+491.363+522.195+486.372C517.865+481.38+515.701+474.738+515.701+466.444C515.701+458.45+517.703+451.92+521.708+446.853C525.712+441.787+530.931+439.253+537.363+439.253ZM547.336+460.927C547.027+457.099+546.068+454.106+544.46+451.948C542.852+449.79+540.641+448.711+537.827+448.711C534.951+448.711+532.639+449.743+530.892+451.807C529.145+453.871+528.039+456.911+527.576+460.927L547.336+460.927Z" opacity="1" fill="#ffffff"/>
<path d="M591.775+439.253C593.29+439.253+594.782+439.666+596.251+440.492C597.72+441.317+599.429+442.706+601.377+444.658L597.295+456.761C593.986+453.759+591.326+452.257+589.316+452.257C587.554+452.257+585.814+453.055+584.098+454.65C582.381+456.245+581.005+458.356+579.969+460.983C578.933+463.61+578.415+466.237+578.415+468.864L578.415+492.846L567.004+492.846L567.004+440.267L578.415+440.267L578.415+453.665L578.601+453.665C580.673+448.598+582.76+444.93+584.863+442.659C586.966+440.389+589.27+439.253+591.775+439.253Z" opacity="1" fill="#ffffff"/>
</g>
</g>
</svg>
