<?xml version="1.0" encoding="UTF-8" standalone="no"?> <!-- Created with Vectornator Pro for iOS (http://vectornator.io/) --><!DOCTYPE svg PUBLIC "-//W3C//DTD SVG 1.1//EN" "http://www.w3.org/Graphics/SVG/1.1/DTD/svg11.dtd">
<svg style="fill-rule:evenodd;clip-rule:evenodd;stroke-linecap:round;stroke-linejoin:round;" xmlns:vectornator="http://vectornator.io" xmlns:xlink="http://www.w3.org/1999/xlink" xmlns="http://www.w3.org/2000/svg" xml:space="preserve" version="1.1" viewBox="0 0 1190.7 1417.5">
<metadata>
<vectornator:setting key="DisplayWhiteBackground" value="1"/>
<vectornator:setting key="RulersVisible" value="1"/>
<vectornator:setting key="SnapToEdges" value="0"/>
<vectornator:setting key="Units" value="Millimeters"/>
<vectornator:setting key="DynamicGuides" value="1"/>
<vectornator:setting key="SnapToPoints" value="0"/>
<vectornator:setting key="CMYKEnabledKey" value="0"/>
<vectornator:setting key="SnapToGrid" value="0"/>
<vectornator:setting key="IsolateActiveLayer" value="0"/>
<vectornator:setting key="ShowGrid" value="0"/>
<vectornator:setting key="GridSpacing" value="50"/>
</metadata>
<defs/>
<g id="Tee shirt base" vectornator:layerName="Tee shirt base">
<path stroke="#313131" stroke-width="5.04" d="M771.343+46.5588C769.115+46.5639+765.314+47.4062+764.424+49.3597C744.728+92.5848+714.079+167.313+609.494+171.628C533.035+174.782+461.878+116.974+441.898+60.5968C440.597+56.9257+434.843+58.4852+431.39+59.2076C316.128+83.3166+253.904+131.917+227.306+147.818C150.85+193.524+26.9685+413.319+24.0166+420.756C-3.64916+490.455+159.704+614.292+202.262+629.563C207.307+631.373+234.917+576.531+258.94+487.997C260.617+481.817+258.383+437.583+244.295+393.277C242.513+387.674+247.799+399.571+249.713+407.771C264.99+473.217+268.264+542.847+268.265+542.847L261.039+687.439L237.46+1354.13L605.553+1351.64L962.419+1352.42L938.839+685.731C938.839+685.731+933.865+614.354+935.616+542.124C936.927+488.052+943.625+434.081+950.165+406.063C952.079+397.863+957.415+385.966+955.633+391.569C941.544+435.876+939.162+480.137+940.938+486.289C966.294+574.122+992.62+629.665+997.666+627.855C1040.22+612.584+1194.78+477.673+1167.12+407.974C1164.17+400.537+1067.34+229.438+1001.47+165.492C986.918+151.359+879.674+46.3124+771.343+46.5588Z" fill="none" stroke-linecap="round" opacity="1" stroke-linejoin="round"/>
<path stroke="#dcdcdc" stroke-width="9.52" d="M431.407+70.5645C431.407+70.5645+481.915+189.506+607.599+185.16C746.658+180.351+774.324+58.2216+774.324+58.2216" fill="none" stroke-linecap="round" opacity="1" stroke-linejoin="round"/>
<path stroke="#161616" stroke-width="2.93" d="M417.299+69.4439C417.299+69.4439+463.956+204.228+613.929+196.857C764.149+189.473+788.492+54.3667+788.492+54.3667" fill="none" stroke-linecap="round" opacity="1" stroke-linejoin="round"/>
</g>
<g id="Calque 2" vectornator:layerName="Calque 2">
<text x="0" font-family="MarkerFelt-Wide" y="0" text-anchor="middle" vectornator:text="J’peux&#x20;pas&#x20;" fill="#000000" font-size="73" vectornator:width="534.183" opacity="1" transform="matrix(1 0 0 1 331.723 248.679)">
<tspan x="276.216" y="77" textLength="362.591">
J’peux pas </tspan>
</text>
<text x="0" font-family="MarkerFelt-Wide" y="0" text-anchor="middle" vectornator:text="J’ai&#x20;internat" fill="#000000" font-size="73" vectornator:width="534.183" opacity="1" transform="matrix(1 0 0 1 328.554 743.308)">
<tspan x="267.091" y="77" textLength="386.754">
J’ai internat</tspan>
</text>
<path stroke="#373737" stroke-width="7.01" d="M483.865+417.082C502.708+400.084+525.265+387.126+550.172+379.571" fill="none" stroke-linecap="round" opacity="1" stroke-linejoin="round"/>
<path stroke="#373737" stroke-width="7.01" d="M433.686+598.379C428.716+582.151+426.041+564.919+426.041+547.063C426.041+529.903+428.511+513.32+433.115+497.65" fill="none" stroke-linecap="round" opacity="1" stroke-linejoin="round"/>
<path stroke="#373737" stroke-width="7.01" d="M549.369+713.997C523.097+705.716+499.501+691.404+480.204+672.684" fill="none" stroke-linecap="round" opacity="1" stroke-linejoin="round"/>
<path stroke="#373737" stroke-width="7.01" d="M770.068+501.562C773.964+516.071+776.041+531.324+776.041+547.063C776.041+565.031+773.334+582.366+768.304+598.684" fill="none" stroke-linecap="round" opacity="1" stroke-linejoin="round"/>
<path stroke="#373737" stroke-width="7.01" d="M664.123+383.777C691.593+394.397+715.712+411.749+734.458+433.809" fill="none" stroke-linecap="round" opacity="1" stroke-linejoin="round"/>
<path stroke="#373737" stroke-width="7" d="M734.458+433.809L721.184+397.561" fill="none" stroke-linecap="round" opacity="1" stroke-linejoin="round"/>
<path stroke="#373737" stroke-width="7" d="M550.172+379.571L512.045+377.706" fill="none" stroke-linecap="round" opacity="1" stroke-linejoin="round"/>
<path stroke="#373737" stroke-width="7" d="M410.43+529.155L433.007+497.831" fill="none" stroke-linecap="round" opacity="1" stroke-linejoin="round"/>
<path stroke="#373737" stroke-width="7" d="M497.264+707.51L480.204+672.684" fill="none" stroke-linecap="round" opacity="1" stroke-linejoin="round"/>
<path stroke="#373737" stroke-width="7" d="M768.304+598.684L791.131+568.193" fill="none" stroke-linecap="round" opacity="1" stroke-linejoin="round"/>
<g opacity="1">
<path stroke="#373737" stroke-width="7.01" d="M724.966+670.626C706.034+689.613+682.766+704.275+656.774+713.001" fill="none" stroke-linecap="round" opacity="1" stroke-linejoin="round"/>
<path stroke="#373737" stroke-width="7" d="M656.774+713.001L695.489+713.553" fill="none" stroke-linecap="round" opacity="1" stroke-linejoin="round"/>
<path stroke="#373737" stroke-width="7.01" d="M724.966+670.626C706.034+689.613+682.766+704.275+656.774+713.001" fill="none" stroke-linecap="round" opacity="1" stroke-linejoin="round"/>
</g>
</g>
<g id="Calque 1" vectornator:layerName="Calque 1">
<g opacity="1">
<path stroke="#818181" stroke-width="2.54" d="M738.998+442.78L777.182+442.78L777.182+488.726L738.998+488.726L738.998+442.78Z" fill="none" stroke-linecap="round" opacity="1" stroke-linejoin="round"/>
<path stroke="#818181" stroke-width="2.54" d="M778.324+454.223C778.324+454.223+790.784+450.695+790.784+465.753C790.784+482.253+778.324+477.923+778.324+477.923" fill="none" stroke-linecap="butt" opacity="1" stroke-linejoin="round"/>
<path stroke="#818181" stroke-width="2.54" d="M745.386+433.602C752.779+414.145+743.259+416.425+742.142+407.296" fill="none" stroke-linecap="round" opacity="1" stroke-linejoin="round"/>
<path stroke="#818181" stroke-width="2.54" d="M758.37+433.602C768.006+408.244+748.914+419.808+757.134+394.916" fill="none" stroke-linecap="round" opacity="1" stroke-linejoin="round"/>
<path stroke="#818181" stroke-width="2.54" d="M771.469+433.602C778.863+414.145+769.343+416.425+768.226+407.296" fill="none" stroke-linecap="round" opacity="1" stroke-linejoin="round"/>
</g>
<g opacity="1">
<path stroke="#818181" stroke-width="1.92" d="M798.134+621.14L798.134+660.657L713.051+660.657L713.051+621.14L798.134+621.14Z" fill="none" stroke-linecap="round" opacity="1" stroke-linejoin="round"/>
<path stroke="#818181" stroke-width="1.92" d="M794.905+620.779C790.074+612.154+756.131+607.386+756.131+617.184L756.131+656.882C756.131+656.882+757.219+655.564+759.032+654.61C768.075+649.851+795.149+656.708+795.149+656.708C795.149+656.708+795.456+621.763+794.905+620.779Z" fill="#ffffff" stroke-linecap="butt" opacity="1" stroke-linejoin="round"/>
<path stroke="#818181" stroke-width="1.92" d="M717.454+620.779C722.285+612.154+756.228+607.386+756.228+617.184L756.228+656.882C756.228+656.882+755.14+655.564+753.327+654.61C744.284+649.851+717.21+656.708+717.21+656.708C717.21+656.708+716.904+621.763+717.454+620.779Z" fill="#ffffff" stroke-linecap="butt" opacity="1" stroke-linejoin="round"/>
<g opacity="0.642187">
<path stroke="#818181" stroke-width="0.5" d="M759.1+618.089C759.909+617.683+761.513+616.05+762.887+616.411C764.086+616.726+764.472+617.48+765.873+617.48C767.275+617.48+767.973+616.573+769.214+616.423C770.754+616.236+771.914+617.873+773.517+617.863C774.741+617.855+775.64+617.123+776.836+616.93C778.022+616.739+779.255+618.887+780.455+618.935C781.695+618.984+782.525+618.846+783.998+618.861C785.471+618.876+786.396+621.204+787.194+621.429C788.129+621.692+789.251+621.082+790.988+621.543" fill="none" stroke-linecap="round" opacity="0.329688" stroke-linejoin="round"/>
<path stroke="#818181" stroke-width="0.5" d="M758.975+637.405C759.771+636.974+761.322+635.291+762.707+635.608C763.915+635.884+764.325+636.626+765.726+636.582C767.126+636.538+767.795+635.609+769.031+635.42C770.564+635.185+771.776+636.784+773.378+636.723C774.601+636.677+775.476+635.916+776.666+635.685C777.845+635.456+779.145+637.565+780.346+637.575C781.587+637.585+782.412+637.42+783.885+637.389C785.357+637.358+786.356+639.655+787.16+639.854C788.104+640.088+789.206+639.443+790.957+639.848" fill="none" stroke-linecap="round" opacity="0.329688" stroke-linejoin="round"/>
<path stroke="#818181" stroke-width="0.5" d="M758.637+641.821C759.426+641.379+760.954+639.674+762.344+639.972C763.555+640.231+763.975+640.967+765.375+640.903C766.775+640.839+767.431+639.901+768.664+639.695C770.194+639.438+771.428+641.02+773.029+640.936C774.251+640.873+775.115+640.1+776.302+639.853C777.478+639.607+778.807+641.697+780.009+641.69C781.25+641.683+782.072+641.506+783.544+641.454C785.016+641.402+786.047+643.686+786.854+643.873C787.801+644.093+788.893+643.433+790.65+643.814" fill="none" stroke-linecap="round" opacity="0.329688" stroke-linejoin="round"/>
<path stroke="#818181" stroke-width="0.5" d="M759.222+646.09C760.006+645.64+761.518+643.921+762.91+644.205C764.124+644.452+764.551+645.184+765.95+645.107C767.35+645.029+767.996+644.085+769.227+643.866C770.754+643.595+772.004+645.165+773.604+645.066C774.826+644.99+775.682+644.209+776.866+643.95C778.04+643.693+779.389+645.77+780.591+645.751C781.831+645.732+782.652+645.547+784.124+645.481C785.595+645.415+786.648+647.688+787.457+647.868C788.405+648.079+789.492+647.408+791.252+647.772" fill="none" stroke-linecap="round" opacity="0.329688" stroke-linejoin="round"/>
<path stroke="#818181" stroke-width="0.5" d="M759.492+650.383C760.277+649.935+761.792+648.219+763.183+648.505C764.397+648.755+764.823+649.488+766.222+649.413C767.622+649.338+768.27+648.395+769.501+648.178C771.029+647.91+772.276+649.482+773.876+649.386C775.098+649.313+775.956+648.533+777.14+648.276C778.314+648.022+779.66+650.101+780.861+650.085C782.102+650.068+782.924+649.885+784.395+649.821C785.866+649.758+786.915+652.033+787.723+652.214C788.672+652.427+789.759+651.758+791.519+652.125" fill="none" stroke-linecap="round" opacity="0.329688" stroke-linejoin="round"/>
<path stroke="#818181" stroke-width="0.5" d="M758.856+631.937C759.664+631.531+761.269+629.898+762.643+630.259C763.841+630.574+764.227+631.328+765.629+631.328C767.03+631.328+767.728+630.421+768.969+630.271C770.509+630.084+771.67+631.721+773.273+631.711C774.497+631.703+775.395+630.971+776.592+630.778C777.778+630.586+779.011+632.735+780.211+632.783C781.451+632.832+782.281+632.693+783.754+632.709C785.226+632.724+786.152+635.052+786.949+635.277C787.885+635.54+789.007+634.93+790.744+635.391" fill="none" stroke-linecap="round" opacity="0.329688" stroke-linejoin="round"/>
<path stroke="#818181" stroke-width="0.5" d="M758.938+622.651C759.746+622.245+761.35+620.612+762.724+620.973C763.923+621.287+764.309+622.042+765.71+622.042C767.112+622.042+767.81+621.135+769.051+620.985C770.591+620.798+771.752+622.435+773.354+622.425C774.578+622.417+775.477+621.685+776.673+621.492C777.859+621.3+779.092+623.449+780.292+623.497C781.532+623.546+782.362+623.407+783.835+623.423C785.308+623.438+786.233+625.766+787.031+625.99C787.966+626.254+789.088+625.644+790.825+626.105" fill="none" stroke-linecap="round" opacity="0.329688" stroke-linejoin="round"/>
<path stroke="#818181" stroke-width="0.5" d="M758.856+627.131C759.665+626.725+761.269+625.092+762.643+625.453C763.841+625.768+764.227+626.522+765.629+626.522C767.03+626.522+767.728+625.615+768.969+625.465C770.509+625.278+771.67+626.915+773.273+626.905C774.497+626.897+775.395+626.165+776.592+625.972C777.778+625.78+779.011+627.929+780.211+627.977C781.451+628.026+782.281+627.887+783.754+627.903C785.226+627.918+786.152+630.246+786.949+630.471C787.885+630.734+789.007+630.124+790.744+630.585" fill="none" stroke-linecap="round" opacity="0.329688" stroke-linejoin="round"/>
</g>
<g opacity="0.642187">
<path stroke="#818181" stroke-width="0.5" d="M753.081+618.406C752.273+618.001+750.668+616.368+749.294+616.729C748.096+617.043+747.71+617.798+746.308+617.798C744.907+617.798+744.209+616.891+742.968+616.741C741.428+616.554+740.267+618.191+738.664+618.181C737.44+618.173+736.542+617.441+735.345+617.247C734.159+617.056+732.926+619.205+731.726+619.252C730.486+619.302+729.656+619.163+728.184+619.178C726.711+619.194+725.785+621.522+724.988+621.746C724.052+622.01+722.93+621.4+721.193+621.86" fill="none" stroke-linecap="round" opacity="0.329688" stroke-linejoin="round"/>
<path stroke="#818181" stroke-width="0.5" d="M753.206+637.722C752.411+637.291+750.859+635.608+749.474+635.925C748.266+636.202+747.857+636.944+746.456+636.9C745.055+636.855+744.386+635.927+743.151+635.737C741.617+635.502+740.405+637.101+738.804+637.041C737.58+636.994+736.706+636.234+735.516+636.003C734.336+635.774+733.036+637.883+731.835+637.892C730.594+637.903+729.769+637.737+728.297+637.706C726.824+637.675+725.826+639.973+725.021+640.172C724.078+640.405+722.976+639.76+721.225+640.166" fill="none" stroke-linecap="round" opacity="0.329688" stroke-linejoin="round"/>
<path stroke="#818181" stroke-width="0.5" d="M753.544+642.138C752.755+641.696+751.227+639.992+749.838+640.289C748.626+640.549+748.206+641.285+746.806+641.221C745.406+641.157+744.75+640.219+743.518+640.012C741.988+639.755+740.753+641.337+739.153+641.254C737.93+641.19+737.066+640.418+735.88+640.17C734.704+639.925+733.374+642.015+732.173+642.007C730.932+642+730.109+641.824+728.637+641.772C727.166+641.72+726.135+644.003+725.328+644.191C724.381+644.411+723.288+643.751+721.532+644.131" fill="none" stroke-linecap="round" opacity="0.329688" stroke-linejoin="round"/>
<path stroke="#818181" stroke-width="0.5" d="M752.96+646.407C752.175+645.958+750.664+644.238+749.272+644.522C748.058+644.77+747.631+645.502+746.231+645.424C744.832+645.347+744.185+644.403+742.955+644.184C741.427+643.912+740.177+645.482+738.578+645.383C737.356+645.308+736.5+644.527+735.316+644.268C734.142+644.011+732.792+646.088+731.591+646.069C730.35+646.049+729.529+645.865+728.058+645.799C726.587+645.732+725.534+648.006+724.725+648.186C723.776+648.397+722.69+647.726+720.93+648.089" fill="none" stroke-linecap="round" opacity="0.329688" stroke-linejoin="round"/>
<path stroke="#818181" stroke-width="0.5" d="M752.69+650.701C751.904+650.253+750.39+648.536+748.998+648.823C747.784+649.073+747.359+649.805+745.959+649.73C744.56+649.655+743.911+648.712+742.68+648.496C741.152+648.227+739.906+649.799+738.306+649.704C737.084+649.63+736.226+648.851+735.042+648.594C733.867+648.339+732.521+650.419+731.32+650.402C730.079+650.385+729.258+650.202+727.787+650.139C726.315+650.075+725.266+652.35+724.458+652.532C723.51+652.745+722.422+652.076+720.663+652.443" fill="none" stroke-linecap="round" opacity="0.329688" stroke-linejoin="round"/>
<path stroke="#818181" stroke-width="0.5" d="M753.325+632.254C752.517+631.849+750.913+630.216+749.539+630.576C748.34+630.891+747.954+631.646+746.553+631.646C745.151+631.646+744.453+630.739+743.212+630.588C741.672+630.402+740.511+632.039+738.909+632.029C737.685+632.021+736.786+631.289+735.59+631.095C734.404+630.904+733.171+633.053+731.97+633.1C730.731+633.15+729.901+633.011+728.428+633.026C726.955+633.042+726.03+635.37+725.232+635.594C724.297+635.857+723.175+635.248+721.438+635.708" fill="none" stroke-linecap="round" opacity="0.329688" stroke-linejoin="round"/>
<path stroke="#818181" stroke-width="0.5" d="M753.244+622.968C752.435+622.562+750.831+620.93+749.457+621.29C748.259+621.605+747.873+622.359+746.471+622.359C745.07+622.359+744.372+621.453+743.131+621.302C741.591+621.116+740.43+622.752+738.827+622.742C737.603+622.735+736.705+622.002+735.508+621.809C734.322+621.618+733.089+623.766+731.889+623.814C730.649+623.864+729.819+623.725+728.346+623.74C726.874+623.755+725.948+626.084+725.151+626.308C724.215+626.571+723.093+625.962+721.356+626.422" fill="none" stroke-linecap="round" opacity="0.329688" stroke-linejoin="round"/>
<path stroke="#818181" stroke-width="0.5" d="M753.325+627.448C752.517+627.043+750.913+625.41+749.539+625.77C748.34+626.085+747.954+626.84+746.553+626.84C745.151+626.84+744.453+625.933+743.212+625.782C741.672+625.596+740.511+627.233+738.909+627.223C737.685+627.215+736.786+626.482+735.59+626.289C734.404+626.098+733.171+628.247+731.97+628.294C730.731+628.344+729.901+628.205+728.428+628.22C726.955+628.236+726.03+630.564+725.232+630.788C724.297+631.051+723.175+630.442+721.438+630.902" fill="none" stroke-linecap="round" opacity="0.329688" stroke-linejoin="round"/>
</g>
</g>
<g opacity="1">
<path stroke="#818181" stroke-width="1.93" d="M578.437+718.112C578.437+704.197+589.317+692.917+602.739+692.917C616.16+692.917+627.04+704.197+627.04+718.112C627.04+732.027+616.16+743.308+602.739+743.308C589.317+743.308+578.437+732.027+578.437+718.112Z" fill="none" stroke-linecap="round" opacity="1" stroke-linejoin="round"/>
<path stroke="#818181" stroke-width="1.5" d="M587.056+718.112C587.056+709.44+594.077+702.41+602.739+702.41C611.4+702.41+618.422+709.44+618.422+718.112C618.422+726.784+611.4+733.814+602.739+733.814C594.077+733.814+587.056+726.784+587.056+718.112Z" fill="none" stroke-linecap="round" opacity="1" stroke-linejoin="round"/>
<path stroke="#818181" stroke-width="1.5" d="M628.692+700.046C628.692+699.244+628.704+697.2+628.692+686.281C628.69+685.174+630.308+685.187+630.303+686.281C630.26+695.995+630.429+696.138+630.429+696.138C630.429+696.138+630.385+697.094+631.288+697.106C632.399+697.121+632.223+695.995+632.223+695.995C632.223+695.995+632.213+695.995+632.218+686.281C632.219+685.293+633.934+685.17+633.91+686.281C633.699+695.995+633.871+696.042+633.871+696.042C633.871+696.042+633.811+697.136+634.751+697.159C635.871+697.187+635.699+695.995+635.699+695.995C635.699+695.995+635.741+696.038+635.737+686.281C635.737+685.089+637.527+684.995+637.493+686.281C637.237+695.995+637.316+696.068+637.316+696.068C637.316+696.068+637.31+697.198+638.264+697.211C639.363+697.227+639.352+695.995+639.352+695.995C639.352+695.995+639.345+696.019+639.389+686.281C639.394+685.185+641.056+685.134+641.068+686.281C641.124+691.727+641.053+699.077+641.067+700.046C641.122+703.729+637.136+707.385+637.136+708.196L637.136+741.84C637.136+742.651+636.942+743.308+636.703+743.308L632.766+743.308C632.527+743.308+632.334+742.651+632.334+741.84L632.334+708.196C632.334+707.385+628.692+703.729+628.692+700.046Z" fill="#ffffff" stroke-linecap="round" opacity="1" stroke-linejoin="round"/>
<path stroke="#818181" stroke-width="1.66" d="M568.42+685.352C568.42+685.352+576.971+688.864+576.84+698.851C576.747+706.041+572.514+714.014+572.514+714.014C572.514+714.85+575.583+743.308+574.133+743.308L570.896+743.308C569.445+743.308+568.269+742.63+568.269+741.793L568.269+689.866C568.269+689.03+568.42+685.352+568.42+685.352Z" fill="#ffffff" stroke-linecap="round" opacity="1" stroke-linejoin="round"/>
</g>
<g opacity="1">
<path stroke="#818181" stroke-width="1.92" d="M492.68+619.265L492.68+658.782L407.597+658.782L407.597+619.265L492.68+619.265Z" fill="none" stroke-linecap="round" opacity="1" stroke-linejoin="round"/>
<path stroke="#818181" stroke-width="1.92" d="M489.451+618.905C484.62+610.279+450.677+605.511+450.677+615.309L450.677+655.007C450.677+655.007+451.765+653.689+453.578+652.735C462.621+647.977+489.695+654.833+489.695+654.833C489.695+654.833+490.001+619.888+489.451+618.905Z" fill="#ffffff" stroke-linecap="butt" opacity="1" stroke-linejoin="round"/>
<path stroke="#818181" stroke-width="1.92" d="M412+618.905C416.831+610.279+450.774+605.511+450.774+615.309L450.774+655.007C450.774+655.007+449.686+653.689+447.873+652.735C438.83+647.977+411.756+654.833+411.756+654.833C411.756+654.833+411.449+619.888+412+618.905Z" fill="#ffffff" stroke-linecap="butt" opacity="1" stroke-linejoin="round"/>
<g opacity="0.642187">
<path stroke="#818181" stroke-width="0.5" d="M453.646+616.214C454.455+615.809+456.059+614.176+457.433+614.536C458.632+614.851+459.018+615.606+460.419+615.606C461.821+615.606+462.519+614.699+463.759+614.548C465.3+614.362+466.46+615.999+468.063+615.989C469.287+615.981+470.186+615.248+471.382+615.055C472.568+614.864+473.801+617.013+475.001+617.06C476.241+617.11+477.071+616.971+478.544+616.986C480.016+617.002+480.942+619.33+481.739+619.554C482.675+619.817+483.797+619.208+485.534+619.668" fill="none" stroke-linecap="round" opacity="0.329688" stroke-linejoin="round"/>
<path stroke="#818181" stroke-width="0.5" d="M453.521+635.53C454.317+635.099+455.868+633.416+457.253+633.733C458.461+634.01+458.871+634.752+460.271+634.707C461.672+634.663+462.341+633.735+463.577+633.545C465.11+633.31+466.322+634.909+467.924+634.848C469.147+634.802+470.022+634.042+471.211+633.811C472.391+633.582+473.691+635.69+474.892+635.7C476.133+635.71+476.958+635.545+478.431+635.514C479.903+635.483+480.902+637.781+481.706+637.98C482.65+638.213+483.752+637.568+485.503+637.974" fill="none" stroke-linecap="round" opacity="0.329688" stroke-linejoin="round"/>
<path stroke="#818181" stroke-width="0.5" d="M453.183+639.946C453.972+639.504+455.5+637.8+456.889+638.097C458.101+638.357+458.521+639.093+459.921+639.029C461.321+638.965+461.977+638.027+463.21+637.82C464.74+637.563+465.974+639.145+467.575+639.062C468.797+638.998+469.661+638.226+470.847+637.978C472.024+637.732+473.353+639.822+474.555+639.815C475.796+639.808+476.618+639.631+478.09+639.579C479.562+639.528+480.593+641.811+481.4+641.999C482.346+642.219+483.439+641.558+485.196+641.939" fill="none" stroke-linecap="round" opacity="0.329688" stroke-linejoin="round"/>
<path stroke="#818181" stroke-width="0.5" d="M453.767+644.215C454.552+643.765+456.064+642.046+457.456+642.33C458.67+642.578+459.097+643.31+460.496+643.232C461.896+643.155+462.542+642.21+463.773+641.992C465.3+641.72+466.55+643.29+468.15+643.191C469.371+643.115+470.228+642.334+471.412+642.075C472.586+641.818+473.935+643.896+475.137+643.877C476.377+643.857+477.198+643.673+478.67+643.607C480.141+643.54+481.194+645.814+482.003+645.993C482.951+646.204+484.038+645.534+485.798+645.897" fill="none" stroke-linecap="round" opacity="0.329688" stroke-linejoin="round"/>
<path stroke="#818181" stroke-width="0.5" d="M454.038+648.509C454.823+648.06+456.338+646.344+457.729+646.631C458.943+646.88+459.369+647.613+460.768+647.538C462.168+647.463+462.816+646.52+464.047+646.304C465.575+646.035+466.822+647.607+468.422+647.511C469.644+647.438+470.501+646.659+471.686+646.402C472.86+646.147+474.206+648.227+475.407+648.21C476.648+648.193+477.469+648.01+478.941+647.947C480.412+647.883+481.461+650.158+482.269+650.34C483.218+650.552+484.305+649.884+486.065+650.25" fill="none" stroke-linecap="round" opacity="0.329688" stroke-linejoin="round"/>
<path stroke="#818181" stroke-width="0.5" d="M453.402+630.062C454.21+629.657+455.815+628.024+457.189+628.384C458.387+628.699+458.773+629.453+460.175+629.453C461.576+629.453+462.274+628.547+463.515+628.396C465.055+628.21+466.216+629.847+467.819+629.836C469.043+629.829+469.941+629.096+471.138+628.903C472.324+628.712+473.557+630.86+474.757+630.908C475.997+630.958+476.827+630.819+478.299+630.834C479.772+630.85+480.698+633.178+481.495+633.402C482.431+633.665+483.553+633.056+485.29+633.516" fill="none" stroke-linecap="round" opacity="0.329688" stroke-linejoin="round"/>
<path stroke="#818181" stroke-width="0.5" d="M453.483+620.776C454.292+620.37+455.896+618.737+457.27+619.098C458.469+619.413+458.855+620.167+460.256+620.167C461.658+620.167+462.356+619.26+463.597+619.11C465.137+618.923+466.298+620.56+467.9+620.55C469.124+620.542+470.023+619.81+471.219+619.617C472.405+619.426+473.638+621.574+474.838+621.622C476.078+621.671+476.908+621.533+478.381+621.548C479.854+621.563+480.779+623.891+481.577+624.116C482.512+624.379+483.634+623.769+485.371+624.23" fill="none" stroke-linecap="round" opacity="0.329688" stroke-linejoin="round"/>
<path stroke="#818181" stroke-width="0.5" d="M453.402+625.256C454.21+624.851+455.815+623.218+457.189+623.578C458.387+623.893+458.773+624.647+460.175+624.647C461.576+624.647+462.274+623.741+463.515+623.59C465.055+623.404+466.216+625.041+467.819+625.03C469.043+625.023+469.941+624.29+471.138+624.097C472.324+623.906+473.557+626.054+474.757+626.102C475.997+626.152+476.827+626.013+478.299+626.028C479.772+626.044+480.698+628.372+481.495+628.596C482.431+628.859+483.553+628.25+485.29+628.71" fill="none" stroke-linecap="round" opacity="0.329688" stroke-linejoin="round"/>
</g>
<g opacity="0.642187">
<path stroke="#818181" stroke-width="0.5" d="M447.627+616.532C446.819+616.126+445.214+614.493+443.84+614.854C442.642+615.169+442.256+615.923+440.854+615.923C439.453+615.923+438.755+615.016+437.514+614.866C435.974+614.679+434.813+616.316+433.21+616.306C431.986+616.298+431.088+615.566+429.891+615.373C428.705+615.181+427.472+617.33+426.272+617.378C425.032+617.427+424.202+617.288+422.729+617.304C421.257+617.319+420.331+619.647+419.534+619.872C418.598+620.135+417.476+619.525+415.739+619.986" fill="none" stroke-linecap="round" opacity="0.329688" stroke-linejoin="round"/>
<path stroke="#818181" stroke-width="0.5" d="M447.752+635.848C446.957+635.417+445.405+633.734+444.02+634.051C442.812+634.327+442.403+635.069+441.002+635.025C439.601+634.981+438.932+634.052+437.697+633.863C436.163+633.627+434.951+635.227+433.349+635.166C432.126+635.12+431.252+634.359+430.062+634.128C428.882+633.899+427.582+636.008+426.381+636.018C425.14+636.028+424.315+635.863+422.842+635.832C421.37+635.8+420.371+638.098+419.567+638.297C418.624+638.531+417.522+637.886+415.771+638.291" fill="none" stroke-linecap="round" opacity="0.329688" stroke-linejoin="round"/>
<path stroke="#818181" stroke-width="0.5" d="M448.09+640.264C447.301+639.822+445.773+638.117+444.384+638.415C443.172+638.674+442.752+639.41+441.352+639.346C439.952+639.282+439.296+638.344+438.064+638.137C436.533+637.881+435.299+639.463+433.699+639.379C432.476+639.316+431.612+638.543+430.426+638.295C429.25+638.05+427.92+640.14+426.719+640.133C425.478+640.126+424.655+639.949+423.183+639.897C421.711+639.845+420.681+642.128+419.874+642.316C418.927+642.536+417.834+641.876+416.078+642.257" fill="none" stroke-linecap="round" opacity="0.329688" stroke-linejoin="round"/>
<path stroke="#818181" stroke-width="0.5" d="M447.506+644.533C446.721+644.083+445.21+642.364+443.818+642.648C442.604+642.895+442.177+643.627+440.777+643.55C439.378+643.472+438.731+642.528+437.501+642.309C435.973+642.037+434.723+643.607+433.124+643.508C431.902+643.433+431.046+642.652+429.862+642.393C428.688+642.136+427.338+644.213+426.137+644.194C424.896+644.175+424.075+643.99+422.604+643.924C421.133+643.858+420.08+646.131+419.271+646.311C418.322+646.522+417.236+645.851+415.475+646.215" fill="none" stroke-linecap="round" opacity="0.329688" stroke-linejoin="round"/>
<path stroke="#818181" stroke-width="0.5" d="M447.236+648.826C446.45+648.378+444.936+646.661+443.544+646.948C442.33+647.198+441.905+647.931+440.505+647.856C439.106+647.781+438.457+646.838+437.226+646.621C435.698+646.352+434.451+647.925+432.852+647.829C431.63+647.756+430.772+646.976+429.587+646.719C428.413+646.465+427.067+648.544+425.866+648.528C424.625+648.511+423.804+648.328+422.332+648.264C420.861+648.201+419.812+650.476+419.004+650.657C418.056+650.87+416.968+650.201+415.208+650.568" fill="none" stroke-linecap="round" opacity="0.329688" stroke-linejoin="round"/>
<path stroke="#818181" stroke-width="0.5" d="M447.871+630.38C447.063+629.974+445.459+628.341+444.085+628.702C442.886+629.016+442.5+629.771+441.099+629.771C439.697+629.771+438.999+628.864+437.758+628.714C436.218+628.527+435.057+630.164+433.454+630.154C432.23+630.146+431.332+629.414+430.136+629.221C428.949+629.029+427.717+631.178+426.516+631.226C425.276+631.275+424.447+631.136+422.974+631.152C421.501+631.167+420.576+633.495+419.778+633.72C418.843+633.983+417.721+633.373+415.983+633.834" fill="none" stroke-linecap="round" opacity="0.329688" stroke-linejoin="round"/>
<path stroke="#818181" stroke-width="0.5" d="M447.79+621.093C446.981+620.688+445.377+619.055+444.003+619.416C442.805+619.73+442.419+620.485+441.017+620.485C439.616+620.485+438.918+619.578+437.677+619.428C436.137+619.241+434.976+620.878+433.373+620.868C432.149+620.86+431.251+620.128+430.054+619.935C428.868+619.743+427.635+621.892+426.435+621.94C425.195+621.989+424.365+621.85+422.892+621.865C421.42+621.881+420.494+624.209+419.697+624.433C418.761+624.697+417.639+624.087+415.902+624.547" fill="none" stroke-linecap="round" opacity="0.329688" stroke-linejoin="round"/>
<path stroke="#818181" stroke-width="0.5" d="M447.871+625.574C447.063+625.168+445.459+623.535+444.085+623.896C442.886+624.21+442.5+624.965+441.099+624.965C439.697+624.965+438.999+624.058+437.758+623.908C436.218+623.721+435.057+625.358+433.454+625.348C432.23+625.34+431.332+624.608+430.136+624.415C428.949+624.223+427.717+626.372+426.516+626.42C425.276+626.469+424.446+626.33+422.974+626.346C421.501+626.361+420.576+628.689+419.778+628.914C418.843+629.177+417.721+628.567+415.983+629.028" fill="none" stroke-linecap="round" opacity="0.329688" stroke-linejoin="round"/>
</g>
</g>
<g opacity="1">
<path stroke="#818181" stroke-width="1.93" d="M419.186+461.715C419.186+447.8+430.066+436.52+443.488+436.52C456.909+436.52+467.79+447.8+467.79+461.715C467.79+475.631+456.909+486.911+443.488+486.911C430.066+486.911+419.186+475.631+419.186+461.715Z" fill="none" stroke-linecap="round" opacity="1" stroke-linejoin="round"/>
<path stroke="#818181" stroke-width="1.5" d="M427.805+461.716C427.805+453.044+434.826+446.013+443.488+446.013C452.15+446.013+459.171+453.044+459.171+461.716C459.171+470.387+452.15+477.418+443.488+477.418C434.826+477.418+427.805+470.387+427.805+461.716Z" fill="none" stroke-linecap="round" opacity="1" stroke-linejoin="round"/>
<path stroke="#818181" stroke-width="1.5" d="M469.441+443.649C469.441+442.847+469.453+440.803+469.441+429.884C469.44+428.777+471.057+428.79+471.053+429.884C471.01+439.598+471.178+439.741+471.178+439.741C471.178+439.741+471.135+440.697+472.037+440.709C473.148+440.724+472.972+439.598+472.972+439.598C472.972+439.598+472.962+439.598+472.967+429.884C472.968+428.896+474.684+428.773+474.659+429.884C474.448+439.598+474.62+439.646+474.62+439.646C474.62+439.646+474.56+440.739+475.5+440.762C476.62+440.79+476.448+439.598+476.448+439.598C476.448+439.598+476.49+439.641+476.486+429.884C476.486+428.692+478.276+428.598+478.242+429.884C477.986+439.598+478.065+439.672+478.065+439.672C478.065+439.672+478.059+440.801+479.013+440.815C480.112+440.83+480.102+439.598+480.102+439.598C480.102+439.598+480.094+439.622+480.138+429.884C480.143+428.788+481.806+428.737+481.817+429.884C481.873+435.331+481.802+442.681+481.817+443.649C481.871+447.333+477.885+450.988+477.885+451.799L477.885+485.443C477.885+486.254+477.692+486.911+477.453+486.911L473.516+486.911C473.277+486.911+473.083+486.254+473.083+485.443L473.083+451.799C473.083+450.988+469.441+447.333+469.441+443.649Z" fill="#ffffff" stroke-linecap="round" opacity="1" stroke-linejoin="round"/>
<path stroke="#818181" stroke-width="1.66" d="M409.17+428.955C409.17+428.955+417.72+432.467+417.59+442.454C417.496+449.644+413.264+457.617+413.264+457.617C413.264+458.453+416.333+486.911+414.882+486.911L411.645+486.911C410.194+486.911+409.018+486.233+409.018+485.397L409.018+433.469C409.018+432.633+409.17+428.955+409.17+428.955Z" fill="#ffffff" stroke-linecap="round" opacity="1" stroke-linejoin="round"/>
</g>
<g opacity="1">
<path stroke="#818181" stroke-width="3.01" d="M566.985+367.005L648.396+367.005C648.921+367.005+649.346+367.207+649.346+367.455L649.346+378.593C649.346+378.841+648.921+379.043+648.396+379.043L566.985+379.043C566.46+379.043+566.035+378.841+566.035+378.593L566.035+367.455C566.035+367.207+566.46+367.005+566.985+367.005Z" fill="none" stroke-linecap="round" opacity="1" stroke-linejoin="round"/>
<path stroke="#818181" stroke-width="3.01" d="M649.244+359.411C656.232+362.95+644.656+367.005+644.656+367.005L627.822+367.005C627.822+367.005+635.838+352.62+649.244+359.411Z" fill="none" stroke-linecap="round" opacity="1" stroke-linejoin="round"/>
<path stroke="#818181" stroke-width="3.01" d="M638.604+379.043L641.808+379.043C642.332+379.043+642.758+379.331+642.758+379.686L642.758+387.332C642.758+387.687+642.332+387.975+641.808+387.975L638.604+387.975C638.079+387.975+637.654+387.687+637.654+387.332L637.654+379.686C637.654+379.331+638.079+379.043+638.604+379.043Z" fill="none" stroke-linecap="round" opacity="1" stroke-linejoin="round"/>
<path stroke="#818181" stroke-width="3.01" d="M566.174+363.009C568.374+360.579+574.5+361.318+629.497+360.79C633.324+360.754+631.461+374.731+630.207+374.731C630.207+374.731+582.022+376.299+567.904+374.696C564.616+374.323+563.974+365.438+566.174+363.009Z" fill="#ffffff" stroke-linecap="round" opacity="1" stroke-linejoin="round"/>
<path stroke="#818181" stroke-width="3.01" d="M574.662+379.043L577.866+379.043C578.391+379.043+578.816+379.331+578.816+379.686L578.816+387.332C578.816+387.687+578.391+387.975+577.866+387.975L574.662+387.975C574.138+387.975+573.712+387.687+573.712+387.332L573.712+379.686C573.712+379.331+574.138+379.043+574.662+379.043Z" fill="none" stroke-linecap="round" opacity="1" stroke-linejoin="round"/>
</g>
</g>
</svg>
