<?xml version="1.0" encoding="UTF-8" standalone="no"?> <!-- Created with Vectornator Pro for iOS (http://vectornator.io/) --><!DOCTYPE svg PUBLIC "-//W3C//DTD SVG 1.1//EN" "http://www.w3.org/Graphics/SVG/1.1/DTD/svg11.dtd">
<svg style="fill-rule:evenodd;clip-rule:evenodd;stroke-linecap:round;stroke-linejoin:round;" xmlns:vectornator="http://vectornator.io" xmlns:xlink="http://www.w3.org/1999/xlink" xmlns="http://www.w3.org/2000/svg" xml:space="preserve" version="1.1" viewBox="0 0 1190.7 1417.5">
<metadata>
<vectornator:setting key="DisplayWhiteBackground" value="1"/>
<vectornator:setting key="RulersVisible" value="1"/>
<vectornator:setting key="GridSpacing" value="50"/>
<vectornator:setting key="Units" value="Millimeters"/>
<vectornator:setting key="DynamicGuides" value="0"/>
<vectornator:setting key="SnapToPoints" value="0"/>
<vectornator:setting key="CMYKEnabledKey" value="0"/>
<vectornator:setting key="SnapToGrid" value="0"/>
<vectornator:setting key="IsolateActiveLayer" value="0"/>
<vectornator:setting key="ShowGrid" value="0"/>
<vectornator:setting key="SnapToEdges" value="0"/>
</metadata>
<defs/>
<g id="Tee shirt base" vectornator:layerName="Tee shirt base">
<path stroke="#313131" stroke-width="5.04" d="M771.343+46.5588C769.115+46.5639+765.314+47.4062+764.424+49.3597C744.728+92.5848+714.079+167.313+609.494+171.628C533.035+174.782+461.878+116.974+441.898+60.5968C440.597+56.9257+434.843+58.4852+431.39+59.2076C316.128+83.3166+253.904+131.917+227.306+147.818C150.85+193.524+26.9685+413.319+24.0166+420.756C-3.64916+490.455+159.704+614.292+202.262+629.563C207.307+631.373+234.917+576.531+258.94+487.997C260.617+481.817+258.383+437.583+244.295+393.277C242.513+387.674+247.799+399.571+249.713+407.771C264.99+473.217+268.264+542.847+268.265+542.847L261.039+687.439L237.46+1354.13L605.553+1351.64L962.419+1352.42L938.839+685.731C938.839+685.731+933.865+614.354+935.616+542.124C936.927+488.052+943.625+434.081+950.165+406.063C952.079+397.863+957.415+385.966+955.633+391.569C941.544+435.876+939.162+480.137+940.938+486.289C966.294+574.122+992.62+629.665+997.666+627.855C1040.22+612.584+1194.78+477.673+1167.12+407.974C1164.17+400.537+1067.34+229.438+1001.47+165.492C986.918+151.359+879.674+46.3124+771.343+46.5588Z" fill="none" stroke-linecap="round" opacity="1" stroke-linejoin="round"/>
<path stroke="#dcdcdc" stroke-width="9.52" d="M431.407+70.5645C431.407+70.5645+481.915+189.506+607.599+185.16C746.658+180.351+774.324+58.2216+774.324+58.2216" fill="none" stroke-linecap="round" opacity="1" stroke-linejoin="round"/>
<path stroke="#161616" stroke-width="2.93" d="M417.299+69.4439C417.299+69.4439+463.956+204.228+613.929+196.857C764.149+189.473+788.492+54.3667+788.492+54.3667" fill="none" stroke-linecap="round" opacity="1" stroke-linejoin="round"/>
</g>
<g id="Calque 1" vectornator:layerName="Calque 1">
<g opacity="1">
<path d="M358.646+266.774L373.046+266.774L373.046+267.654L368.806+267.654L368.806+293.894L370.246+293.894C372.513+293.894+374.319+293.2+375.666+291.814C377.013+290.427+378.379+288.294+379.766+285.414L380.606+285.414L379.846+294.774L358.646+294.774L358.646+293.894L361.006+293.894L361.006+267.654L358.646+267.654L358.646+266.774Z" opacity="1" fill="#000000"/>
<path d="M382.966+276.694L382.606+276.134C385.086+274.507+386.326+272.88+386.326+271.254C386.326+270.4+385.966+269.92+385.246+269.814L383.566+271.374C383.033+271.187+382.546+270.847+382.106+270.354C381.666+269.86+381.446+269.227+381.446+268.454C381.446+267.68+381.753+267.02+382.366+266.474C382.979+265.927+383.786+265.654+384.786+265.654C385.786+265.654+386.613+265.994+387.266+266.674C387.919+267.354+388.246+268.294+388.246+269.494C388.246+272.107+386.486+274.507+382.966+276.694Z" opacity="1" fill="#000000"/>
<path d="M402.526+294.014L399.606+285.374L391.686+285.374L388.606+294.014L391.606+294.014L391.606+294.774L385.486+294.774L385.486+294.014L387.366+294.014L397.566+266.534L400.846+266.534L410.926+294.014L412.766+294.014L412.766+294.774L399.686+294.774L399.686+294.014L402.526+294.014ZM395.806+274.014L392.046+284.494L399.286+284.494L395.806+274.014Z" opacity="1" fill="#000000"/>
<path d="M413.406+275.734L423.046+275.734L423.046+279.414C423.926+276.694+425.866+275.334+428.866+275.334C431.866+275.334+433.686+276.774+434.326+279.654C435.259+276.774+437.219+275.334+440.206+275.334C444.126+275.334+446.086+277.56+446.086+282.014L446.086+294.054L448.326+294.054L448.326+294.774L437.246+294.774L437.246+294.054L438.646+294.054L438.646+281.054C438.646+279.027+438.473+277.84+438.126+277.494C437.966+277.334+437.753+277.254+437.486+277.254C436.713+277.254+436.033+277.774+435.446+278.814C434.859+279.854+434.566+281.174+434.566+282.774L434.566+294.054L436.006+294.054L436.006+294.774L425.726+294.774L425.726+294.054L427.126+294.054L427.126+281.054C427.126+279.027+426.953+277.84+426.606+277.494C426.446+277.334+426.233+277.254+425.966+277.254C425.219+277.254+424.546+277.82+423.946+278.954C423.346+280.087+423.046+281.44+423.046+283.014L423.046+294.054L424.486+294.054L424.486+294.774L413.406+294.774L413.406+294.054L415.606+294.054L415.606+276.454L413.406+276.454L413.406+275.734Z" opacity="1" fill="#000000"/>
<path d="M461.846+286.894L461.846+283.494C461.846+280.907+461.706+279.02+461.426+277.834C461.146+276.647+460.499+276.054+459.486+276.054C458.899+276.054+458.426+276.22+458.066+276.554C457.706+276.887+457.446+277.44+457.286+278.214C457.046+279.414+456.926+281.24+456.926+283.694L456.926+286.814C456.926+289.72+457.013+291.467+457.186+292.054C457.359+292.64+457.539+293.12+457.726+293.494C458.019+294.134+458.593+294.454+459.446+294.454C460.486+294.454+461.166+293.854+461.486+292.654C461.726+291.8+461.846+289.88+461.846+286.894ZM459.366+295.174C456.033+295.174+453.513+294.32+451.806+292.614C450.099+290.907+449.246+288.46+449.246+285.274C449.246+282.087+450.159+279.634+451.986+277.914C453.813+276.194+456.379+275.334+459.686+275.334C462.993+275.334+465.459+276.127+467.086+277.714C468.713+279.3+469.526+281.72+469.526+284.974C469.526+291.774+466.139+295.174+459.366+295.174Z" opacity="1" fill="#000000"/>
<path d="M483.526+282.974L488.246+276.454L485.366+276.454L485.366+275.734L491.326+275.734L491.326+276.454L489.246+276.454L484.046+283.814L490.566+294.054L492.646+294.054L492.646+294.774L479.286+294.774L479.286+294.054L482.126+294.054L477.726+286.854L473.166+294.054L475.806+294.054L475.806+294.774L469.526+294.774L469.526+294.054L472.166+294.054L477.246+286.054L471.166+276.454L468.846+276.454L468.846+275.734L482.366+275.734L482.366+276.454L479.566+276.454L483.526+282.974Z" opacity="1" fill="#000000"/>
<path d="M498.926+272.974C497.513+272.974+496.506+272.614+495.906+271.894C495.306+271.174+495.006+270.28+495.006+269.214C495.006+268.147+495.333+267.267+495.986+266.574C496.639+265.88+497.633+265.534+498.966+265.534C500.299+265.534+501.313+265.847+502.006+266.474C502.699+267.1+503.046+267.994+503.046+269.154C503.046+270.314+502.713+271.24+502.046+271.934C501.379+272.627+500.339+272.974+498.926+272.974ZM492.886+275.734L502.686+275.734L502.686+294.054L504.926+294.054L504.926+294.774L493.046+294.774L493.046+294.054L495.246+294.054L495.246+276.454L492.886+276.454L492.886+275.734Z" opacity="1" fill="#000000"/>
<path d="M516.926+276.054C515.753+276.054+514.913+276.694+514.406+277.974C513.899+279.254+513.646+281.374+513.646+284.334L513.646+286.414C513.646+289.054+513.939+290.947+514.526+292.094C515.113+293.24+516.193+293.814+517.766+293.814C519.339+293.814+520.593+293.28+521.526+292.214C522.459+291.147+523.059+289.934+523.326+288.574L524.046+288.654C523.539+290.947+522.606+292.6+521.246+293.614C519.859+294.654+517.953+295.174+515.526+295.174C512.433+295.174+510.059+294.34+508.406+292.674C506.753+291.007+505.926+288.567+505.926+285.354C505.926+282.14+506.866+279.667+508.746+277.934C510.626+276.2+513.246+275.334+516.606+275.334C518.979+275.334+520.793+275.794+522.046+276.714C523.299+277.634+523.926+278.787+523.926+280.174C523.926+281.56+523.626+282.574+523.026+283.214C522.426+283.854+521.599+284.174+520.546+284.174C519.493+284.174+518.646+283.894+518.006+283.334C517.366+282.774+517.046+281.947+517.046+280.854C517.046+280.374+517.113+279.894+517.246+279.414L518.566+279.414C518.753+278.88+518.846+278.4+518.846+277.974C518.846+276.694+518.206+276.054+516.926+276.054Z" opacity="1" fill="#000000"/>
<path d="M530.926+272.974C529.513+272.974+528.506+272.614+527.906+271.894C527.306+271.174+527.006+270.28+527.006+269.214C527.006+268.147+527.333+267.267+527.986+266.574C528.639+265.88+529.633+265.534+530.966+265.534C532.299+265.534+533.313+265.847+534.006+266.474C534.699+267.1+535.046+267.994+535.046+269.154C535.046+270.314+534.713+271.24+534.046+271.934C533.379+272.627+532.339+272.974+530.926+272.974ZM524.886+275.734L534.686+275.734L534.686+294.054L536.926+294.054L536.926+294.774L525.046+294.774L525.046+294.054L527.246+294.054L527.246+276.454L524.886+276.454L524.886+275.734Z" opacity="1" fill="#000000"/>
<path d="M537.566+264.774L547.366+264.774L547.366+294.054L549.606+294.054L549.606+294.774L537.726+294.774L537.726+294.054L539.926+294.054L539.926+265.494L537.566+265.494L537.566+264.774Z" opacity="1" fill="#000000"/>
<path d="M550.206+264.774L560.006+264.774L560.006+294.054L562.246+294.054L562.246+294.774L550.366+294.774L550.366+294.054L552.566+294.054L552.566+265.494L550.206+265.494L550.206+264.774Z" opacity="1" fill="#000000"/>
<path d="M568.886+272.974C567.473+272.974+566.466+272.614+565.866+271.894C565.266+271.174+564.966+270.28+564.966+269.214C564.966+268.147+565.293+267.267+565.946+266.574C566.599+265.88+567.593+265.534+568.926+265.534C570.259+265.534+571.273+265.847+571.966+266.474C572.659+267.1+573.006+267.994+573.006+269.154C573.006+270.314+572.673+271.24+572.006+271.934C571.339+272.627+570.299+272.974+568.886+272.974ZM562.846+275.734L572.646+275.734L572.646+294.054L574.886+294.054L574.886+294.774L563.006+294.774L563.006+294.054L565.206+294.054L565.206+276.454L562.846+276.454L562.846+275.734Z" opacity="1" fill="#000000"/>
<path d="M575.766+275.734L585.406+275.734L585.406+279.414C585.833+278.187+586.486+277.2+587.366+276.454C588.246+275.707+589.579+275.334+591.366+275.334C595.499+275.334+597.566+277.56+597.566+282.014L597.566+294.054L599.806+294.054L599.806+294.774L588.486+294.774L588.486+294.054L590.126+294.054L590.126+281.054C590.126+279.454+590.019+278.42+589.806+277.954C589.593+277.487+589.206+277.254+588.646+277.254C587.793+277.254+587.039+277.814+586.386+278.934C585.733+280.054+585.406+281.414+585.406+283.014L585.406+294.054L587.126+294.054L587.126+294.774L575.766+294.774L575.766+294.054L577.966+294.054L577.966+276.454L575.766+276.454L575.766+275.734Z" opacity="1" fill="#000000"/>
<path d="M610.846+295.174C607.406+295.174+604.826+294.287+603.106+292.514C601.386+290.74+600.526+288.274+600.526+285.114C600.526+281.954+601.493+279.534+603.426+277.854C605.359+276.174+607.819+275.334+610.806+275.334C616.859+275.334+619.766+278.374+619.526+284.454L608.246+284.454L608.246+286.014C608.246+288.627+608.579+290.6+609.246+291.934C609.913+293.267+611.073+293.934+612.726+293.934C615.819+293.934+617.846+292.28+618.806+288.974L619.526+289.094C619.019+291.014+618.106+292.507+616.786+293.574C615.466+294.64+613.486+295.174+610.846+295.174ZM608.286+283.654L612.406+283.654L612.406+281.694C612.406+279.534+612.279+278.06+612.026+277.274C611.773+276.487+611.266+276.094+610.506+276.094C609.746+276.094+609.186+276.514+608.826+277.354C608.466+278.194+608.286+279.64+608.286+281.694L608.286+283.654Z" opacity="1" fill="#000000"/>
<path d="M629.086+295.174L629.086+288.014L629.566+288.014C630.259+290.334+631.193+291.96+632.366+292.894C633.539+293.827+635.006+294.294+636.766+294.294C639.486+294.294+640.846+293.427+640.846+291.694C640.846+290.947+640.513+290.387+639.846+290.014C638.806+289.427+637.473+288.974+635.846+288.654C634.033+288.174+632.513+287.534+631.286+286.734C629.819+285.774+629.086+284.254+629.086+282.174C629.086+280.094+629.726+278.434+631.006+277.194C632.286+275.954+633.993+275.334+636.126+275.334C637.433+275.334+638.779+275.64+640.166+276.254C640.673+276.467+641.059+276.574+641.326+276.574C641.593+276.574+641.819+276.48+642.006+276.294C642.193+276.107+642.419+275.76+642.686+275.254L643.126+275.254L643.126+281.374L642.646+281.374C641.286+277.907+639.179+276.174+636.326+276.174C635.073+276.174+634.139+276.394+633.526+276.834C632.913+277.274+632.606+277.827+632.606+278.494C632.606+278.894+632.699+279.207+632.886+279.434C633.073+279.66+633.219+279.827+633.326+279.934C633.433+280.04+633.606+280.154+633.846+280.274C634.086+280.394+634.286+280.487+634.446+280.554C634.606+280.62+634.853+280.707+635.186+280.814C635.519+280.92+635.766+280.987+635.926+281.014C637.739+281.467+639.046+281.86+639.846+282.194C640.646+282.527+641.406+282.934+642.126+283.414C643.593+284.427+644.326+286.06+644.326+288.314C644.326+290.567+643.659+292.274+642.326+293.434C640.993+294.594+639.166+295.174+636.846+295.174C635.193+295.174+633.593+294.787+632.046+294.014C631.726+293.8+631.473+293.694+631.286+293.694C630.699+293.694+630.126+294.187+629.566+295.174L629.086+295.174Z" opacity="1" fill="#000000"/>
<path d="M655.126+285.374L656.286+285.374L656.286+282.294C656.286+279.76+656.146+278.06+655.866+277.194C655.586+276.327+655.046+275.894+654.246+275.894C653.766+275.894+653.333+276.02+652.946+276.274C652.559+276.527+652.366+276.874+652.366+277.314C652.366+277.754+652.446+278.2+652.606+278.654L653.606+278.654C653.819+279.214+653.926+279.887+653.926+280.674C653.926+281.46+653.593+282.14+652.926+282.714C652.259+283.287+651.419+283.574+650.406+283.574C648.113+283.574+646.966+282.467+646.966+280.254C646.966+276.974+649.753+275.334+655.326+275.334C658.499+275.334+660.693+275.874+661.906+276.954C663.119+278.034+663.726+280.014+663.726+282.894L663.726+291.014C663.726+292.4+664.113+293.094+664.886+293.094C665.793+293.094+666.326+291.72+666.486+288.974L667.086+289.014C666.979+291.36+666.539+292.974+665.766+293.854C664.993+294.734+663.726+295.174+661.966+295.174C658.766+295.174+656.926+294.187+656.446+292.214C656.099+293.227+655.579+293.974+654.886+294.454C654.193+294.934+653.179+295.174+651.846+295.174C647.899+295.174+645.926+293.56+645.926+290.334C645.926+288.44+646.679+287.14+648.186+286.434C649.693+285.727+652.006+285.374+655.126+285.374ZM653.526+290.294C653.526+291.68+653.599+292.574+653.746+292.974C653.893+293.374+654.173+293.574+654.586+293.574C654.999+293.574+655.386+293.234+655.746+292.554C656.106+291.874+656.286+290.934+656.286+289.734L656.286+286.014L656.006+286.014C654.353+286.014+653.526+287.227+653.526+289.654L653.526+290.294Z" opacity="1" fill="#000000"/>
<path d="M667.566+275.734L677.206+275.734L677.206+279.414C677.633+278.187+678.286+277.2+679.166+276.454C680.046+275.707+681.379+275.334+683.166+275.334C687.299+275.334+689.366+277.56+689.366+282.014L689.366+294.054L691.606+294.054L691.606+294.774L680.286+294.774L680.286+294.054L681.926+294.054L681.926+281.054C681.926+279.454+681.819+278.42+681.606+277.954C681.393+277.487+681.006+277.254+680.446+277.254C679.593+277.254+678.839+277.814+678.186+278.934C677.533+280.054+677.206+281.414+677.206+283.014L677.206+294.054L678.926+294.054L678.926+294.774L667.566+294.774L667.566+294.054L669.766+294.054L669.766+276.454L667.566+276.454L667.566+275.734Z" opacity="1" fill="#000000"/>
<path d="M693.046+295.174L693.046+288.014L693.526+288.014C694.219+290.334+695.153+291.96+696.326+292.894C697.499+293.827+698.966+294.294+700.726+294.294C703.446+294.294+704.806+293.427+704.806+291.694C704.806+290.947+704.473+290.387+703.806+290.014C702.766+289.427+701.433+288.974+699.806+288.654C697.993+288.174+696.473+287.534+695.246+286.734C693.779+285.774+693.046+284.254+693.046+282.174C693.046+280.094+693.686+278.434+694.966+277.194C696.246+275.954+697.953+275.334+700.086+275.334C701.393+275.334+702.739+275.64+704.126+276.254C704.633+276.467+705.019+276.574+705.286+276.574C705.553+276.574+705.779+276.48+705.966+276.294C706.153+276.107+706.379+275.76+706.646+275.254L707.086+275.254L707.086+281.374L706.606+281.374C705.246+277.907+703.139+276.174+700.286+276.174C699.033+276.174+698.099+276.394+697.486+276.834C696.873+277.274+696.566+277.827+696.566+278.494C696.566+278.894+696.659+279.207+696.846+279.434C697.033+279.66+697.179+279.827+697.286+279.934C697.393+280.04+697.566+280.154+697.806+280.274C698.046+280.394+698.246+280.487+698.406+280.554C698.566+280.62+698.813+280.707+699.146+280.814C699.479+280.92+699.726+280.987+699.886+281.014C701.699+281.467+703.006+281.86+703.806+282.194C704.606+282.527+705.366+282.934+706.086+283.414C707.553+284.427+708.286+286.06+708.286+288.314C708.286+290.567+707.619+292.274+706.286+293.434C704.953+294.594+703.126+295.174+700.806+295.174C699.153+295.174+697.553+294.787+696.006+294.014C695.686+293.8+695.433+293.694+695.246+293.694C694.659+293.694+694.086+294.187+693.526+295.174L693.046+295.174Z" opacity="1" fill="#000000"/>
<path d="M716.526+264.774L726.326+264.774L726.326+294.054L728.566+294.054L728.566+294.774L716.686+294.774L716.686+294.054L718.886+294.054L718.886+265.494L716.526+265.494L716.526+264.774Z" opacity="1" fill="#000000"/>
<path d="M739.846+295.174C736.406+295.174+733.826+294.287+732.106+292.514C730.386+290.74+729.526+288.274+729.526+285.114C729.526+281.954+730.493+279.534+732.426+277.854C734.359+276.174+736.819+275.334+739.806+275.334C745.859+275.334+748.766+278.374+748.526+284.454L737.246+284.454L737.246+286.014C737.246+288.627+737.579+290.6+738.246+291.934C738.913+293.267+740.073+293.934+741.726+293.934C744.819+293.934+746.846+292.28+747.806+288.974L748.526+289.094C748.019+291.014+747.106+292.507+745.786+293.574C744.466+294.64+742.486+295.174+739.846+295.174ZM737.286+283.654L741.406+283.654L741.406+281.694C741.406+279.534+741.279+278.06+741.026+277.274C740.773+276.487+740.266+276.094+739.506+276.094C738.746+276.094+738.186+276.514+737.826+277.354C737.466+278.194+737.286+279.64+737.286+281.694L737.286+283.654Z" opacity="1" fill="#000000"/>
<path d="M748.566+276.454L748.566+275.734L760.526+275.734L760.526+276.454L758.006+276.454L762.806+289.734L767.126+276.454L764.446+276.454L764.446+275.734L769.846+275.734L769.846+276.454L768.086+276.454L762.166+294.774L757.606+294.774L750.206+276.454L748.566+276.454Z" opacity="1" fill="#000000"/>
<path d="M793.646+294.774L784.526+294.774L784.086+291.854C783.659+292.92+783.026+293.74+782.186+294.314C781.346+294.887+780.099+295.174+778.446+295.174C774.313+295.174+772.246+292.947+772.246+288.494L772.246+276.454L770.006+276.454L770.006+275.734L779.686+275.734L779.686+289.454C779.686+291.054+779.799+292.107+780.026+292.614C780.253+293.12+780.706+293.374+781.386+293.374C782.066+293.374+782.673+292.96+783.206+292.134C783.739+291.307+784.006+290.16+784.006+288.694L784.006+276.454L782.166+276.454L782.166+275.734L791.446+275.734L791.446+294.054L793.646+294.054L793.646+294.774Z" opacity="1" fill="#000000"/>
<path d="M807.806+276.854C806.819+276.854+805.953+277.494+805.206+278.774C804.459+280.054+804.086+281.574+804.086+283.334L804.086+294.054L806.926+294.054L806.926+294.774L794.446+294.774L794.446+294.054L796.646+294.054L796.646+276.454L794.446+276.454L794.446+275.734L804.086+275.734L804.086+279.574C804.433+278.214+805.099+277.167+806.086+276.434C807.073+275.7+808.193+275.334+809.446+275.334C810.699+275.334+811.719+275.687+812.506+276.394C813.293+277.1+813.686+278.1+813.686+279.394C813.686+280.687+813.393+281.68+812.806+282.374C812.219+283.067+811.319+283.414+810.106+283.414C808.893+283.414+807.999+283.014+807.426+282.214C806.853+281.414+806.779+280.307+807.206+278.894L808.646+278.894C809.313+277.534+809.033+276.854+807.806+276.854Z" opacity="1" fill="#000000"/>
<path d="M824.566+295.174C821.126+295.174+818.546+294.287+816.826+292.514C815.106+290.74+814.246+288.274+814.246+285.114C814.246+281.954+815.213+279.534+817.146+277.854C819.079+276.174+821.539+275.334+824.526+275.334C830.579+275.334+833.486+278.374+833.246+284.454L821.966+284.454L821.966+286.014C821.966+288.627+822.299+290.6+822.966+291.934C823.633+293.267+824.793+293.934+826.446+293.934C829.539+293.934+831.566+292.28+832.526+288.974L833.246+289.094C832.739+291.014+831.826+292.507+830.506+293.574C829.186+294.64+827.206+295.174+824.566+295.174ZM822.006+283.654L826.126+283.654L826.126+281.694C826.126+279.534+825.999+278.06+825.746+277.274C825.493+276.487+824.986+276.094+824.226+276.094C823.466+276.094+822.906+276.514+822.546+277.354C822.186+278.194+822.006+279.64+822.006+281.694L822.006+283.654Z" opacity="1" fill="#000000"/>
</g>
<g opacity="1">
<path d="M369.495+822.11C365.362+822.11+363.295+826.097+363.295+834.07L363.295+837.23C363.295+841.017+363.842+843.983+364.935+846.13C366.029+848.277+367.642+849.35+369.775+849.35C372.709+849.35+375.402+846.497+377.855+840.79L378.575+840.79L378.295+849.71L377.855+849.71C377.695+849.417+377.549+849.21+377.415+849.09C377.282+848.97+377.089+848.91+376.835+848.91C376.582+848.91+375.615+849.117+373.935+849.53C372.255+849.943+370.549+850.15+368.815+850.15C364.469+850.15+361.102+848.977+358.715+846.63C356.329+844.283+355.135+840.757+355.135+836.05C355.135+831.343+356.382+827.71+358.875+825.15C361.369+822.59+364.722+821.31+368.935+821.31C370.562+821.31+372.155+821.517+373.715+821.93C375.275+822.343+376.189+822.55+376.455+822.55C376.722+822.55+376.922+822.49+377.055+822.37C377.189+822.25+377.335+822.043+377.495+821.75L377.935+821.75L378.255+830.43L377.535+830.43C376.335+827.737+375.102+825.677+373.835+824.25C372.569+822.823+371.122+822.11+369.495+822.11Z" opacity="1" fill="#000000"/>
<path d="M384.415+831.67L384.055+831.11C386.535+829.483+387.775+827.857+387.775+826.23C387.775+825.377+387.415+824.897+386.695+824.79L385.015+826.35C384.482+826.163+383.995+825.823+383.555+825.33C383.115+824.837+382.895+824.203+382.895+823.43C382.895+822.657+383.202+821.997+383.815+821.45C384.429+820.903+385.235+820.63+386.235+820.63C387.235+820.63+388.062+820.97+388.715+821.65C389.369+822.33+389.695+823.27+389.695+824.47C389.695+827.083+387.935+829.483+384.415+831.67Z" opacity="1" fill="#000000"/>
<path d="M399.415+850.15C395.975+850.15+393.395+849.263+391.675+847.49C389.955+845.717+389.095+843.25+389.095+840.09C389.095+836.93+390.062+834.51+391.995+832.83C393.929+831.15+396.389+830.31+399.375+830.31C405.429+830.31+408.335+833.35+408.095+839.43L396.815+839.43L396.815+840.99C396.815+843.603+397.149+845.577+397.815+846.91C398.482+848.243+399.642+848.91+401.295+848.91C404.389+848.91+406.415+847.257+407.375+843.95L408.095+844.07C407.589+845.99+406.675+847.483+405.355+848.55C404.035+849.617+402.055+850.15+399.415+850.15ZM396.855+838.63L400.975+838.63L400.975+836.67C400.975+834.51+400.849+833.037+400.595+832.25C400.342+831.463+399.835+831.07+399.075+831.07C398.315+831.07+397.755+831.49+397.395+832.33C397.035+833.17+396.855+834.617+396.855+836.67L396.855+838.63Z" opacity="1" fill="#000000"/>
<path d="M410.055+850.15L410.055+842.99L410.535+842.99C411.229+845.31+412.162+846.937+413.335+847.87C414.509+848.803+415.975+849.27+417.735+849.27C420.455+849.27+421.815+848.403+421.815+846.67C421.815+845.923+421.482+845.363+420.815+844.99C419.775+844.403+418.442+843.95+416.815+843.63C415.002+843.15+413.482+842.51+412.255+841.71C410.789+840.75+410.055+839.23+410.055+837.15C410.055+835.07+410.695+833.41+411.975+832.17C413.255+830.93+414.962+830.31+417.095+830.31C418.402+830.31+419.749+830.617+421.135+831.23C421.642+831.443+422.029+831.55+422.295+831.55C422.562+831.55+422.789+831.457+422.975+831.27C423.162+831.083+423.389+830.737+423.655+830.23L424.095+830.23L424.095+836.35L423.615+836.35C422.255+832.883+420.149+831.15+417.295+831.15C416.042+831.15+415.109+831.37+414.495+831.81C413.882+832.25+413.575+832.803+413.575+833.47C413.575+833.87+413.669+834.183+413.855+834.41C414.042+834.637+414.189+834.803+414.295+834.91C414.402+835.017+414.575+835.13+414.815+835.25C415.055+835.37+415.255+835.463+415.415+835.53C415.575+835.597+415.822+835.683+416.155+835.79C416.489+835.897+416.735+835.963+416.895+835.99C418.709+836.443+420.015+836.837+420.815+837.17C421.615+837.503+422.375+837.91+423.095+838.39C424.562+839.403+425.295+841.037+425.295+843.29C425.295+845.543+424.629+847.25+423.295+848.41C421.962+849.57+420.135+850.15+417.815+850.15C416.162+850.15+414.562+849.763+413.015+848.99C412.695+848.777+412.442+848.67+412.255+848.67C411.669+848.67+411.095+849.163+410.535+850.15L410.055+850.15Z" opacity="1" fill="#000000"/>
<path d="M428.095+844.03L428.095+831.43L425.895+831.43L425.895+830.71L428.095+830.71L428.095+825.55L435.535+823.71L435.535+830.71L440.735+830.71L440.735+831.43L435.535+831.43L435.535+844.91C435.535+846.163+435.662+847.083+435.915+847.67C436.169+848.257+436.695+848.55+437.495+848.55C438.295+848.55+438.995+848.15+439.595+847.35C440.195+846.55+440.589+845.457+440.775+844.07L441.455+844.15C441.242+845.99+440.655+847.45+439.695+848.53C438.735+849.61+437.149+850.15+434.935+850.15C432.722+850.15+431.029+849.71+429.855+848.83C428.682+847.95+428.095+846.35+428.095+844.03Z" opacity="1" fill="#000000"/>
<path d="M460.255+831.03C459.082+831.03+458.242+831.67+457.735+832.95C457.229+834.23+456.975+836.35+456.975+839.31L456.975+841.39C456.975+844.03+457.269+845.923+457.855+847.07C458.442+848.217+459.522+848.79+461.095+848.79C462.669+848.79+463.922+848.257+464.855+847.19C465.789+846.123+466.389+844.91+466.655+843.55L467.375+843.63C466.869+845.923+465.935+847.577+464.575+848.59C463.189+849.63+461.282+850.15+458.855+850.15C455.762+850.15+453.389+849.317+451.735+847.65C450.082+845.983+449.255+843.543+449.255+840.33C449.255+837.117+450.195+834.643+452.075+832.91C453.955+831.177+456.575+830.31+459.935+830.31C462.309+830.31+464.122+830.77+465.375+831.69C466.629+832.61+467.255+833.763+467.255+835.15C467.255+836.537+466.955+837.55+466.355+838.19C465.755+838.83+464.929+839.15+463.875+839.15C462.822+839.15+461.975+838.87+461.335+838.31C460.695+837.75+460.375+836.923+460.375+835.83C460.375+835.35+460.442+834.87+460.575+834.39L461.895+834.39C462.082+833.857+462.175+833.377+462.175+832.95C462.175+831.67+461.535+831.03+460.255+831.03Z" opacity="1" fill="#000000"/>
<path d="M481.295+841.87L481.295+838.47C481.295+835.883+481.155+833.997+480.875+832.81C480.595+831.623+479.949+831.03+478.935+831.03C478.349+831.03+477.875+831.197+477.515+831.53C477.155+831.863+476.895+832.417+476.735+833.19C476.495+834.39+476.375+836.217+476.375+838.67L476.375+841.79C476.375+844.697+476.462+846.443+476.635+847.03C476.809+847.617+476.989+848.097+477.175+848.47C477.469+849.11+478.042+849.43+478.895+849.43C479.935+849.43+480.615+848.83+480.935+847.63C481.175+846.777+481.295+844.857+481.295+841.87ZM478.815+850.15C475.482+850.15+472.962+849.297+471.255+847.59C469.549+845.883+468.695+843.437+468.695+840.25C468.695+837.063+469.609+834.61+471.435+832.89C473.262+831.17+475.829+830.31+479.135+830.31C482.442+830.31+484.909+831.103+486.535+832.69C488.162+834.277+488.975+836.697+488.975+839.95C488.975+846.75+485.589+850.15+478.815+850.15Z" opacity="1" fill="#000000"/>
<path d="M490.095+830.71L499.735+830.71L499.735+834.39C500.615+831.67+502.555+830.31+505.555+830.31C508.555+830.31+510.375+831.75+511.015+834.63C511.949+831.75+513.909+830.31+516.895+830.31C520.815+830.31+522.775+832.537+522.775+836.99L522.775+849.03L525.015+849.03L525.015+849.75L513.935+849.75L513.935+849.03L515.335+849.03L515.335+836.03C515.335+834.003+515.162+832.817+514.815+832.47C514.655+832.31+514.442+832.23+514.175+832.23C513.402+832.23+512.722+832.75+512.135+833.79C511.549+834.83+511.255+836.15+511.255+837.75L511.255+849.03L512.695+849.03L512.695+849.75L502.415+849.75L502.415+849.03L503.815+849.03L503.815+836.03C503.815+834.003+503.642+832.817+503.295+832.47C503.135+832.31+502.922+832.23+502.655+832.23C501.909+832.23+501.235+832.797+500.635+833.93C500.035+835.063+499.735+836.417+499.735+837.99L499.735+849.03L501.175+849.03L501.175+849.75L490.095+849.75L490.095+849.03L492.295+849.03L492.295+831.43L490.095+831.43L490.095+830.71Z" opacity="1" fill="#000000"/>
<path d="M525.615+830.71L535.255+830.71L535.255+834.39C536.135+831.67+538.075+830.31+541.075+830.31C544.075+830.31+545.895+831.75+546.535+834.63C547.469+831.75+549.429+830.31+552.415+830.31C556.335+830.31+558.295+832.537+558.295+836.99L558.295+849.03L560.535+849.03L560.535+849.75L549.455+849.75L549.455+849.03L550.855+849.03L550.855+836.03C550.855+834.003+550.682+832.817+550.335+832.47C550.175+832.31+549.962+832.23+549.695+832.23C548.922+832.23+548.242+832.75+547.655+833.79C547.069+834.83+546.775+836.15+546.775+837.75L546.775+849.03L548.215+849.03L548.215+849.75L537.935+849.75L537.935+849.03L539.335+849.03L539.335+836.03C539.335+834.003+539.162+832.817+538.815+832.47C538.655+832.31+538.442+832.23+538.175+832.23C537.429+832.23+536.755+832.797+536.155+833.93C535.555+835.063+535.255+836.417+535.255+837.99L535.255+849.03L536.695+849.03L536.695+849.75L525.615+849.75L525.615+849.03L527.815+849.03L527.815+831.43L525.615+831.43L525.615+830.71Z" opacity="1" fill="#000000"/>
<path d="M571.655+850.15C568.215+850.15+565.635+849.263+563.915+847.49C562.195+845.717+561.335+843.25+561.335+840.09C561.335+836.93+562.302+834.51+564.235+832.83C566.169+831.15+568.629+830.31+571.615+830.31C577.669+830.31+580.575+833.35+580.335+839.43L569.055+839.43L569.055+840.99C569.055+843.603+569.389+845.577+570.055+846.91C570.722+848.243+571.882+848.91+573.535+848.91C576.629+848.91+578.655+847.257+579.615+843.95L580.335+844.07C579.829+845.99+578.915+847.483+577.595+848.55C576.275+849.617+574.295+850.15+571.655+850.15ZM569.095+838.63L573.215+838.63L573.215+836.67C573.215+834.51+573.089+833.037+572.835+832.25C572.582+831.463+572.075+831.07+571.315+831.07C570.555+831.07+569.995+831.49+569.635+832.33C569.275+833.17+569.095+834.617+569.095+836.67L569.095+838.63Z" opacity="1" fill="#000000"/>
<path d="M589.415+821.75L601.895+821.75L601.895+822.51L599.575+822.51L599.575+834.91L607.535+834.91L607.535+822.51L605.175+822.51L605.175+821.75L617.695+821.75L617.695+822.51L615.335+822.51L615.335+848.99L617.695+848.99L617.695+849.75L605.175+849.75L605.175+848.99L607.535+848.99L607.535+835.95L599.575+835.95L599.575+848.99L601.895+848.99L601.895+849.75L589.415+849.75L589.415+848.99L591.775+848.99L591.775+822.51L589.415+822.51L589.415+821.75Z" opacity="1" fill="#000000"/>
<path d="M624.815+827.95C623.402+827.95+622.395+827.59+621.795+826.87C621.195+826.15+620.895+825.257+620.895+824.19C620.895+823.123+621.222+822.243+621.875+821.55C622.529+820.857+623.522+820.51+624.855+820.51C626.189+820.51+627.202+820.823+627.895+821.45C628.589+822.077+628.935+822.97+628.935+824.13C628.935+825.29+628.602+826.217+627.935+826.91C627.269+827.603+626.229+827.95+624.815+827.95ZM618.775+830.71L628.575+830.71L628.575+849.03L630.815+849.03L630.815+849.75L618.935+849.75L618.935+849.03L621.135+849.03L621.135+831.43L618.775+831.43L618.775+830.71Z" opacity="1" fill="#000000"/>
<path d="M644.975+831.83C643.989+831.83+643.122+832.47+642.375+833.75C641.629+835.03+641.255+836.55+641.255+838.31L641.255+849.03L644.095+849.03L644.095+849.75L631.615+849.75L631.615+849.03L633.815+849.03L633.815+831.43L631.615+831.43L631.615+830.71L641.255+830.71L641.255+834.55C641.602+833.19+642.269+832.143+643.255+831.41C644.242+830.677+645.362+830.31+646.615+830.31C647.869+830.31+648.889+830.663+649.675+831.37C650.462+832.077+650.855+833.077+650.855+834.37C650.855+835.663+650.562+836.657+649.975+837.35C649.389+838.043+648.489+838.39+647.275+838.39C646.062+838.39+645.169+837.99+644.595+837.19C644.022+836.39+643.949+835.283+644.375+833.87L645.815+833.87C646.482+832.51+646.202+831.83+644.975+831.83Z" opacity="1" fill="#000000"/>
<path d="M664.135+841.87L664.135+838.47C664.135+835.883+663.995+833.997+663.715+832.81C663.435+831.623+662.789+831.03+661.775+831.03C661.189+831.03+660.715+831.197+660.355+831.53C659.995+831.863+659.735+832.417+659.575+833.19C659.335+834.39+659.215+836.217+659.215+838.67L659.215+841.79C659.215+844.697+659.302+846.443+659.475+847.03C659.649+847.617+659.829+848.097+660.015+848.47C660.309+849.11+660.882+849.43+661.735+849.43C662.775+849.43+663.455+848.83+663.775+847.63C664.015+846.777+664.135+844.857+664.135+841.87ZM661.655+850.15C658.322+850.15+655.802+849.297+654.095+847.59C652.389+845.883+651.535+843.437+651.535+840.25C651.535+837.063+652.449+834.61+654.275+832.89C656.102+831.17+658.669+830.31+661.975+830.31C665.282+830.31+667.749+831.103+669.375+832.69C671.002+834.277+671.815+836.697+671.815+839.95C671.815+846.75+668.429+850.15+661.655+850.15Z" opacity="1" fill="#000000"/>
<path d="M673.855+850.15L673.855+842.99L674.335+842.99C675.029+845.31+675.962+846.937+677.135+847.87C678.309+848.803+679.775+849.27+681.535+849.27C684.255+849.27+685.615+848.403+685.615+846.67C685.615+845.923+685.282+845.363+684.615+844.99C683.575+844.403+682.242+843.95+680.615+843.63C678.802+843.15+677.282+842.51+676.055+841.71C674.589+840.75+673.855+839.23+673.855+837.15C673.855+835.07+674.495+833.41+675.775+832.17C677.055+830.93+678.762+830.31+680.895+830.31C682.202+830.31+683.549+830.617+684.935+831.23C685.442+831.443+685.829+831.55+686.095+831.55C686.362+831.55+686.589+831.457+686.775+831.27C686.962+831.083+687.189+830.737+687.455+830.23L687.895+830.23L687.895+836.35L687.415+836.35C686.055+832.883+683.949+831.15+681.095+831.15C679.842+831.15+678.909+831.37+678.295+831.81C677.682+832.25+677.375+832.803+677.375+833.47C677.375+833.87+677.469+834.183+677.655+834.41C677.842+834.637+677.989+834.803+678.095+834.91C678.202+835.017+678.375+835.13+678.615+835.25C678.855+835.37+679.055+835.463+679.215+835.53C679.375+835.597+679.622+835.683+679.955+835.79C680.289+835.897+680.535+835.963+680.695+835.99C682.509+836.443+683.815+836.837+684.615+837.17C685.415+837.503+686.175+837.91+686.895+838.39C688.362+839.403+689.095+841.037+689.095+843.29C689.095+845.543+688.429+847.25+687.095+848.41C685.762+849.57+683.935+850.15+681.615+850.15C679.962+850.15+678.362+849.763+676.815+848.99C676.495+848.777+676.242+848.67+676.055+848.67C675.469+848.67+674.895+849.163+674.335+850.15L673.855+850.15Z" opacity="1" fill="#000000"/>
<path d="M690.295+819.75L699.935+819.75L699.935+834.39C700.362+833.163+701.015+832.177+701.895+831.43C702.775+830.683+704.109+830.31+705.895+830.31C710.029+830.31+712.095+832.537+712.095+836.99L712.095+849.03L714.335+849.03L714.335+849.75L703.015+849.75L703.015+849.03L704.655+849.03L704.655+836.03C704.655+834.43+704.549+833.397+704.335+832.93C704.122+832.463+703.735+832.23+703.175+832.23C702.322+832.23+701.569+832.79+700.915+833.91C700.262+835.03+699.935+836.39+699.935+837.99L699.935+849.03L701.655+849.03L701.655+849.75L690.295+849.75L690.295+849.03L692.495+849.03L692.495+820.47L690.295+820.47L690.295+819.75Z" opacity="1" fill="#000000"/>
<path d="M720.815+827.95C719.402+827.95+718.395+827.59+717.795+826.87C717.195+826.15+716.895+825.257+716.895+824.19C716.895+823.123+717.222+822.243+717.875+821.55C718.529+820.857+719.522+820.51+720.855+820.51C722.189+820.51+723.202+820.823+723.895+821.45C724.589+822.077+724.935+822.97+724.935+824.13C724.935+825.29+724.602+826.217+723.935+826.91C723.269+827.603+722.229+827.95+720.815+827.95ZM714.775+830.71L724.575+830.71L724.575+849.03L726.815+849.03L726.815+849.75L714.935+849.75L714.935+849.03L717.135+849.03L717.135+831.43L714.775+831.43L714.775+830.71Z" opacity="1" fill="#000000"/>
<path d="M727.615+830.71L737.255+830.71L737.255+834.39C738.135+831.67+740.075+830.31+743.075+830.31C746.075+830.31+747.895+831.75+748.535+834.63C749.469+831.75+751.429+830.31+754.415+830.31C758.335+830.31+760.295+832.537+760.295+836.99L760.295+849.03L762.535+849.03L762.535+849.75L751.455+849.75L751.455+849.03L752.855+849.03L752.855+836.03C752.855+834.003+752.682+832.817+752.335+832.47C752.175+832.31+751.962+832.23+751.695+832.23C750.922+832.23+750.242+832.75+749.655+833.79C749.069+834.83+748.775+836.15+748.775+837.75L748.775+849.03L750.215+849.03L750.215+849.75L739.935+849.75L739.935+849.03L741.335+849.03L741.335+836.03C741.335+834.003+741.162+832.817+740.815+832.47C740.655+832.31+740.442+832.23+740.175+832.23C739.429+832.23+738.755+832.797+738.155+833.93C737.555+835.063+737.255+836.417+737.255+837.99L737.255+849.03L738.695+849.03L738.695+849.75L727.615+849.75L727.615+849.03L729.815+849.03L729.815+831.43L727.615+831.43L727.615+830.71Z" opacity="1" fill="#000000"/>
<path d="M772.735+840.35L773.895+840.35L773.895+837.27C773.895+834.737+773.755+833.037+773.475+832.17C773.195+831.303+772.655+830.87+771.855+830.87C771.375+830.87+770.942+830.997+770.555+831.25C770.169+831.503+769.975+831.85+769.975+832.29C769.975+832.73+770.055+833.177+770.215+833.63L771.215+833.63C771.429+834.19+771.535+834.863+771.535+835.65C771.535+836.437+771.202+837.117+770.535+837.69C769.869+838.263+769.029+838.55+768.015+838.55C765.722+838.55+764.575+837.443+764.575+835.23C764.575+831.95+767.362+830.31+772.935+830.31C776.109+830.31+778.302+830.85+779.515+831.93C780.729+833.01+781.335+834.99+781.335+837.87L781.335+845.99C781.335+847.377+781.722+848.07+782.495+848.07C783.402+848.07+783.935+846.697+784.095+843.95L784.695+843.99C784.589+846.337+784.149+847.95+783.375+848.83C782.602+849.71+781.335+850.15+779.575+850.15C776.375+850.15+774.535+849.163+774.055+847.19C773.709+848.203+773.189+848.95+772.495+849.43C771.802+849.91+770.789+850.15+769.455+850.15C765.509+850.15+763.535+848.537+763.535+845.31C763.535+843.417+764.289+842.117+765.795+841.41C767.302+840.703+769.615+840.35+772.735+840.35ZM771.135+845.27C771.135+846.657+771.209+847.55+771.355+847.95C771.502+848.35+771.782+848.55+772.195+848.55C772.609+848.55+772.995+848.21+773.355+847.53C773.715+846.85+773.895+845.91+773.895+844.71L773.895+840.99L773.615+840.99C771.962+840.99+771.135+842.203+771.135+844.63L771.135+845.27Z" opacity="1" fill="#000000"/>
<path d="M800.415+841.47C800.415+844.217+800.549+846.063+800.815+847.01C801.082+847.957+801.602+848.43+802.375+848.43C803.149+848.43+803.842+847.95+804.455+846.99C805.069+846.03+805.375+844.71+805.375+843.03L805.375+835.59C805.375+834.443+805.142+833.47+804.675+832.67C804.209+831.87+803.562+831.47+802.735+831.47C801.802+831.47+801.182+832.063+800.875+833.25C800.569+834.437+800.415+836.483+800.415+839.39L800.415+841.47ZM805.375+858.55L805.375+846.71C804.362+849.003+802.629+850.15+800.175+850.15C795.189+850.15+792.695+846.83+792.695+840.19C792.695+836.803+793.382+834.31+794.755+832.71C796.129+831.11+798.189+830.31+800.935+830.31C803.149+830.31+804.709+831.15+805.615+832.83L805.895+830.71L815.015+830.71L815.015+831.43L812.815+831.43L812.815+858.55L814.775+858.55L814.775+859.27L801.295+859.27L801.295+858.55L805.375+858.55Z" opacity="1" fill="#000000"/>
<path d="M839.215+849.75L830.095+849.75L829.655+846.83C829.229+847.897+828.595+848.717+827.755+849.29C826.915+849.863+825.669+850.15+824.015+850.15C819.882+850.15+817.815+847.923+817.815+843.47L817.815+831.43L815.575+831.43L815.575+830.71L825.255+830.71L825.255+844.43C825.255+846.03+825.369+847.083+825.595+847.59C825.822+848.097+826.275+848.35+826.955+848.35C827.635+848.35+828.242+847.937+828.775+847.11C829.309+846.283+829.575+845.137+829.575+843.67L829.575+831.43L827.735+831.43L827.735+830.71L837.015+830.71L837.015+849.03L839.215+849.03L839.215+849.75Z" opacity="1" fill="#000000"/>
<path d="M845.895+827.95C844.482+827.95+843.475+827.59+842.875+826.87C842.275+826.15+841.975+825.257+841.975+824.19C841.975+823.123+842.302+822.243+842.955+821.55C843.609+820.857+844.602+820.51+845.935+820.51C847.269+820.51+848.282+820.823+848.975+821.45C849.669+822.077+850.015+822.97+850.015+824.13C850.015+825.29+849.682+826.217+849.015+826.91C848.349+827.603+847.309+827.95+845.895+827.95ZM839.855+830.71L849.655+830.71L849.655+849.03L851.895+849.03L851.895+849.75L840.015+849.75L840.015+849.03L842.215+849.03L842.215+831.43L839.855+831.43L839.855+830.71Z" opacity="1" fill="#000000"/>
<path d="M431.275+885.83C430.289+885.83+429.422+886.47+428.675+887.75C427.929+889.03+427.555+890.55+427.555+892.31L427.555+903.03L430.395+903.03L430.395+903.75L417.915+903.75L417.915+903.03L420.115+903.03L420.115+885.43L417.915+885.43L417.915+884.71L427.555+884.71L427.555+888.55C427.902+887.19+428.569+886.143+429.555+885.41C430.542+884.677+431.662+884.31+432.915+884.31C434.169+884.31+435.189+884.663+435.975+885.37C436.762+886.077+437.155+887.077+437.155+888.37C437.155+889.663+436.862+890.657+436.275+891.35C435.689+892.043+434.789+892.39+433.575+892.39C432.362+892.39+431.469+891.99+430.895+891.19C430.322+890.39+430.249+889.283+430.675+887.87L432.115+887.87C432.782+886.51+432.502+885.83+431.275+885.83Z" opacity="1" fill="#000000"/>
<path d="M448.035+904.15C444.595+904.15+442.015+903.263+440.295+901.49C438.575+899.717+437.715+897.25+437.715+894.09C437.715+890.93+438.682+888.51+440.615+886.83C442.549+885.15+445.009+884.31+447.995+884.31C454.049+884.31+456.955+887.35+456.715+893.43L445.435+893.43L445.435+894.99C445.435+897.603+445.769+899.577+446.435+900.91C447.102+902.243+448.262+902.91+449.915+902.91C453.009+902.91+455.035+901.257+455.995+897.95L456.715+898.07C456.209+899.99+455.295+901.483+453.975+902.55C452.655+903.617+450.675+904.15+448.035+904.15ZM445.475+892.63L449.595+892.63L449.595+890.67C449.595+888.51+449.469+887.037+449.215+886.25C448.962+885.463+448.455+885.07+447.695+885.07C446.935+885.07+446.375+885.49+446.015+886.33C445.655+887.17+445.475+888.617+445.475+890.67L445.475+892.63Z" opacity="1" fill="#000000"/>
<path d="M458.235+884.71L467.875+884.71L467.875+888.39C468.302+887.163+468.955+886.177+469.835+885.43C470.715+884.683+472.049+884.31+473.835+884.31C477.969+884.31+480.035+886.537+480.035+890.99L480.035+903.03L482.275+903.03L482.275+903.75L470.955+903.75L470.955+903.03L472.595+903.03L472.595+890.03C472.595+888.43+472.489+887.397+472.275+886.93C472.062+886.463+471.675+886.23+471.115+886.23C470.262+886.23+469.509+886.79+468.855+887.91C468.202+889.03+467.875+890.39+467.875+891.99L467.875+903.03L469.595+903.03L469.595+903.75L458.235+903.75L458.235+903.03L460.435+903.03L460.435+885.43L458.235+885.43L458.235+884.71Z" opacity="1" fill="#000000"/>
<path d="M493.995+885.03C492.822+885.03+491.982+885.67+491.475+886.95C490.969+888.23+490.715+890.35+490.715+893.31L490.715+895.39C490.715+898.03+491.009+899.923+491.595+901.07C492.182+902.217+493.262+902.79+494.835+902.79C496.409+902.79+497.662+902.257+498.595+901.19C499.529+900.123+500.129+898.91+500.395+897.55L501.115+897.63C500.609+899.923+499.675+901.577+498.315+902.59C496.929+903.63+495.022+904.15+492.595+904.15C489.502+904.15+487.129+903.317+485.475+901.65C483.822+899.983+482.995+897.543+482.995+894.33C482.995+891.117+483.935+888.643+485.815+886.91C487.695+885.177+490.315+884.31+493.675+884.31C496.049+884.31+497.862+884.77+499.115+885.69C500.369+886.61+500.995+887.763+500.995+889.15C500.995+890.537+500.695+891.55+500.095+892.19C499.495+892.83+498.669+893.15+497.615+893.15C496.562+893.15+495.715+892.87+495.075+892.31C494.435+891.75+494.115+890.923+494.115+889.83C494.115+889.35+494.182+888.87+494.315+888.39L495.635+888.39C495.822+887.857+495.915+887.377+495.915+886.95C495.915+885.67+495.275+885.03+493.995+885.03Z" opacity="1" fill="#000000"/>
<path d="M515.035+895.87L515.035+892.47C515.035+889.883+514.895+887.997+514.615+886.81C514.335+885.623+513.689+885.03+512.675+885.03C512.089+885.03+511.615+885.197+511.255+885.53C510.895+885.863+510.635+886.417+510.475+887.19C510.235+888.39+510.115+890.217+510.115+892.67L510.115+895.79C510.115+898.697+510.202+900.443+510.375+901.03C510.549+901.617+510.729+902.097+510.915+902.47C511.209+903.11+511.782+903.43+512.635+903.43C513.675+903.43+514.355+902.83+514.675+901.63C514.915+900.777+515.035+898.857+515.035+895.87ZM512.555+904.15C509.222+904.15+506.702+903.297+504.995+901.59C503.289+899.883+502.435+897.437+502.435+894.25C502.435+891.063+503.349+888.61+505.175+886.89C507.002+885.17+509.569+884.31+512.875+884.31C516.182+884.31+518.649+885.103+520.275+886.69C521.902+888.277+522.715+890.697+522.715+893.95C522.715+900.75+519.329+904.15+512.555+904.15Z" opacity="1" fill="#000000"/>
<path d="M523.915+884.71L533.555+884.71L533.555+888.39C533.982+887.163+534.635+886.177+535.515+885.43C536.395+884.683+537.729+884.31+539.515+884.31C543.649+884.31+545.715+886.537+545.715+890.99L545.715+903.03L547.955+903.03L547.955+903.75L536.635+903.75L536.635+903.03L538.275+903.03L538.275+890.03C538.275+888.43+538.169+887.397+537.955+886.93C537.742+886.463+537.355+886.23+536.795+886.23C535.942+886.23+535.189+886.79+534.535+887.91C533.882+889.03+533.555+890.39+533.555+891.99L533.555+903.03L535.275+903.03L535.275+903.75L523.915+903.75L523.915+903.03L526.115+903.03L526.115+885.43L523.915+885.43L523.915+884.71Z" opacity="1" fill="#000000"/>
<path d="M550.275+898.03L550.275+885.43L548.075+885.43L548.075+884.71L550.275+884.71L550.275+879.55L557.715+877.71L557.715+884.71L562.915+884.71L562.915+885.43L557.715+885.43L557.715+898.91C557.715+900.163+557.842+901.083+558.095+901.67C558.349+902.257+558.875+902.55+559.675+902.55C560.475+902.55+561.175+902.15+561.775+901.35C562.375+900.55+562.769+899.457+562.955+898.07L563.635+898.15C563.422+899.99+562.835+901.45+561.875+902.53C560.915+903.61+559.329+904.15+557.115+904.15C554.902+904.15+553.209+903.71+552.035+902.83C550.862+901.95+550.275+900.35+550.275+898.03Z" opacity="1" fill="#000000"/>
<path d="M577.395+885.83C576.409+885.83+575.542+886.47+574.795+887.75C574.049+889.03+573.675+890.55+573.675+892.31L573.675+903.03L576.515+903.03L576.515+903.75L564.035+903.75L564.035+903.03L566.235+903.03L566.235+885.43L564.035+885.43L564.035+884.71L573.675+884.71L573.675+888.55C574.022+887.19+574.689+886.143+575.675+885.41C576.662+884.677+577.782+884.31+579.035+884.31C580.289+884.31+581.309+884.663+582.095+885.37C582.882+886.077+583.275+887.077+583.275+888.37C583.275+889.663+582.982+890.657+582.395+891.35C581.809+892.043+580.909+892.39+579.695+892.39C578.482+892.39+577.589+891.99+577.015+891.19C576.442+890.39+576.369+889.283+576.795+887.87L578.235+887.87C578.902+886.51+578.622+885.83+577.395+885.83Z" opacity="1" fill="#000000"/>
<path d="M594.155+904.15C590.715+904.15+588.135+903.263+586.415+901.49C584.695+899.717+583.835+897.25+583.835+894.09C583.835+890.93+584.802+888.51+586.735+886.83C588.669+885.15+591.129+884.31+594.115+884.31C600.169+884.31+603.075+887.35+602.835+893.43L591.555+893.43L591.555+894.99C591.555+897.603+591.889+899.577+592.555+900.91C593.222+902.243+594.382+902.91+596.035+902.91C599.129+902.91+601.155+901.257+602.115+897.95L602.835+898.07C602.329+899.99+601.415+901.483+600.095+902.55C598.775+903.617+596.795+904.15+594.155+904.15ZM591.595+892.63L595.715+892.63L595.715+890.67C595.715+888.51+595.589+887.037+595.335+886.25C595.082+885.463+594.575+885.07+593.815+885.07C593.055+885.07+592.495+885.49+592.135+886.33C591.775+887.17+591.595+888.617+591.595+890.67L591.595+892.63Z" opacity="1" fill="#000000"/>
<path d="M634.675+876.51L634.675+903.75L629.075+903.75L615.355+877.87L615.355+902.99L617.555+902.99L617.555+903.75L612.075+903.75L612.075+902.99L614.275+902.99L614.275+876.51L612.075+876.51L612.075+875.75L623.115+875.75L633.595+895.83L633.595+876.51L631.395+876.51L631.395+875.75L636.875+875.75L636.875+876.51L634.675+876.51Z" opacity="1" fill="#000000"/>
<path d="M647.275+894.35L648.435+894.35L648.435+891.27C648.435+888.737+648.295+887.037+648.015+886.17C647.735+885.303+647.195+884.87+646.395+884.87C645.915+884.87+645.482+884.997+645.095+885.25C644.709+885.503+644.515+885.85+644.515+886.29C644.515+886.73+644.595+887.177+644.755+887.63L645.755+887.63C645.969+888.19+646.075+888.863+646.075+889.65C646.075+890.437+645.742+891.117+645.075+891.69C644.409+892.263+643.569+892.55+642.555+892.55C640.262+892.55+639.115+891.443+639.115+889.23C639.115+885.95+641.902+884.31+647.475+884.31C650.649+884.31+652.842+884.85+654.055+885.93C655.269+887.01+655.875+888.99+655.875+891.87L655.875+899.99C655.875+901.377+656.262+902.07+657.035+902.07C657.942+902.07+658.475+900.697+658.635+897.95L659.235+897.99C659.129+900.337+658.689+901.95+657.915+902.83C657.142+903.71+655.875+904.15+654.115+904.15C650.915+904.15+649.075+903.163+648.595+901.19C648.249+902.203+647.729+902.95+647.035+903.43C646.342+903.91+645.329+904.15+643.995+904.15C640.049+904.15+638.075+902.537+638.075+899.31C638.075+897.417+638.829+896.117+640.335+895.41C641.842+894.703+644.155+894.35+647.275+894.35ZM645.675+899.27C645.675+900.657+645.749+901.55+645.895+901.95C646.042+902.35+646.322+902.55+646.735+902.55C647.149+902.55+647.535+902.21+647.895+901.53C648.255+900.85+648.435+899.91+648.435+898.71L648.435+894.99L648.155+894.99C646.502+894.99+645.675+896.203+645.675+898.63L645.675+899.27Z" opacity="1" fill="#000000"/>
<path d="M675.475+882.63L676.595+881.95C676.755+881.123+676.435+880.71+675.635+880.71C674.489+880.71+673.915+881.59+673.915+883.35C673.915+884.043+674.009+884.843+674.195+885.75C676.222+887.11+677.235+888.85+677.235+890.97C677.235+893.09+676.502+894.737+675.035+895.91C673.569+897.083+671.582+897.67+669.075+897.67C668.035+897.67+666.955+897.563+665.835+897.35C664.662+898.097+664.075+898.657+664.075+899.03C664.075+899.403+664.929+899.59+666.635+899.59L670.715+899.59C676.769+899.59+679.795+901.763+679.795+906.11C679.795+908.457+678.882+910.317+677.055+911.69C675.229+913.063+672.382+913.75+668.515+913.75C661.929+913.75+658.635+912.323+658.635+909.47C658.635+907.923+659.662+906.857+661.715+906.27L664.115+907.35C663.902+908.123+663.795+908.857+663.795+909.55C663.795+911.843+665.502+912.99+668.915+912.99C670.995+912.99+672.595+912.603+673.715+911.83C674.835+911.057+675.395+910.097+675.395+908.95C675.395+907.803+675.055+907.037+674.375+906.65C673.695+906.263+672.342+906.07+670.315+906.07L666.435+906.07C664.275+906.07+662.729+905.71+661.795+904.99C660.862+904.27+660.395+903.383+660.395+902.33C660.395+901.277+660.729+900.397+661.395+899.69C662.062+898.983+663.249+898.11+664.955+897.07C661.862+896.19+660.315+894.163+660.315+890.99C660.315+888.99+661.035+887.377+662.475+886.15C663.915+884.923+666.075+884.31+668.955+884.31C670.689+884.31+672.169+884.643+673.395+885.31C673.235+884.59+673.155+883.937+673.155+883.35C673.155+881.857+673.555+880.777+674.355+880.11C675.155+879.443+676.049+879.11+677.035+879.11C678.022+879.11+678.815+879.37+679.415+879.89C680.015+880.41+680.315+881.123+680.315+882.03C680.315+882.937+680.075+883.61+679.595+884.05C679.115+884.49+678.535+884.71+677.855+884.71C677.175+884.71+676.615+884.53+676.175+884.17C675.735+883.81+675.502+883.297+675.475+882.63ZM666.995+890.11L666.995+892.27C666.995+894.057+667.149+895.27+667.455+895.91C667.762+896.55+668.229+896.87+668.855+896.87C669.482+896.87+669.935+896.557+670.215+895.93C670.495+895.303+670.635+894.017+670.635+892.07L670.635+890.11C670.635+888.03+670.502+886.663+670.235+886.01C669.969+885.357+669.522+885.03+668.895+885.03C668.269+885.03+667.795+885.37+667.475+886.05C667.155+886.73+666.995+888.083+666.995+890.11Z" opacity="1" fill="#000000"/>
<path d="M688.915+894.35L690.075+894.35L690.075+891.27C690.075+888.737+689.935+887.037+689.655+886.17C689.375+885.303+688.835+884.87+688.035+884.87C687.555+884.87+687.122+884.997+686.735+885.25C686.349+885.503+686.155+885.85+686.155+886.29C686.155+886.73+686.235+887.177+686.395+887.63L687.395+887.63C687.609+888.19+687.715+888.863+687.715+889.65C687.715+890.437+687.382+891.117+686.715+891.69C686.049+892.263+685.209+892.55+684.195+892.55C681.902+892.55+680.755+891.443+680.755+889.23C680.755+885.95+683.542+884.31+689.115+884.31C692.289+884.31+694.482+884.85+695.695+885.93C696.909+887.01+697.515+888.99+697.515+891.87L697.515+899.99C697.515+901.377+697.902+902.07+698.675+902.07C699.582+902.07+700.115+900.697+700.275+897.95L700.875+897.99C700.769+900.337+700.329+901.95+699.555+902.83C698.782+903.71+697.515+904.15+695.755+904.15C692.555+904.15+690.715+903.163+690.235+901.19C689.889+902.203+689.369+902.95+688.675+903.43C687.982+903.91+686.969+904.15+685.635+904.15C681.689+904.15+679.715+902.537+679.715+899.31C679.715+897.417+680.469+896.117+681.975+895.41C683.482+894.703+685.795+894.35+688.915+894.35ZM687.315+899.27C687.315+900.657+687.389+901.55+687.535+901.95C687.682+902.35+687.962+902.55+688.375+902.55C688.789+902.55+689.175+902.21+689.535+901.53C689.895+900.85+690.075+899.91+690.075+898.71L690.075+894.99L689.795+894.99C688.142+894.99+687.315+896.203+687.315+898.63L687.315+899.27Z" opacity="1" fill="#000000"/>
<path d="M702.195+904.15L702.195+896.99L702.675+896.99C703.369+899.31+704.302+900.937+705.475+901.87C706.649+902.803+708.115+903.27+709.875+903.27C712.595+903.27+713.955+902.403+713.955+900.67C713.955+899.923+713.622+899.363+712.955+898.99C711.915+898.403+710.582+897.95+708.955+897.63C707.142+897.15+705.622+896.51+704.395+895.71C702.929+894.75+702.195+893.23+702.195+891.15C702.195+889.07+702.835+887.41+704.115+886.17C705.395+884.93+707.102+884.31+709.235+884.31C710.542+884.31+711.889+884.617+713.275+885.23C713.782+885.443+714.169+885.55+714.435+885.55C714.702+885.55+714.929+885.457+715.115+885.27C715.302+885.083+715.529+884.737+715.795+884.23L716.235+884.23L716.235+890.35L715.755+890.35C714.395+886.883+712.289+885.15+709.435+885.15C708.182+885.15+707.249+885.37+706.635+885.81C706.022+886.25+705.715+886.803+705.715+887.47C705.715+887.87+705.809+888.183+705.995+888.41C706.182+888.637+706.329+888.803+706.435+888.91C706.542+889.017+706.715+889.13+706.955+889.25C707.195+889.37+707.395+889.463+707.555+889.53C707.715+889.597+707.962+889.683+708.295+889.79C708.629+889.897+708.875+889.963+709.035+889.99C710.849+890.443+712.155+890.837+712.955+891.17C713.755+891.503+714.515+891.91+715.235+892.39C716.702+893.403+717.435+895.037+717.435+897.29C717.435+899.543+716.769+901.25+715.435+902.41C714.102+903.57+712.275+904.15+709.955+904.15C708.302+904.15+706.702+903.763+705.155+902.99C704.835+902.777+704.582+902.67+704.395+902.67C703.809+902.67+703.235+903.163+702.675+904.15L702.195+904.15Z" opacity="1" fill="#000000"/>
<path d="M728.235+894.35L729.395+894.35L729.395+891.27C729.395+888.737+729.255+887.037+728.975+886.17C728.695+885.303+728.155+884.87+727.355+884.87C726.875+884.87+726.442+884.997+726.055+885.25C725.669+885.503+725.475+885.85+725.475+886.29C725.475+886.73+725.555+887.177+725.715+887.63L726.715+887.63C726.929+888.19+727.035+888.863+727.035+889.65C727.035+890.437+726.702+891.117+726.035+891.69C725.369+892.263+724.529+892.55+723.515+892.55C721.222+892.55+720.075+891.443+720.075+889.23C720.075+885.95+722.862+884.31+728.435+884.31C731.609+884.31+733.802+884.85+735.015+885.93C736.229+887.01+736.835+888.99+736.835+891.87L736.835+899.99C736.835+901.377+737.222+902.07+737.995+902.07C738.902+902.07+739.435+900.697+739.595+897.95L740.195+897.99C740.089+900.337+739.649+901.95+738.875+902.83C738.102+903.71+736.835+904.15+735.075+904.15C731.875+904.15+730.035+903.163+729.555+901.19C729.209+902.203+728.689+902.95+727.995+903.43C727.302+903.91+726.289+904.15+724.955+904.15C721.009+904.15+719.035+902.537+719.035+899.31C719.035+897.417+719.789+896.117+721.295+895.41C722.802+894.703+725.115+894.35+728.235+894.35ZM726.635+899.27C726.635+900.657+726.709+901.55+726.855+901.95C727.002+902.35+727.282+902.55+727.695+902.55C728.109+902.55+728.495+902.21+728.855+901.53C729.215+900.85+729.395+899.91+729.395+898.71L729.395+894.99L729.115+894.99C727.462+894.99+726.635+896.203+726.635+898.63L726.635+899.27Z" opacity="1" fill="#000000"/>
<path d="M753.675+903.75L753.675+903.03L755.515+903.03L750.995+893.75L750.235+893.95L750.235+903.03L752.075+903.03L752.075+903.75L740.595+903.75L740.595+903.03L742.795+903.03L742.795+874.47L740.435+874.47L740.435+873.75L750.235+873.75L750.235+893.15L750.875+892.91L759.875+885.43L756.115+885.43L756.115+884.71L763.995+884.71L763.995+885.43L761.195+885.43L756.435+889.47L763.355+903.03L764.795+903.03L764.795+903.75L753.675+903.75Z" opacity="1" fill="#000000"/>
<path d="M771.275+881.95C769.862+881.95+768.855+881.59+768.255+880.87C767.655+880.15+767.355+879.257+767.355+878.19C767.355+877.123+767.682+876.243+768.335+875.55C768.989+874.857+769.982+874.51+771.315+874.51C772.649+874.51+773.662+874.823+774.355+875.45C775.049+876.077+775.395+876.97+775.395+878.13C775.395+879.29+775.062+880.217+774.395+880.91C773.729+881.603+772.689+881.95+771.275+881.95ZM765.235+884.71L775.035+884.71L775.035+903.03L777.275+903.03L777.275+903.75L765.395+903.75L765.395+903.03L767.595+903.03L767.595+885.43L765.235+885.43L765.235+884.71Z" opacity="1" fill="#000000"/>
<path d="M782.915+904.15C781.769+904.15+780.909+903.81+780.335+903.13C779.762+902.45+779.475+901.623+779.475+900.65C779.475+899.677+779.775+898.857+780.375+898.19C780.975+897.523+781.822+897.19+782.915+897.19C784.009+897.19+784.875+897.47+785.515+898.03C786.155+898.59+786.475+899.43+786.475+900.55C786.475+901.67+786.175+902.55+785.575+903.19C784.975+903.83+784.089+904.15+782.915+904.15Z" opacity="1" fill="#000000"/>
</g>
<g opacity="1">
<path stroke="#000000" stroke-width="2.45" d="M514.201+587.1C513.886+574.574+551.688+563.461+598.635+562.279C645.582+561.097+683.896+570.293+684.211+582.82C684.527+595.346+646.724+606.459+599.777+607.641C552.831+608.823+514.517+599.627+514.201+587.1Z" fill="none" stroke-linecap="round" opacity="1" stroke-linejoin="round"/>
<path stroke="#000000" stroke-width="2.45" d="M481.11+590.038C480.624+570.737+546.126+553.224+611.029+551.59C614.111+551.512+629.434+543.971+632.458+543.964C685.64+543.844+726.493+567.629+726.493+567.629C726.493+567.629+712.448+575.065+712.505+577.331C712.991+596.632+664.41+620.393+599.507+622.027C534.604+623.661+481.596+609.339+481.11+590.038Z" fill="none" stroke-linecap="round" opacity="1" stroke-linejoin="round"/>
<path stroke="#000000" stroke-width="2.45" d="M484.6+598.372C484.6+598.372+519.446+693.859+585.892+688.982C710.815+679.812+696.977+657.623+705.739+635.254C714.502+612.885+726.54+569.484+726.54+569.484" fill="none" stroke-linecap="round" opacity="1" stroke-linejoin="round"/>
<path stroke="#000000" stroke-width="2.45" d="M549.026+681.793C564.943+734.976+520.693+748.565+529.688+753.446C568.582+774.556+588.999+776.316+616.411+766.264C700.363+735.479+700.363+733.354+700.363+733.354C700.363+733.354+664.884+701.737+679.232+673.445" fill="none" stroke-linecap="round" opacity="1" stroke-linejoin="round"/>
<path stroke="#000000" stroke-width="2.45" d="M528.469+753.153L528.469+765.182C528.469+765.182+569.515+798.042+620.168+777.868C701.616+745.43+700.363+743.435+700.363+743.435L700.363+733.211" fill="none" stroke-linecap="round" opacity="1" stroke-linejoin="round"/>
<path stroke="#000000" stroke-width="2.45" d="M637.076+545.599C634.296+545.859+630.577+551.12+592.309+550.935C524.617+550.608+483.853+569.003+484.314+587.31C484.775+605.617+532.334+618.736+600.005+617.033C667.676+615.329+710.157+593.128+709.696+574.821C709.619+571.759+718.28+569.685+713.41+565.912C702.296+557.303+641.962+545.142+637.076+545.599ZM599.357+558.748C645.819+557.578+683.748+566.585+684.057+578.841C684.365+591.098+646.937+601.97+600.475+603.14C554.012+604.31+516.114+595.334+515.806+583.077C515.497+570.821+552.895+559.918+599.357+558.748Z" fill="#ffffff" stroke-linecap="round" opacity="1" stroke-linejoin="round"/>
<path stroke="#000000" stroke-width="2.45" d="M693.333+568.734C693.311+567.858+695.675+567.088+698.614+567.014C701.552+566.94+703.952+567.59+703.974+568.466C703.996+569.341+701.632+570.111+698.693+570.185C695.755+570.259+693.355+569.609+693.333+568.734Z" fill="#ffffff" stroke-linecap="round" opacity="1" stroke-linejoin="round"/>
<path stroke="#000000" stroke-width="2.45" d="M637.646+552.329C637.624+551.453+639.988+550.683+642.927+550.609C645.865+550.535+648.265+551.185+648.287+552.061C648.309+552.936+645.945+553.706+643.006+553.78C640.068+553.854+637.668+553.204+637.646+552.329Z" fill="#ffffff" stroke-linecap="round" opacity="1" stroke-linejoin="round"/>
<path stroke="#000000" stroke-width="2.45" d="M636.022+387.529L754.636+411.002C754.636+411.002+738.053+569.853+731.914+566.101C683.326+536.409+631.541+538.978+631.541+538.978L636.022+387.529Z" fill="none" stroke-linecap="round" opacity="1" stroke-linejoin="round"/>
<path stroke="#000000" stroke-width="2.45" d="M778.773+557.257C778.773+557.257+799.081+502.295+802.812+407.406C803.077+400.663+761.702+388.56+734.115+383.402C707.635+378.451+685.422+375.956+673.285+377.704C666.318+378.707+636.091+387.92+636.091+387.92" fill="none" stroke-linecap="round" opacity="1" stroke-linejoin="round"/>
<path stroke="#000000" stroke-width="2.45" d="M753.965+411.482L801.994+406.95" fill="none" stroke-linecap="round" opacity="1" stroke-linejoin="round"/>
<path stroke="#000000" stroke-width="2.45" d="M732.61+566.097L778.53+557.636" fill="none" stroke-linecap="round" opacity="1" stroke-linejoin="round"/>
<path stroke="#000000" stroke-width="2.45" d="M759.469+561.713L715.137+607.914" fill="none" stroke-linecap="round" opacity="1" stroke-linejoin="round"/>
<path stroke="#000000" stroke-width="2.45" d="M707.08+391.498C707.08+389.341+712.912+387.592+720.106+387.592C727.3+387.592+733.132+389.341+733.132+391.498C733.132+393.655+727.3+395.403+720.106+395.403C712.912+395.403+707.08+393.655+707.08+391.498Z" fill="none" stroke-linecap="round" opacity="1" stroke-linejoin="round"/>
</g>
</g>
<g id="Calque 2" vectornator:layerName="Calque 2">
<path stroke="#000000" stroke-width="2.45" d="M583.037+602.449C584.653+524.586+572.862+461.898+572.862+461.898C572.862+461.898+565.218+466.657+552.246+461.413C543.697+457.957+539.214+446.788+539.214+446.788C539.214+446.788+523.557+444.526+518.02+425.486C513.563+410.163+526.119+397.098+526.119+397.098C526.119+397.098+518.566+383.098+532.01+365.421C546.02+347+560.365+352.108+560.365+352.108C560.365+352.108+565.478+332.472+595.35+332.472C623.073+332.472+624.828+352.108+624.828+352.108C624.828+352.108+641.961+346.741+652.13+359.972C665.479+377.34+658.739+385.347+658.739+385.347C658.739+385.347+676.2+387.523+676.2+414.341C676.2+441.811+652.48+440.769+652.48+440.769C652.48+440.769+649.634+451.625+641.961+455.699C634.287+459.772+625.024+457.376+625.024+457.376C625.024+457.376+615.272+516.624+621.735+600.748" fill="#d2d2d2" stroke-linecap="round" opacity="1" stroke-linejoin="round"/>
<path stroke="#000000" stroke-width="5.08" d="M584.367+600.882C584.367+511.827+572.522+449.236+573.377+454.923" fill="none" stroke-linecap="round" opacity="1" stroke-linejoin="round"/>
<path stroke="#000000" stroke-width="5.08" d="M620.228+600.882C614.202+515.673+623.976+452.513+623.976+452.513" fill="none" stroke-linecap="round" opacity="1" stroke-linejoin="round"/>
<path stroke="#000000" stroke-width="5.08" d="M574.504+460.298C562.471+466.315+546.522+462.431+540.839+447.631" fill="none" stroke-linecap="round" opacity="1" stroke-linejoin="round"/>
<path stroke="#000000" stroke-width="5.08" d="M545.577+444.677C543.273+445.648+520.07+442.145+518.268+421.342C516.734+403.631+527.497+397.301+531.596+396.087" fill="none" stroke-linecap="round" opacity="1" stroke-linejoin="round"/>
<path stroke="#000000" stroke-width="5.08" d="M561.281+352.749C544.336+345.371+512.651+376.076+526.254+395.59" fill="none" stroke-linecap="round" opacity="1" stroke-linejoin="round"/>
<path stroke="#000000" stroke-width="5.08" d="M559.404+369.278C559.404+369.278+556.953+352.865+568.293+341.765C582.144+328.207+623.545+327.437+627.57+363.016" fill="none" stroke-linecap="round" opacity="1" stroke-linejoin="round"/>
<path stroke="#000000" stroke-width="5.08" d="M625.716+353.143C643.778+343.531+661.379+366.898+658.895+382.857" fill="none" stroke-linecap="round" opacity="1" stroke-linejoin="round"/>
<path stroke="#000000" stroke-width="5.08" d="M645.835+384.744C676.835+374+695.76+444.801+645.993+439.049" fill="none" stroke-linecap="round" opacity="1" stroke-linejoin="round"/>
<path stroke="#000000" stroke-width="5.08" d="M625.23+458.251C633.717+460.338+648.687+455.901+650.643+443.342" fill="none" stroke-linecap="round" opacity="1" stroke-linejoin="round"/>
<path stroke="#000000" stroke-width="2.01" d="M562.841+442.235C562.841+442.235+572.988+451.121+597.443+449.816C621.095+448.553+632.485+437.786+632.485+437.786" fill="none" stroke-linecap="round" opacity="1" stroke-linejoin="round"/>
<path d="M523.378+421.032C523.378+420.722+531.949+424.101+537.367+420.725C546.324+415.143+544.247+406.316+544.247+406.316C544.247+406.316+549.439+414.235+559.175+410.73C568.655+407.317+569.414+398.738+569.414+398.738C569.414+398.738+576.127+416.519+601.882+417.35C626.026+418.129+634.524+402.814+634.524+402.814C634.524+402.814+639.128+414.231+648.686+417.954C658.243+421.677+671.253+416.603+671.253+416.603C671.253+416.603+672.247+432.809+654.768+434.195C645.647+434.919+638.417+427.751+638.417+427.751C638.417+427.751+623.949+443.182+598.766+444.87C565.764+447.081+557.747+430.591+557.747+430.591C557.747+430.591+554.781+436.551+546.318+437.7C528.619+440.102+523.378+422.501+523.378+421.032Z" opacity="1" fill="#636363"/>
<path d="M547.151+449.514C547.151+446.248+548.77+450.724+553.115+444.024C556.117+439.394+562.323+446.9+566.718+449.121C570.705+451.134+569.674+457.404+567.508+458.073C555.973+461.637+547.151+452.78+547.151+449.514Z" opacity="1" fill="#636363"/>
<path d="M646.604+443.479C646.586+442.274+645.144+445.207+640.799+438.506C637.796+433.876+634.231+442.119+629.835+444.34C625.848+446.354+627.776+453.671+630.041+453.749C641.551+454.142+646.655+446.843+646.604+443.479Z" opacity="1" fill="#636363"/>
<path stroke="#000000" stroke-width="8.11" d="M622.278+502.543C645.319+503.195+661.677+505.441+661.759+508.362C661.866+512.175+634.199+515.694+599.964+516.224C565.729+516.753+537.89+514.091+537.783+510.278C537.699+507.3+554.559+504.501+578.258+503.166" fill="none" stroke-linecap="round" opacity="1" stroke-linejoin="round"/>
<path d="M584.837+513.464C588.939+510.318+587.055+496.951+589.293+497.163C591.531+497.374+588.871+512.219+593.788+514.311C595.52+515.048+594.635+516.639+595.199+514.717C600.608+496.27+596.72+475.192+599.517+475.192C601.407+475.192+599.081+497.651+605.768+514.077C606.542+515.978+607.117+514.539+608.03+513.089C611.17+508.099+610.089+496.683+611.659+496.653C613.508+496.618+611.624+508.727+614.486+513.647" opacity="1" fill="#000000"/>
<path d="M584.45+518.859C588.551+522.005+588.689+555.244+590.926+555.032C593.164+554.82+588.484+520.104+593.4+518.012C595.133+517.275+594.248+515.684+594.812+517.606C600.22+536.053+597.908+585.722+600.55+585.882C603.192+586.042+598.694+534.672+605.381+518.246C606.155+516.345+606.73+517.784+607.642+519.234C610.783+524.225+609.585+554.253+611.155+554.283C613.005+554.318+611.237+523.596+614.098+518.676" opacity="1" fill="#000000"/>
</g>
</svg>
