<?xml version="1.0" encoding="UTF-8" standalone="no"?> <!-- Created with Vectornator Pro for iOS (http://vectornator.io/) --><!DOCTYPE svg PUBLIC "-//W3C//DTD SVG 1.1//EN" "http://www.w3.org/Graphics/SVG/1.1/DTD/svg11.dtd">
<svg style="fill-rule:evenodd;clip-rule:evenodd;stroke-linecap:round;stroke-linejoin:round;" xmlns:vectornator="http://vectornator.io" xmlns:xlink="http://www.w3.org/1999/xlink" xmlns="http://www.w3.org/2000/svg" xml:space="preserve" version="1.1" viewBox="0 0 1190.7 1417.5">
<metadata>
<vectornator:setting key="DisplayWhiteBackground" value="1"/>
<vectornator:setting key="RulersVisible" value="1"/>
<vectornator:setting key="SnapToEdges" value="0"/>
<vectornator:setting key="Units" value="Millimeters"/>
<vectornator:setting key="DynamicGuides" value="1"/>
<vectornator:setting key="SnapToPoints" value="0"/>
<vectornator:setting key="CMYKEnabledKey" value="0"/>
<vectornator:setting key="SnapToGrid" value="0"/>
<vectornator:setting key="IsolateActiveLayer" value="0"/>
<vectornator:setting key="ShowGrid" value="0"/>
<vectornator:setting key="GridSpacing" value="50"/>
</metadata>
<defs/>
<g id="Tee shirt base" vectornator:layerName="Tee shirt base">
<path stroke="#313131" stroke-width="5.04" d="M771.343+46.5588C769.115+46.5639+765.314+47.4062+764.424+49.3597C744.728+92.5848+714.079+167.313+609.494+171.628C533.035+174.782+461.878+116.974+441.898+60.5968C440.597+56.9257+434.843+58.4852+431.39+59.2076C316.128+83.3166+253.904+131.917+227.306+147.818C150.85+193.524+26.9685+413.319+24.0166+420.756C-3.64916+490.455+159.704+614.292+202.262+629.563C207.307+631.373+234.917+576.531+258.94+487.997C260.617+481.817+258.383+437.583+244.295+393.277C242.513+387.674+247.799+399.571+249.713+407.771C264.99+473.217+268.264+542.847+268.265+542.847L261.039+687.439L237.46+1354.13L605.553+1351.64L962.419+1352.42L938.839+685.731C938.839+685.731+933.865+614.354+935.616+542.124C936.927+488.052+943.625+434.081+950.165+406.063C952.079+397.863+957.415+385.966+955.633+391.569C941.544+435.876+939.162+480.137+940.938+486.289C966.294+574.122+992.62+629.665+997.666+627.855C1040.22+612.584+1194.78+477.673+1167.12+407.974C1164.17+400.537+1067.34+229.438+1001.47+165.492C986.918+151.359+879.674+46.3124+771.343+46.5588Z" fill="none" stroke-linecap="round" opacity="1" stroke-linejoin="round"/>
<path stroke="#dcdcdc" stroke-width="9.52" d="M431.407+70.5645C431.407+70.5645+481.915+189.506+607.599+185.16C746.658+180.351+774.324+58.2216+774.324+58.2216" fill="none" stroke-linecap="round" opacity="1" stroke-linejoin="round"/>
<path stroke="#161616" stroke-width="2.93" d="M417.299+69.4439C417.299+69.4439+463.956+204.228+613.929+196.857C764.149+189.473+788.492+54.3667+788.492+54.3667" fill="none" stroke-linecap="round" opacity="1" stroke-linejoin="round"/>
</g>
<g id="Calque 1" vectornator:layerName="Calque 1">
<g opacity="1">
<path d="M381.657+386.847C381.657+386.847+387.325+374.095+437.082+374.096C484.224+374.098+492.643+385.4+492.643+387.501C492.643+389.602+475.516+515.542+475.516+515.542C475.516+515.542+471.689+525.479+437.15+525.479C402.611+525.479+397.956+515.542+397.956+515.542L381.657+386.847Z" opacity="1" fill="#ffffff"/>
<path d="M383.388+388.733C383.388+388.733+391.932+401.212+437.082+401.368C482.696+401.525+490.776+388.733+490.776+388.733L474.205+512.409C474.205+512.409+470.501+521.829+437.082+521.829C403.663+521.829+399.159+512.409+399.159+512.409L383.388+388.733Z" opacity="1" fill="#000000"/>
<path d="M389.763+388.643C389.763+383.845+410.15+380.044+436.272+380.044C462.394+380.044+484.536+383.845+484.536+388.643C484.536+393.442+463.272+398.909+437.15+398.909C411.028+398.909+389.763+393.442+389.763+388.643Z" opacity="1" fill="#000000"/>
<path stroke="#000000" stroke-width="1.97" d="M384.368+390.585C384.368+390.585+384.005+388.965+384.091+388.624C384.683+386.271+389.971+377.043+433.246+377.144C486.022+377.267+489.858+387.085+490.113+388.889C490.138+389.066+489.834+390.566+489.834+390.566" fill="none" stroke-linecap="round" opacity="1" stroke-linejoin="round"/>
</g>
<g opacity="1">
<path d="M499.993+272.032L499.993+321.732C499.993+324.392+499.76+326.784+499.293+328.907C498.826+331.031+498.033+332.851+496.913+334.367C495.793+335.884+494.311+337.039+492.468+337.832C490.625+338.626+488.326+339.022+485.573+339.022C483.333+339.022+481.408+338.754+479.798+338.217C478.188+337.681+476.881+336.946+475.878+336.012C474.875+335.079+474.14+333.959+473.673+332.652C473.206+331.346+472.973+329.946+472.973+328.452C472.973+327.472+473.101+326.469+473.358+325.442C473.615+324.416+474.058+323.482+474.688+322.642C475.318+321.802+476.146+321.114+477.173+320.577C478.2+320.041+479.506+319.772+481.093+319.772C483.006+319.772+484.476+320.204+485.503+321.067C486.53+321.931+487.043+323.412+487.043+325.512C487.043+325.652+487.031+325.804+487.008+325.967C486.985+326.131+486.973+326.306+486.973+326.492C486.32+325.886+485.643+325.442+484.943+325.162C484.243+324.882+483.566+324.742+482.913+324.742C481.7+324.742+480.638+325.197+479.728+326.107C478.818+327.017+478.363+328.336+478.363+330.062C478.363+331.042+478.561+331.906+478.958+332.652C479.355+333.399+479.88+334.029+480.533+334.542C481.186+335.056+481.91+335.452+482.703+335.732C483.496+336.012+484.313+336.152+485.153+336.152C486.04+336.152+486.903+335.977+487.743+335.627C488.583+335.277+489.33+334.729+489.983+333.982C490.636+333.236+491.161+332.279+491.558+331.112C491.955+329.946+492.153+328.546+492.153+326.912L492.153+276.092C488.933+276.886+486.448+278.402+484.698+280.642C482.948+282.882+482.073+285.682+482.073+289.042C482.073+290.256+482.178+291.317+482.388+292.227C482.598+293.137+482.866+293.907+483.193+294.537C483.52+295.167+483.87+295.681+484.243+296.077C484.616+296.474+484.966+296.789+485.293+297.022C482.493+297.022+480.276+296.369+478.643+295.062C477.01+293.756+476.193+291.702+476.193+288.902C476.193+286.522+476.776+284.306+477.943+282.252C479.11+280.199+480.673+278.414+482.633+276.897C484.593+275.381+486.833+274.191+489.353+273.327C491.873+272.464+494.463+272.032+497.123+272.032L499.993+272.032Z" opacity="1" fill="#000000"/>
<path d="M505.663+276.302C505.663+275.696+505.803+275.136+506.083+274.622C506.363+274.109+506.725+273.677+507.168+273.327C507.611+272.977+508.101+272.697+508.638+272.487C509.175+272.277+509.7+272.172+510.213+272.172C511.986+272.172+513.258+272.709+514.028+273.782C514.798+274.856+515.183+276.186+515.183+277.772C515.183+278.892+515.008+280.071+514.658+281.307C514.308+282.544+513.841+283.734+513.258+284.877C512.675+286.021+511.998+287.047+511.228+287.957C510.458+288.867+509.63+289.532+508.743+289.952C508.323+289.719+508.055+289.451+507.938+289.147C507.821+288.844+507.763+288.552+507.763+288.272C507.763+287.806+507.845+287.327+508.008+286.837C508.171+286.347+508.346+285.869+508.533+285.402C508.72+284.936+508.895+284.469+509.058+284.002C509.221+283.536+509.303+283.092+509.303+282.672C509.303+281.972+509.21+281.471+509.023+281.167C508.836+280.864+508.615+280.631+508.358+280.467C508.101+280.304+507.81+280.187+507.483+280.117C507.156+280.047+506.865+279.884+506.608+279.627C506.351+279.371+506.13+278.997+505.943+278.507C505.756+278.017+505.663+277.282+505.663+276.302Z" opacity="1" fill="#000000"/>
<path d="M527.853+286.942L527.853+292.332C528.74+291.399+529.778+290.641+530.968+290.057C532.158+289.474+533.546+289.182+535.133+289.182C536.766+289.182+538.283+289.532+539.683+290.232C541.083+290.932+542.308+291.994+543.358+293.417C544.408+294.841+545.236+296.637+545.843+298.807C546.45+300.977+546.753+303.556+546.753+306.542C546.753+312.376+545.656+316.902+543.463+320.122C541.27+323.342+538.353+324.952+534.713+324.952C533.173+324.952+531.855+324.661+530.758+324.077C529.661+323.494+528.693+322.666+527.853+321.592L527.853+340.282L520.783+342.032L520.783+286.942L527.853+286.942ZM532.683+293.732C531.656+293.732+530.735+294.024+529.918+294.607C529.101+295.191+528.413+296.019+527.853+297.092L527.853+318.092C528.506+318.932+529.241+319.539+530.058+319.912C530.875+320.286+531.68+320.472+532.473+320.472C533.64+320.472+534.666+320.099+535.553+319.352C536.44+318.606+537.198+317.591+537.828+316.307C538.458+315.024+538.936+313.519+539.263+311.792C539.59+310.066+539.753+308.222+539.753+306.262C539.753+303.836+539.531+301.817+539.088+300.207C538.645+298.597+538.073+297.314+537.373+296.357C536.673+295.401+535.903+294.724+535.063+294.327C534.223+293.931+533.43+293.732+532.683+293.732Z" opacity="1" fill="#000000"/>
<path d="M572.303+298.282C572.303+301.549+570.961+304.279+568.278+306.472C565.595+308.666+561.873+310.019+557.113+310.532C557.3+312.399+557.638+313.916+558.128+315.082C558.618+316.249+559.213+317.171+559.913+317.847C560.613+318.524+561.418+318.991+562.328+319.247C563.238+319.504+564.183+319.632+565.163+319.632C567.403+319.632+569.503+319.049+571.463+317.882C573.423+316.716+575.01+314.756+576.223+312.002L578.463+312.002C577.856+313.729+577.016+315.374+575.943+316.937C574.87+318.501+573.61+319.877+572.163+321.067C570.716+322.257+569.153+323.202+567.473+323.902C565.793+324.602+564.066+324.952+562.293+324.952C560.66+324.952+559.085+324.672+557.568+324.112C556.051+323.552+554.71+322.631+553.543+321.347C552.376+320.064+551.431+318.396+550.708+316.342C549.985+314.289+549.623+311.769+549.623+308.782C549.623+306.822+549.845+304.699+550.288+302.412C550.731+300.126+551.478+298.002+552.528+296.042C553.578+294.082+554.955+292.449+556.658+291.142C558.361+289.836+560.473+289.182+562.993+289.182C564.16+289.182+565.291+289.311+566.388+289.567C567.485+289.824+568.476+290.291+569.363+290.967C570.25+291.644+570.961+292.566+571.498+293.732C572.035+294.899+572.303+296.416+572.303+298.282ZM557.043+307.802C560.356+307.289+562.981+306.122+564.918+304.302C566.855+302.482+567.823+300.242+567.823+297.582C567.823+295.809+567.52+294.537+566.913+293.767C566.306+292.997+565.443+292.612+564.323+292.612C563.11+292.612+562.048+293.079+561.138+294.012C560.228+294.946+559.47+296.147+558.863+297.617C558.256+299.087+557.801+300.721+557.498+302.517C557.195+304.314+557.043+306.076+557.043+307.802Z" opacity="1" fill="#000000"/>
<path d="M612.833+289.532L619.553+306.612C620.253+305.679+620.976+304.676+621.723+303.602C622.47+302.529+623.146+301.421+623.753+300.277C624.36+299.134+624.861+297.991+625.258+296.847C625.655+295.704+625.853+294.619+625.853+293.592C625.853+293.359+625.853+293.149+625.853+292.962C625.853+292.776+625.83+292.589+625.783+292.402C625.363+292.589+624.873+292.682+624.313+292.682C623.286+292.682+622.388+292.344+621.618+291.667C620.848+290.991+620.463+290.092+620.463+288.972C620.463+287.946+620.813+287.082+621.513+286.382C622.213+285.682+623.1+285.332+624.173+285.332C625.526+285.332+626.67+285.927+627.603+287.117C628.536+288.307+629.003+290.022+629.003+292.262C629.003+294.922+628.291+297.582+626.868+300.242C625.445+302.902+623.403+306.006+620.743+309.552L621.723+312.002C622.143+313.076+622.551+314.079+622.948+315.012C623.345+315.946+623.753+316.751+624.173+317.427C624.593+318.104+625.048+318.641+625.538+319.037C626.028+319.434+626.6+319.632+627.253+319.632C627.72+319.632+628.245+319.562+628.828+319.422C629.411+319.282+629.82+319.096+630.053+318.862C630.1+319.096+630.123+319.317+630.123+319.527C630.123+319.737+630.123+319.959+630.123+320.192C630.123+321.219+629.971+322.036+629.668+322.642C629.365+323.249+628.968+323.727+628.478+324.077C627.988+324.427+627.451+324.661+626.868+324.777C626.285+324.894+625.736+324.952+625.223+324.952C623.123+324.952+621.326+324.252+619.833+322.852C618.34+321.452+616.846+319.142+615.353+315.922C614.28+317.789+613.148+319.306+611.958+320.472C610.768+321.639+609.555+322.561+608.318+323.237C607.081+323.914+605.891+324.369+604.748+324.602C603.605+324.836+602.566+324.952+601.633+324.952C599.16+324.952+597.363+324.334+596.243+323.097C595.123+321.861+594.4+320.309+594.073+318.442C593.186+320.729+592.008+322.386+590.538+323.412C589.068+324.439+587.563+324.952+586.023+324.952C584.67+324.952+583.386+324.766+582.173+324.392C580.96+324.019+579.91+323.401+579.023+322.537C578.136+321.674+577.436+320.554+576.923+319.177C576.41+317.801+576.153+316.109+576.153+314.102L576.153+289.532L583.153+289.532L583.153+313.332C583.153+315.619+583.55+317.241+584.343+318.197C585.136+319.154+586.14+319.632+587.353+319.632C588.006+319.632+588.66+319.457+589.313+319.107C589.966+318.757+590.55+318.256+591.063+317.602C591.576+316.949+591.996+316.156+592.323+315.222C592.65+314.289+592.813+313.216+592.813+312.002L592.813+289.532L599.813+289.532L599.813+313.332C599.813+315.619+600.14+317.241+600.793+318.197C601.446+319.154+602.543+319.632+604.083+319.632C605.763+319.632+607.513+319.107+609.333+318.057C611.153+317.007+612.74+315.292+614.093+312.912L604.853+289.532L612.833+289.532Z" opacity="1" fill="#000000"/>
<path d="M656.303+286.942L656.303+292.332C657.19+291.399+658.228+290.641+659.418+290.057C660.608+289.474+661.996+289.182+663.583+289.182C665.216+289.182+666.733+289.532+668.133+290.232C669.533+290.932+670.758+291.994+671.808+293.417C672.858+294.841+673.686+296.637+674.293+298.807C674.9+300.977+675.203+303.556+675.203+306.542C675.203+312.376+674.106+316.902+671.913+320.122C669.72+323.342+666.803+324.952+663.163+324.952C661.623+324.952+660.305+324.661+659.208+324.077C658.111+323.494+657.143+322.666+656.303+321.592L656.303+340.282L649.233+342.032L649.233+286.942L656.303+286.942ZM661.133+293.732C660.106+293.732+659.185+294.024+658.368+294.607C657.551+295.191+656.863+296.019+656.303+297.092L656.303+318.092C656.956+318.932+657.691+319.539+658.508+319.912C659.325+320.286+660.13+320.472+660.923+320.472C662.09+320.472+663.116+320.099+664.003+319.352C664.89+318.606+665.648+317.591+666.278+316.307C666.908+315.024+667.386+313.519+667.713+311.792C668.04+310.066+668.203+308.222+668.203+306.262C668.203+303.836+667.981+301.817+667.538+300.207C667.095+298.597+666.523+297.314+665.823+296.357C665.123+295.401+664.353+294.724+663.513+294.327C662.673+293.931+661.88+293.732+661.133+293.732Z" opacity="1" fill="#000000"/>
<path d="M704.673+289.532L704.673+313.332C704.673+313.799+704.696+314.382+704.743+315.082C704.79+315.782+704.918+316.471+705.128+317.147C705.338+317.824+705.653+318.407+706.073+318.897C706.493+319.387+707.076+319.632+707.823+319.632C710.11+319.632+711.79+317.089+712.863+312.002L715.453+312.002C714.94+314.942+714.286+317.264+713.493+318.967C712.7+320.671+711.86+321.966+710.973+322.852C710.086+323.739+709.176+324.311+708.243+324.567C707.31+324.824+706.47+324.952+705.723+324.952C704.65+324.952+703.728+324.766+702.958+324.392C702.188+324.019+701.535+323.529+700.998+322.922C700.461+322.316+700.03+321.616+699.703+320.822C699.376+320.029+699.12+319.189+698.933+318.302C698.233+320.122+697.101+321.686+695.538+322.992C693.975+324.299+692.073+324.952+689.833+324.952C688.433+324.952+687.021+324.672+685.598+324.112C684.175+323.552+682.891+322.631+681.748+321.347C680.605+320.064+679.671+318.407+678.948+316.377C678.225+314.347+677.863+311.862+677.863+308.922C677.863+306.776+678.108+304.536+678.598+302.202C679.088+299.869+679.87+297.746+680.943+295.832C682.016+293.919+683.393+292.332+685.073+291.072C686.753+289.812+688.783+289.182+691.163+289.182C691.723+289.182+692.318+289.241+692.948+289.357C693.578+289.474+694.185+289.672+694.768+289.952C695.351+290.232+695.9+290.617+696.413+291.107C696.926+291.597+697.346+292.192+697.673+292.892L697.673+289.532L704.673+289.532ZM691.583+319.632C692.283+319.632+692.995+319.434+693.718+319.037C694.441+318.641+695.095+318.104+695.678+317.427C696.261+316.751+696.74+315.946+697.113+315.012C697.486+314.079+697.673+313.076+697.673+312.002L697.673+296.042C697.346+295.296+696.845+294.607+696.168+293.977C695.491+293.347+694.616+293.032+693.543+293.032C692.05+293.032+690.766+293.534+689.693+294.537C688.62+295.541+687.756+296.801+687.103+298.317C686.45+299.834+685.971+301.491+685.668+303.287C685.365+305.084+685.213+306.799+685.213+308.432C685.213+312.446+685.761+315.316+686.858+317.042C687.955+318.769+689.53+319.632+691.583+319.632Z" opacity="1" fill="#000000"/>
<path d="M726.723+287.362C727.843+291.842+728.776+295.494+729.523+298.317C730.27+301.141+730.865+303.521+731.308+305.457C731.751+307.394+732.066+309.109+732.253+310.602C732.44+312.096+732.533+313.752+732.533+315.572C732.533+317.299+732.16+318.757+731.413+319.947C730.666+321.137+729.733+322.106+728.613+322.852C727.493+323.599+726.303+324.136+725.043+324.462C723.783+324.789+722.663+324.952+721.683+324.952C719.63+324.952+717.938+324.626+716.608+323.972C715.278+323.319+714.216+322.491+713.423+321.487C712.63+320.484+712.07+319.364+711.743+318.127C711.416+316.891+711.253+315.712+711.253+314.592C711.253+313.379+711.498+312.317+711.988+311.407C712.478+310.497+713.073+309.856+713.773+309.482C714.986+305.982+716.176+302.517+717.343+299.087C718.51+295.657+719.28+292.216+719.653+288.762L726.723+287.362ZM725.113+314.802C725.113+313.356+725.031+312.072+724.868+310.952C724.705+309.832+724.46+308.596+724.133+307.242C723.806+305.889+723.398+304.244+722.908+302.307C722.418+300.371+721.846+297.886+721.193+294.852C720.913+297.466+720.341+299.962+719.478+302.342C718.615+304.722+717.833+307.172+717.133+309.692C717.553+309.972+717.915+310.357+718.218+310.847C718.521+311.337+718.673+311.979+718.673+312.772C718.673+313.659+718.44+314.336+717.973+314.802C717.506+315.269+716.993+315.502+716.433+315.502C715.686+315.502+715.056+315.176+714.543+314.522C714.916+316.156+715.57+317.427+716.503+318.337C717.436+319.247+718.673+319.702+720.213+319.702C721.706+319.702+722.896+319.317+723.783+318.547C724.67+317.777+725.113+316.529+725.113+314.802Z" opacity="1" fill="#000000"/>
</g>
<g opacity="1">
<path d="M440.913+726.25L440.913+775.95C440.913+778.61+440.68+781.002+440.213+783.125C439.746+785.248+438.953+787.068+437.833+788.585C436.713+790.102+435.231+791.257+433.388+792.05C431.545+792.843+429.246+793.24+426.493+793.24C424.253+793.24+422.328+792.972+420.718+792.435C419.108+791.898+417.801+791.163+416.798+790.23C415.795+789.297+415.06+788.177+414.593+786.87C414.126+785.563+413.893+784.163+413.893+782.67C413.893+781.69+414.021+780.687+414.278+779.66C414.535+778.633+414.978+777.7+415.608+776.86C416.238+776.02+417.066+775.332+418.093+774.795C419.12+774.258+420.426+773.99+422.013+773.99C423.926+773.99+425.396+774.422+426.423+775.285C427.45+776.148+427.963+777.63+427.963+779.73C427.963+779.87+427.951+780.022+427.928+780.185C427.905+780.348+427.893+780.523+427.893+780.71C427.24+780.103+426.563+779.66+425.863+779.38C425.163+779.1+424.486+778.96+423.833+778.96C422.62+778.96+421.558+779.415+420.648+780.325C419.738+781.235+419.283+782.553+419.283+784.28C419.283+785.26+419.481+786.123+419.878+786.87C420.275+787.617+420.8+788.247+421.453+788.76C422.106+789.273+422.83+789.67+423.623+789.95C424.416+790.23+425.233+790.37+426.073+790.37C426.96+790.37+427.823+790.195+428.663+789.845C429.503+789.495+430.25+788.947+430.903+788.2C431.556+787.453+432.081+786.497+432.478+785.33C432.875+784.163+433.073+782.763+433.073+781.13L433.073+730.31C429.853+731.103+427.368+732.62+425.618+734.86C423.868+737.1+422.993+739.9+422.993+743.26C422.993+744.473+423.098+745.535+423.308+746.445C423.518+747.355+423.786+748.125+424.113+748.755C424.44+749.385+424.79+749.898+425.163+750.295C425.536+750.692+425.886+751.007+426.213+751.24C423.413+751.24+421.196+750.587+419.563+749.28C417.93+747.973+417.113+745.92+417.113+743.12C417.113+740.74+417.696+738.523+418.863+736.47C420.03+734.417+421.593+732.632+423.553+731.115C425.513+729.598+427.753+728.408+430.273+727.545C432.793+726.682+435.383+726.25+438.043+726.25L440.913+726.25Z" opacity="1" fill="#000000"/>
<path d="M446.583+730.52C446.583+729.913+446.723+729.353+447.003+728.84C447.283+728.327+447.645+727.895+448.088+727.545C448.531+727.195+449.021+726.915+449.558+726.705C450.095+726.495+450.62+726.39+451.133+726.39C452.906+726.39+454.178+726.927+454.948+728C455.718+729.073+456.103+730.403+456.103+731.99C456.103+733.11+455.928+734.288+455.578+735.525C455.228+736.762+454.761+737.952+454.178+739.095C453.595+740.238+452.918+741.265+452.148+742.175C451.378+743.085+450.55+743.75+449.663+744.17C449.243+743.937+448.975+743.668+448.858+743.365C448.741+743.062+448.683+742.77+448.683+742.49C448.683+742.023+448.765+741.545+448.928+741.055C449.091+740.565+449.266+740.087+449.453+739.62C449.64+739.153+449.815+738.687+449.978+738.22C450.141+737.753+450.223+737.31+450.223+736.89C450.223+736.19+450.13+735.688+449.943+735.385C449.756+735.082+449.535+734.848+449.278+734.685C449.021+734.522+448.73+734.405+448.403+734.335C448.076+734.265+447.785+734.102+447.528+733.845C447.271+733.588+447.05+733.215+446.863+732.725C446.676+732.235+446.583+731.5+446.583+730.52Z" opacity="1" fill="#000000"/>
<path d="M486.343+743.75L486.343+767.55C486.343+768.017+486.366+768.6+486.413+769.3C486.46+770+486.588+770.688+486.798+771.365C487.008+772.042+487.323+772.625+487.743+773.115C488.163+773.605+488.746+773.85+489.493+773.85C491.78+773.85+493.46+771.307+494.533+766.22L497.123+766.22C496.61+769.16+495.956+771.482+495.163+773.185C494.37+774.888+493.53+776.183+492.643+777.07C491.756+777.957+490.846+778.528+489.913+778.785C488.98+779.042+488.14+779.17+487.393+779.17C486.32+779.17+485.398+778.983+484.628+778.61C483.858+778.237+483.205+777.747+482.668+777.14C482.131+776.533+481.7+775.833+481.373+775.04C481.046+774.247+480.79+773.407+480.603+772.52C479.903+774.34+478.771+775.903+477.208+777.21C475.645+778.517+473.743+779.17+471.503+779.17C470.103+779.17+468.691+778.89+467.268+778.33C465.845+777.77+464.561+776.848+463.418+775.565C462.275+774.282+461.341+772.625+460.618+770.595C459.895+768.565+459.533+766.08+459.533+763.14C459.533+760.993+459.778+758.753+460.268+756.42C460.758+754.087+461.54+751.963+462.613+750.05C463.686+748.137+465.063+746.55+466.743+745.29C468.423+744.03+470.453+743.4+472.833+743.4C473.393+743.4+473.988+743.458+474.618+743.575C475.248+743.692+475.855+743.89+476.438+744.17C477.021+744.45+477.57+744.835+478.083+745.325C478.596+745.815+479.016+746.41+479.343+747.11L479.343+743.75L486.343+743.75ZM473.253+773.85C473.953+773.85+474.665+773.652+475.388+773.255C476.111+772.858+476.765+772.322+477.348+771.645C477.931+770.968+478.41+770.163+478.783+769.23C479.156+768.297+479.343+767.293+479.343+766.22L479.343+750.26C479.016+749.513+478.515+748.825+477.838+748.195C477.161+747.565+476.286+747.25+475.213+747.25C473.72+747.25+472.436+747.752+471.363+748.755C470.29+749.758+469.426+751.018+468.773+752.535C468.12+754.052+467.641+755.708+467.338+757.505C467.035+759.302+466.883+761.017+466.883+762.65C466.883+766.663+467.431+769.533+468.528+771.26C469.625+772.987+471.2+773.85+473.253+773.85Z" opacity="1" fill="#000000"/>
<path d="M493.273+733.67C493.273+732.41+493.716+731.313+494.603+730.38C495.49+729.447+496.586+728.98+497.893+728.98C499.153+728.98+500.25+729.447+501.183+730.38C502.116+731.313+502.583+732.41+502.583+733.67C502.583+734.977+502.116+736.073+501.183+736.96C500.25+737.847+499.153+738.29+497.893+738.29C496.586+738.29+495.49+737.847+494.603+736.96C493.716+736.073+493.273+734.977+493.273+733.67ZM501.533+743.75L501.533+767.55C501.533+768.11+501.545+768.752+501.568+769.475C501.591+770.198+501.708+770.887+501.918+771.54C502.128+772.193+502.431+772.742+502.828+773.185C503.225+773.628+503.82+773.85+504.613+773.85C504.986+773.85+505.441+773.803+505.978+773.71C506.515+773.617+506.923+773.523+507.203+773.43C507.25+773.663+507.285+773.873+507.308+774.06C507.331+774.247+507.343+774.457+507.343+774.69C507.343+775.483+507.168+776.172+506.818+776.755C506.468+777.338+506.013+777.805+505.453+778.155C504.893+778.505+504.263+778.762+503.563+778.925C502.863+779.088+502.163+779.17+501.463+779.17C500.063+779.17+498.92+778.878+498.033+778.295C497.146+777.712+496.435+776.942+495.898+775.985C495.361+775.028+495+773.967+494.813+772.8C494.626+771.633+494.533+770.467+494.533+769.3L494.533+743.75L501.533+743.75Z" opacity="1" fill="#000000"/>
<path d="M529.603+743.19C529.603+744.45+529.708+745.547+529.918+746.48C530.128+747.413+530.373+748.195+530.653+748.825C530.933+749.455+531.201+749.957+531.458+750.33C531.715+750.703+531.913+751.007+532.053+751.24C529.44+751.24+527.386+750.575+525.893+749.245C524.4+747.915+523.653+745.873+523.653+743.12C523.653+740.787+524.248+738.593+525.438+736.54C526.628+734.487+528.238+732.702+530.268+731.185C532.298+729.668+534.678+728.467+537.408+727.58C540.138+726.693+543.043+726.25+546.123+726.25C548.876+726.25+551.268+726.588+553.298+727.265C555.328+727.942+557.008+728.863+558.338+730.03C559.668+731.197+560.66+732.527+561.313+734.02C561.966+735.513+562.293+737.053+562.293+738.64C562.293+740.413+561.826+742.175+560.893+743.925C559.96+745.675+558.606+747.157+556.833+748.37C560.426+748.743+563.308+750.167+565.478+752.64C567.648+755.113+568.733+758.567+568.733+763C568.733+764.493+568.57+766.208+568.243+768.145C567.916+770.082+567.321+771.925+566.458+773.675C565.595+775.425+564.393+776.907+562.853+778.12C561.313+779.333+559.353+779.94+556.973+779.94C555.946+779.94+554.966+779.812+554.033+779.555C553.1+779.298+552.271+778.925+551.548+778.435C550.825+777.945+550.253+777.315+549.833+776.545C549.413+775.775+549.203+774.9+549.203+773.92C549.203+773.64+549.226+773.255+549.273+772.765C549.32+772.275+549.39+771.867+549.483+771.54C550.136+772.567+550.953+773.278+551.933+773.675C552.913+774.072+553.823+774.27+554.663+774.27C555.83+774.27+556.798+773.943+557.568+773.29C558.338+772.637+558.933+771.797+559.353+770.77C559.773+769.743+560.065+768.612+560.228+767.375C560.391+766.138+560.473+764.913+560.473+763.7C560.473+759.267+559.621+756.07+557.918+754.11C556.215+752.15+553.846+751.17+550.813+751.17C550.253+751.17+549.553+751.193+548.713+751.24C547.873+751.287+547.056+751.357+546.263+751.45L546.263+778.75L538.703+778.75L538.703+733.88L546.263+732.83L546.263+748.65L547.243+748.65C548.55+748.65+549.775+748.335+550.918+747.705C552.061+747.075+553.053+746.247+553.893+745.22C554.733+744.193+555.386+743.062+555.853+741.825C556.32+740.588+556.553+739.363+556.553+738.15C556.553+735.397+555.62+733.145+553.753+731.395C551.886+729.645+549.11+728.77+545.423+728.77C543.416+728.77+541.456+729.062+539.543+729.645C537.63+730.228+535.938+731.115+534.468+732.305C532.998+733.495+531.82+735+530.933+736.82C530.046+738.64+529.603+740.763+529.603+743.19Z" opacity="1" fill="#000000"/>
<path d="M594.493+752.5C594.493+755.767+593.151+758.497+590.468+760.69C587.785+762.883+584.063+764.237+579.303+764.75C579.49+766.617+579.828+768.133+580.318+769.3C580.808+770.467+581.403+771.388+582.103+772.065C582.803+772.742+583.608+773.208+584.518+773.465C585.428+773.722+586.373+773.85+587.353+773.85C589.593+773.85+591.693+773.267+593.653+772.1C595.613+770.933+597.2+768.973+598.413+766.22L600.653+766.22C600.046+767.947+599.206+769.592+598.133+771.155C597.06+772.718+595.8+774.095+594.353+775.285C592.906+776.475+591.343+777.42+589.663+778.12C587.983+778.82+586.256+779.17+584.483+779.17C582.85+779.17+581.275+778.89+579.758+778.33C578.241+777.77+576.9+776.848+575.733+775.565C574.566+774.282+573.621+772.613+572.898+770.56C572.175+768.507+571.813+765.987+571.813+763C571.813+761.04+572.035+758.917+572.478+756.63C572.921+754.343+573.668+752.22+574.718+750.26C575.768+748.3+577.145+746.667+578.848+745.36C580.551+744.053+582.663+743.4+585.183+743.4C586.35+743.4+587.481+743.528+588.578+743.785C589.675+744.042+590.666+744.508+591.553+745.185C592.44+745.862+593.151+746.783+593.688+747.95C594.225+749.117+594.493+750.633+594.493+752.5ZM579.233+762.02C582.546+761.507+585.171+760.34+587.108+758.52C589.045+756.7+590.013+754.46+590.013+751.8C590.013+750.027+589.71+748.755+589.103+747.985C588.496+747.215+587.633+746.83+586.513+746.83C585.3+746.83+584.238+747.297+583.328+748.23C582.418+749.163+581.66+750.365+581.053+751.835C580.446+753.305+579.991+754.938+579.688+756.735C579.385+758.532+579.233+760.293+579.233+762.02Z" opacity="1" fill="#000000"/>
<path d="M620.253+752.5C620.253+755.767+618.911+758.497+616.228+760.69C613.545+762.883+609.823+764.237+605.063+764.75C605.25+766.617+605.588+768.133+606.078+769.3C606.568+770.467+607.163+771.388+607.863+772.065C608.563+772.742+609.368+773.208+610.278+773.465C611.188+773.722+612.133+773.85+613.113+773.85C615.353+773.85+617.453+773.267+619.413+772.1C621.373+770.933+622.96+768.973+624.173+766.22L626.413+766.22C625.806+767.947+624.966+769.592+623.893+771.155C622.82+772.718+621.56+774.095+620.113+775.285C618.666+776.475+617.103+777.42+615.423+778.12C613.743+778.82+612.016+779.17+610.243+779.17C608.61+779.17+607.035+778.89+605.518+778.33C604.001+777.77+602.66+776.848+601.493+775.565C600.326+774.282+599.381+772.613+598.658+770.56C597.935+768.507+597.573+765.987+597.573+763C597.573+761.04+597.795+758.917+598.238+756.63C598.681+754.343+599.428+752.22+600.478+750.26C601.528+748.3+602.905+746.667+604.608+745.36C606.311+744.053+608.423+743.4+610.943+743.4C612.11+743.4+613.241+743.528+614.338+743.785C615.435+744.042+616.426+744.508+617.313+745.185C618.2+745.862+618.911+746.783+619.448+747.95C619.985+749.117+620.253+750.633+620.253+752.5ZM604.993+762.02C608.306+761.507+610.931+760.34+612.868+758.52C614.805+756.7+615.773+754.46+615.773+751.8C615.773+750.027+615.47+748.755+614.863+747.985C614.256+747.215+613.393+746.83+612.273+746.83C611.06+746.83+609.998+747.297+609.088+748.23C608.178+749.163+607.42+750.365+606.813+751.835C606.206+753.305+605.751+754.938+605.448+756.735C605.145+758.532+604.993+760.293+604.993+762.02Z" opacity="1" fill="#000000"/>
<path d="M631.103+743.75L631.103+749.63C631.663+748.79+632.211+747.997+632.748+747.25C633.285+746.503+633.88+745.85+634.533+745.29C635.186+744.73+635.91+744.275+636.703+743.925C637.496+743.575+638.383+743.4+639.363+743.4C640.95+743.4+642.116+743.808+642.863+744.625C643.61+745.442+643.983+746.433+643.983+747.6C643.983+748.3+643.866+748.883+643.633+749.35C643.4+749.817+643.12+750.19+642.793+750.47C642.466+750.75+642.116+750.948+641.743+751.065C641.37+751.182+641.043+751.24+640.763+751.24C640.343+751.24+640.005+751.147+639.748+750.96C639.491+750.773+639.235+750.575+638.978+750.365C638.721+750.155+638.43+749.957+638.103+749.77C637.776+749.583+637.356+749.49+636.843+749.49C635.77+749.49+634.743+749.863+633.763+750.61C632.783+751.357+631.896+752.15+631.103+752.99L631.103+778.75L624.103+778.75L624.103+743.75L631.103+743.75Z" opacity="1" fill="#000000"/>
<path d="M683.253+732.83L683.253+756.63C685.306+756.63+687.068+756.198+688.538+755.335C690.008+754.472+691.21+753.363+692.143+752.01C693.076+750.657+693.765+749.128+694.208+747.425C694.651+745.722+694.873+744.03+694.873+742.35C694.873+740.857+694.721+739.317+694.418+737.73C694.115+736.143+693.473+734.685+692.493+733.355C691.513+732.025+690.113+730.928+688.293+730.065C686.473+729.202+684.046+728.77+681.013+728.77C678.96+728.77+677.023+729.085+675.203+729.715C673.383+730.345+671.808+731.255+670.478+732.445C669.148+733.635+668.098+735.105+667.328+736.855C666.558+738.605+666.173+740.623+666.173+742.91C666.173+744.357+666.29+745.57+666.523+746.55C666.756+747.53+667.036+748.347+667.363+749C667.69+749.653+668.016+750.155+668.343+750.505C668.67+750.855+668.926+751.1+669.113+751.24C666.5+751.24+664.446+750.587+662.953+749.28C661.46+747.973+660.713+745.803+660.713+742.77C660.713+740.53+661.296+738.418+662.463+736.435C663.63+734.452+665.193+732.702+667.153+731.185C669.113+729.668+671.376+728.467+673.943+727.58C676.51+726.693+679.216+726.25+682.063+726.25C685.143+726.25+687.896+726.635+690.323+727.405C692.75+728.175+694.78+729.248+696.413+730.625C698.046+732.002+699.295+733.6+700.158+735.42C701.021+737.24+701.453+739.2+701.453+741.3C701.453+743.26+701.103+745.278+700.403+747.355C699.703+749.432+698.653+751.31+697.253+752.99C695.853+754.67+694.115+756.058+692.038+757.155C689.961+758.252+687.546+758.8+684.793+758.8L683.253+758.8L683.253+778.75L675.693+778.75L675.693+733.88L683.253+732.83Z" opacity="1" fill="#000000"/>
<path d="M715.313+743.4C717.133+743.4+718.696+743.68+720.003+744.24C721.31+744.8+722.383+745.582+723.223+746.585C724.063+747.588+724.728+748.767+725.218+750.12C725.708+751.473+726.07+752.92+726.303+754.46L726.723+754.46C728.683+754.46+730.48+754.063+732.113+753.27C733.746+752.477+735.146+751.473+736.313+750.26L737.363+752.15C736.43+753.643+734.948+754.88+732.918+755.86C730.888+756.84+728.8+757.517+726.653+757.89C726.653+758.357+726.665+758.823+726.688+759.29C726.711+759.757+726.723+760.247+726.723+760.76C726.723+766.5+725.673+771.003+723.573+774.27C721.473+777.537+718.533+779.17+714.753+779.17C713.213+779.17+711.661+778.89+710.098+778.33C708.535+777.77+707.123+776.837+705.863+775.53C704.603+774.223+703.588+772.543+702.818+770.49C702.048+768.437+701.663+765.893+701.663+762.86C701.663+760.807+701.885+758.637+702.328+756.35C702.771+754.063+703.518+751.963+704.568+750.05C705.618+748.137+707.018+746.55+708.768+745.29C710.518+744.03+712.7+743.4+715.313+743.4ZM716.013+773.85C718.486+773.85+720.306+772.625+721.473+770.175C722.64+767.725+723.223+764.26+723.223+759.78C723.223+759.5+723.223+759.22+723.223+758.94C723.223+758.66+723.2+758.38+723.153+758.1C721.8+758.007+720.831+757.703+720.248+757.19C719.665+756.677+719.373+755.813+719.373+754.6C719.373+753.527+719.606+752.768+720.073+752.325C720.54+751.882+721.24+751.637+722.173+751.59C721.613+749.957+720.901+748.825+720.038+748.195C719.175+747.565+718.206+747.25+717.133+747.25C715.686+747.25+714.461+747.728+713.458+748.685C712.455+749.642+711.638+750.867+711.008+752.36C710.378+753.853+709.923+755.498+709.643+757.295C709.363+759.092+709.223+760.853+709.223+762.58C709.223+764.867+709.433+766.733+709.853+768.18C710.273+769.627+710.81+770.77+711.463+771.61C712.116+772.45+712.84+773.033+713.633+773.36C714.426+773.687+715.22+773.85+716.013+773.85Z" opacity="1" fill="#000000"/>
<path d="M738.833+743.75L738.833+749.07C739.533+747.81+740.245+746.795+740.968+746.025C741.691+745.255+742.426+744.683+743.173+744.31C743.92+743.937+744.631+743.692+745.308+743.575C745.985+743.458+746.626+743.4+747.233+743.4C749.333+743.4+751.025+743.797+752.308+744.59C753.591+745.383+754.56+746.398+755.213+747.635C755.866+748.872+756.298+750.225+756.508+751.695C756.718+753.165+756.823+754.577+756.823+755.93C756.823+756.77+756.8+757.692+756.753+758.695C756.706+759.698+756.66+760.725+756.613+761.775C756.566+762.825+756.52+763.875+756.473+764.925C756.426+765.975+756.403+766.943+756.403+767.83C756.403+768.203+756.426+768.728+756.473+769.405C756.52+770.082+756.636+770.747+756.823+771.4C757.01+772.053+757.313+772.625+757.733+773.115C758.153+773.605+758.76+773.85+759.553+773.85C760.626+773.85+761.595+773.243+762.458+772.03C763.321+770.817+764.033+768.88+764.593+766.22L767.183+766.22C766.67+769.16+766.016+771.482+765.223+773.185C764.43+774.888+763.59+776.183+762.703+777.07C761.816+777.957+760.93+778.528+760.043+778.785C759.156+779.042+758.34+779.17+757.593+779.17C756.1+779.17+754.84+778.878+753.813+778.295C752.786+777.712+751.946+776.93+751.293+775.95C750.64+774.97+750.161+773.827+749.858+772.52C749.555+771.213+749.403+769.86+749.403+768.46C749.403+768.04+749.415+767.258+749.438+766.115C749.461+764.972+749.485+763.747+749.508+762.44C749.531+761.133+749.555+759.897+749.578+758.73C749.601+757.563+749.613+756.747+749.613+756.28C749.613+754.787+749.496+753.55+749.263+752.57C749.03+751.59+748.703+750.82+748.283+750.26C747.863+749.7+747.385+749.303+746.848+749.07C746.311+748.837+745.74+748.72+745.133+748.72C743.686+748.72+742.438+749.303+741.388+750.47C740.338+751.637+739.486+753.597+738.833+756.35L738.833+778.75L731.833+778.75L731.833+743.75L738.833+743.75Z" opacity="1" fill="#000000"/>
<path d="M790.353+743.75L790.353+784.28C790.353+786.473+790.12+788.328+789.653+789.845C789.186+791.362+788.545+792.598+787.728+793.555C786.911+794.512+785.978+795.2+784.928+795.62C783.878+796.04+782.77+796.25+781.603+796.25C779.27+796.25+777.45+795.585+776.143+794.255C774.836+792.925+774.183+791.303+774.183+789.39C774.183+788.177+774.451+787.08+774.988+786.1C775.525+785.12+776.225+784.222+777.088+783.405C777.951+782.588+778.931+781.865+780.028+781.235C781.125+780.605+782.233+780.057+783.353+779.59L783.353+773.57C782.466+774.783+781.358+775.787+780.028+776.58C778.698+777.373+777.193+777.77+775.513+777.77C774.113+777.77+772.701+777.502+771.278+776.965C769.855+776.428+768.571+775.553+767.428+774.34C766.285+773.127+765.351+771.54+764.628+769.58C763.905+767.62+763.543+765.24+763.543+762.44C763.543+760.34+763.788+758.17+764.278+755.93C764.768+753.69+765.55+751.648+766.623+749.805C767.696+747.962+769.073+746.433+770.753+745.22C772.433+744.007+774.463+743.4+776.843+743.4C777.403+743.4+777.998+743.458+778.628+743.575C779.258+743.692+779.865+743.89+780.448+744.17C781.031+744.45+781.58+744.835+782.093+745.325C782.606+745.815+783.026+746.41+783.353+747.11L783.353+743.75L790.353+743.75ZM777.263+772.45C777.963+772.45+778.675+772.263+779.398+771.89C780.121+771.517+780.775+771.003+781.358+770.35C781.941+769.697+782.42+768.927+782.793+768.04C783.166+767.153+783.353+766.197+783.353+765.17L783.353+750.26C783.026+749.513+782.525+748.825+781.848+748.195C781.171+747.565+780.296+747.25+779.223+747.25C777.73+747.25+776.446+747.728+775.373+748.685C774.3+749.642+773.436+750.843+772.783+752.29C772.13+753.737+771.651+755.323+771.348+757.05C771.045+758.777+770.893+760.41+770.893+761.95C770.893+765.73+771.441+768.425+772.538+770.035C773.635+771.645+775.21+772.45+777.263+772.45ZM780.273+792.61C781.533+792.61+782.361+792.132+782.758+791.175C783.155+790.218+783.353+788.923+783.353+787.29L783.353+782.39C781.02+783.463+779.363+784.525+778.383+785.575C777.403+786.625+776.913+787.803+776.913+789.11C776.913+790.183+777.205+791.035+777.788+791.665C778.371+792.295+779.2+792.61+780.273+792.61Z" opacity="1" fill="#000000"/>
</g>
<g opacity="1">
<path d="M491.177+389.841C491.177+389.841+496.845+377.089+546.602+377.09C593.744+377.092+602.163+388.393+602.163+390.494C602.163+392.596+585.037+518.535+585.037+518.535C585.037+518.535+581.209+528.472+546.67+528.472C512.131+528.472+507.477+518.535+507.477+518.535L491.177+389.841Z" opacity="1" fill="#ffffff"/>
<path d="M492.908+391.726C492.908+391.726+501.452+404.206+546.602+404.362C592.216+404.519+600.296+391.726+600.296+391.726L583.725+515.402C583.725+515.402+580.021+524.822+546.602+524.822C513.183+524.822+508.679+515.402+508.679+515.402L492.908+391.726Z" opacity="1" fill="#000000"/>
<path d="M499.284+391.637C499.284+386.838+519.67+383.038+545.792+383.038C571.915+383.038+594.057+386.838+594.057+391.637C594.057+396.436+572.792+401.903+546.67+401.903C520.548+401.903+499.284+396.436+499.284+391.637Z" opacity="1" fill="#000000"/>
<path stroke="#000000" stroke-width="1.97" d="M493.888+393.579C493.888+393.579+493.525+391.958+493.611+391.618C494.203+389.265+499.491+380.037+542.766+380.138C595.543+380.261+599.379+390.079+599.634+391.883C599.659+392.059+599.354+393.56+599.354+393.56" fill="none" stroke-linecap="round" opacity="1" stroke-linejoin="round"/>
</g>
<g opacity="1">
<path d="M602.163+389.841C602.163+389.841+607.831+377.089+657.588+377.09C704.73+377.092+713.148+388.393+713.148+390.494C713.148+392.596+696.022+518.535+696.022+518.535C696.022+518.535+692.194+528.472+657.656+528.472C623.117+528.472+618.462+518.535+618.462+518.535L602.163+389.841Z" opacity="1" fill="#ffffff"/>
<path d="M603.894+391.726C603.894+391.726+612.438+404.206+657.588+404.362C703.201+404.519+711.281+391.726+711.281+391.726L694.711+515.402C694.711+515.402+691.007+524.822+657.588+524.822C624.168+524.822+619.665+515.402+619.665+515.402L603.894+391.726Z" opacity="1" fill="#000000"/>
<path d="M610.269+391.637C610.269+386.838+630.656+383.038+656.778+383.038C682.9+383.038+705.042+386.838+705.042+391.637C705.042+396.436+683.778+401.903+657.656+401.903C631.533+401.903+610.269+396.436+610.269+391.637Z" opacity="1" fill="#000000"/>
<path stroke="#000000" stroke-width="1.97" d="M604.873+393.579C604.873+393.579+604.511+391.958+604.597+391.618C605.189+389.265+610.477+380.037+653.752+380.138C706.528+380.261+710.364+390.079+710.619+391.883C710.644+392.059+710.339+393.56+710.339+393.56" fill="none" stroke-linecap="round" opacity="1" stroke-linejoin="round"/>
</g>
<g opacity="1">
<path d="M713.148+389.841C713.148+389.841+718.816+377.089+768.573+377.09C815.715+377.092+824.134+388.393+824.134+390.494C824.134+392.596+807.008+518.535+807.008+518.535C807.008+518.535+803.18+528.472+768.641+528.472C734.102+528.472+729.448+518.535+729.448+518.535L713.148+389.841Z" opacity="1" fill="#ffffff"/>
<path d="M714.879+391.726C714.879+391.726+723.423+404.206+768.573+404.362C814.187+404.519+822.267+391.726+822.267+391.726L805.696+515.402C805.696+515.402+801.992+524.822+768.573+524.822C735.154+524.822+730.65+515.402+730.65+515.402L714.879+391.726Z" opacity="1" fill="#000000"/>
<path d="M721.255+391.637C721.255+386.838+741.641+383.038+767.763+383.038C793.886+383.038+816.028+386.838+816.028+391.637C816.028+396.436+794.763+401.903+768.641+401.903C742.519+401.903+721.255+396.436+721.255+391.637Z" opacity="1" fill="#000000"/>
<path stroke="#000000" stroke-width="1.97" d="M715.859+393.579C715.859+393.579+715.496+391.958+715.582+391.618C716.174+389.265+721.462+380.037+764.737+380.138C817.514+380.261+821.35+390.079+821.605+391.883C821.629+392.059+821.325+393.56+821.325+393.56" fill="none" stroke-linecap="round" opacity="1" stroke-linejoin="round"/>
</g>
<g opacity="1">
<path d="M437.15+438.392C437.15+438.392+442.817+425.64+492.575+425.641C539.717+425.643+548.135+436.944+548.135+439.045C548.135+441.147+531.009+567.086+531.009+567.086C531.009+567.086+527.181+577.023+492.643+577.023C458.104+577.023+453.449+567.086+453.449+567.086L437.15+438.392Z" opacity="1" fill="#ffffff"/>
<path d="M438.881+440.277C438.881+440.277+447.425+452.757+492.575+452.913C538.188+453.07+546.268+440.277+546.268+440.277L529.697+563.953C529.697+563.953+525.994+573.373+492.575+573.373C459.155+573.373+454.652+563.953+454.652+563.953L438.881+440.277Z" opacity="1" fill="#000000"/>
<path d="M445.256+440.188C445.256+435.389+465.643+431.589+491.765+431.589C517.887+431.589+540.029+435.389+540.029+440.188C540.029+444.987+518.765+450.454+492.643+450.454C466.52+450.454+445.256+444.987+445.256+440.188Z" opacity="1" fill="#000000"/>
<path stroke="#000000" stroke-width="1.97" d="M439.86+442.13C439.86+442.13+439.498+440.509+439.584+440.169C440.176+437.816+445.464+428.588+488.739+428.689C541.515+428.812+545.351+438.63+545.606+440.434C545.631+440.61+545.326+442.111+545.326+442.111" fill="none" stroke-linecap="round" opacity="1" stroke-linejoin="round"/>
</g>
<g opacity="1">
<path d="M548.135+438.392C548.135+438.392+553.803+425.64+603.56+425.641C650.702+425.643+659.121+436.944+659.121+439.045C659.121+441.147+641.995+567.086+641.995+567.086C641.995+567.086+638.167+577.023+603.628+577.023C569.089+577.023+564.435+567.086+564.435+567.086L548.135+438.392Z" opacity="1" fill="#ffffff"/>
<path d="M549.866+440.277C549.866+440.277+558.41+452.757+603.56+452.913C649.174+453.07+657.254+440.277+657.254+440.277L640.683+563.953C640.683+563.953+636.979+573.373+603.56+573.373C570.141+573.373+565.637+563.953+565.637+563.953L549.866+440.277Z" opacity="1" fill="#000000"/>
<path d="M556.241+440.188C556.241+435.389+576.628+431.589+602.75+431.589C628.873+431.589+651.014+435.389+651.014+440.188C651.014+444.987+629.75+450.454+603.628+450.454C577.506+450.454+556.241+444.987+556.241+440.188Z" opacity="1" fill="#000000"/>
<path stroke="#000000" stroke-width="1.97" d="M550.846+442.13C550.846+442.13+550.483+440.509+550.569+440.169C551.161+437.816+556.449+428.588+599.724+428.689C652.501+428.812+656.337+438.63+656.591+440.434C656.616+440.61+656.312+442.111+656.312+442.111" fill="none" stroke-linecap="round" opacity="1" stroke-linejoin="round"/>
</g>
<g opacity="1">
<path d="M659.121+438.392C659.121+438.392+664.788+425.64+714.546+425.641C761.688+425.643+770.106+436.944+770.106+439.045C770.106+441.147+752.98+567.086+752.98+567.086C752.98+567.086+749.152+577.023+714.613+577.023C680.075+577.023+675.42+567.086+675.42+567.086L659.121+438.392Z" opacity="1" fill="#ffffff"/>
<path d="M660.852+440.277C660.852+440.277+669.396+452.757+714.546+452.913C760.159+453.07+768.239+440.277+768.239+440.277L751.668+563.953C751.668+563.953+747.965+573.373+714.546+573.373C681.126+573.373+676.623+563.953+676.623+563.953L660.852+440.277Z" opacity="1" fill="#000000"/>
<path d="M667.227+440.188C667.227+435.389+687.614+431.589+713.736+431.589C739.858+431.589+762+435.389+762+440.188C762+444.987+740.736+450.454+714.613+450.454C688.491+450.454+667.227+444.987+667.227+440.188Z" opacity="1" fill="#000000"/>
<path stroke="#000000" stroke-width="1.97" d="M661.831+442.13C661.831+442.13+661.469+440.509+661.554+440.169C662.147+437.816+667.434+428.588+710.71+428.689C763.486+428.812+767.322+438.63+767.577+440.434C767.602+440.61+767.297+442.111+767.297+442.111" fill="none" stroke-linecap="round" opacity="1" stroke-linejoin="round"/>
</g>
<g opacity="1">
<path d="M492.643+492.12C492.643+492.12+498.31+479.368+548.067+479.37C595.209+479.371+603.628+490.673+603.628+492.774C603.628+494.875+586.502+620.815+586.502+620.815C586.502+620.815+582.674+630.752+548.135+630.752C513.596+630.752+508.942+620.815+508.942+620.815L492.643+492.12Z" opacity="1" fill="#ffffff"/>
<path d="M494.374+494.006C494.374+494.006+502.917+506.486+548.067+506.641C593.681+506.798+601.761+494.006+601.761+494.006L585.19+617.682C585.19+617.682+581.487+627.102+548.067+627.102C514.648+627.102+510.145+617.682+510.145+617.682L494.374+494.006Z" opacity="1" fill="#000000"/>
<path d="M500.749+493.917C500.749+489.118+521.135+485.317+547.258+485.317C573.38+485.317+595.522+489.118+595.522+493.917C595.522+498.715+574.258+504.182+548.135+504.182C522.013+504.182+500.749+498.715+500.749+493.917Z" opacity="1" fill="#000000"/>
<path stroke="#000000" stroke-width="1.97" d="M495.353+495.858C495.353+495.858+494.991+494.238+495.076+493.897C495.668+491.544+500.956+482.316+544.232+482.417C597.008+482.54+600.844+492.358+601.099+494.162C601.124+494.339+600.819+495.84+600.819+495.84" fill="none" stroke-linecap="round" opacity="1" stroke-linejoin="round"/>
</g>
<g opacity="1">
<path d="M602.163+492.12C602.163+492.12+607.831+479.368+657.588+479.37C704.73+479.371+713.148+490.673+713.148+492.774C713.148+494.875+696.022+620.815+696.022+620.815C696.022+620.815+692.194+630.752+657.656+630.752C623.117+630.752+618.462+620.815+618.462+620.815L602.163+492.12Z" opacity="1" fill="#ffffff"/>
<path d="M603.894+494.006C603.894+494.006+612.438+506.486+657.588+506.641C703.201+506.798+711.281+494.006+711.281+494.006L694.711+617.682C694.711+617.682+691.007+627.102+657.588+627.102C624.168+627.102+619.665+617.682+619.665+617.682L603.894+494.006Z" opacity="1" fill="#000000"/>
<path d="M610.269+493.917C610.269+489.118+630.656+485.317+656.778+485.317C682.9+485.317+705.042+489.118+705.042+493.917C705.042+498.715+683.778+504.182+657.656+504.182C631.533+504.182+610.269+498.715+610.269+493.917Z" opacity="1" fill="#000000"/>
<path stroke="#000000" stroke-width="1.97" d="M604.873+495.858C604.873+495.858+604.511+494.238+604.597+493.897C605.189+491.544+610.477+482.316+653.752+482.417C706.528+482.54+710.364+492.358+710.619+494.162C710.644+494.339+710.339+495.84+710.339+495.84" fill="none" stroke-linecap="round" opacity="1" stroke-linejoin="round"/>
</g>
<g opacity="1">
<path d="M548.135+561.714C548.135+561.714+553.803+548.962+603.56+548.964C650.702+548.965+659.121+560.267+659.121+562.368C659.121+564.469+641.995+690.409+641.995+690.409C641.995+690.409+638.167+700.346+603.628+700.346C569.089+700.346+564.435+690.409+564.435+690.409L548.135+561.714Z" opacity="1" fill="#ffffff"/>
<path d="M549.866+563.6C549.866+563.6+558.41+576.08+603.56+576.235C649.174+576.392+657.254+563.6+657.254+563.6L640.683+687.276C640.683+687.276+636.979+696.696+603.56+696.696C570.141+696.696+565.637+687.276+565.637+687.276L549.866+563.6Z" opacity="1" fill="#000000"/>
<path d="M556.241+563.51C556.241+558.712+576.628+554.911+602.75+554.911C628.873+554.911+651.014+558.712+651.014+563.51C651.014+568.309+629.75+573.776+603.628+573.776C577.506+573.776+556.241+568.309+556.241+563.51Z" opacity="1" fill="#000000"/>
<path stroke="#000000" stroke-width="1.97" d="M550.846+565.452C550.846+565.452+550.483+563.832+550.569+563.491C551.161+561.138+556.449+551.91+599.724+552.011C652.501+552.134+656.337+561.952+656.591+563.756C656.616+563.933+656.312+565.433+656.312+565.433" fill="none" stroke-linecap="round" opacity="1" stroke-linejoin="round"/>
</g>
</g>
</svg>
